<?xml version="1.0" encoding="utf-8"?>
<!-- Generator: Adobe Illustrator 19.2.0, SVG Export Plug-In . SVG Version: 6.00 Build 0)  -->
<svg version="1.1" id="Layer_1" xmlns="http://www.w3.org/2000/svg" xmlns:xlink="http://www.w3.org/1999/xlink" x="0px" y="0px"
	 viewBox="-102.3 -101.3 258 258" style="enable-background:new -102.3 -101.3 258 258;" xml:space="preserve">
<style type="text/css">
	.st0{fill:#FFFFFF;}
	.st1{fill:none;stroke:#FFFFFF;stroke-width:2.9166;stroke-linecap:round;stroke-linejoin:round;stroke-miterlimit:10;}
	.st2{fill:none;stroke:#FFFFFF;stroke-width:3;stroke-linecap:round;stroke-linejoin:round;stroke-miterlimit:10;}
</style>
<g>
	<path class="st0" d="M95.9,61.5c-0.7,0-1.2,0.1-1.6,0.3c-0.4,0.2-0.6,0.5-0.6,0.9c0,0.4,0.2,0.8,0.5,1.1c0.3,0.3,0.9,0.6,1.8,0.9
		c0.8,0.3,1.3,0.5,1.7,0.7c0.3,0.2,0.6,0.5,0.8,0.8c0.2,0.3,0.3,0.6,0.3,1c0,0.8-0.3,1.3-0.9,1.7c-0.6,0.4-1.4,0.6-2.5,0.6
		c-1.1,0-2-0.2-2.7-0.5v-0.8c0.9,0.4,1.8,0.6,2.7,0.6c0.8,0,1.5-0.1,1.9-0.4c0.4-0.3,0.7-0.6,0.7-1.1c0-0.4-0.2-0.8-0.5-1.1
		c-0.3-0.3-0.9-0.6-1.7-0.9c-0.8-0.3-1.4-0.6-1.8-0.8s-0.6-0.5-0.8-0.7c-0.2-0.3-0.3-0.6-0.3-1c0-0.6,0.3-1.1,0.8-1.5
		c0.5-0.4,1.3-0.6,2.2-0.6c0.9,0,1.8,0.2,2.6,0.5l-0.3,0.7C97.4,61.7,96.6,61.5,95.9,61.5z M88.7,69c-0.4-0.4-0.5-1-0.5-1.9v-5.5
		h-1.3v-0.5l1.3-0.3l0.4-1.9h0.4v2h2.5v0.7h-2.5V67c0,0.6,0.1,1.1,0.3,1.4c0.2,0.3,0.6,0.5,1.1,0.5c0.5,0,0.9,0,1.3-0.1v0.6
		c-0.4,0.1-0.8,0.2-1.3,0.2C89.6,69.6,89,69.4,88.7,69z M84.6,64c0-0.9-0.2-1.5-0.5-1.9c-0.4-0.4-0.9-0.6-1.7-0.6
		c-1,0-1.8,0.3-2.2,0.8c-0.5,0.5-0.7,1.3-0.7,2.5v4.7h-0.8V61h0.7l0.1,1.2h0c0.6-0.9,1.5-1.3,2.9-1.3c1.9,0,2.9,1,2.9,3.1v5.5h-0.8
		V64z M82.1,38.2h0.8v12.1h-0.8V38.2z M78.4,49.2L78.4,49.2c-0.6,0.9-1.6,1.3-3,1.3c-1.9,0-2.9-1-2.9-3.1v-5.5h0.8v5.5
		c0,0.9,0.2,1.5,0.5,1.9c0.4,0.4,0.9,0.6,1.7,0.6c1,0,1.8-0.3,2.2-0.8c0.5-0.5,0.7-1.3,0.7-2.5v-4.7h0.8v8.5h-0.7L78.4,49.2z
		 M70.7,38.8c-0.6,0-1,0.2-1.3,0.5c-0.3,0.4-0.4,0.9-0.4,1.7v0.8h2v0.7h-2v7.8h-0.8v-7.8h-1.6v-0.5l1.6-0.3v-0.7
		c0-1,0.2-1.8,0.6-2.3c0.4-0.5,1-0.7,1.9-0.7c0.5,0,0.9,0.1,1.4,0.2L71.9,39C71.5,38.9,71.1,38.8,70.7,38.8z M68.9,60.8
		c1.2,0,2.1,0.4,2.7,1.2c0.7,0.8,1,1.9,1,3.2c0,1.4-0.3,2.5-1,3.2c-0.7,0.8-1.6,1.2-2.8,1.2c-0.7,0-1.4-0.2-2-0.5
		c-0.6-0.4-1-0.9-1.3-1.5c-0.3-0.7-0.5-1.4-0.5-2.3c0-1.4,0.3-2.5,1-3.2C66.8,61.2,67.8,60.8,68.9,60.8z M66,65.2
		c0,1.2,0.3,2.1,0.8,2.7c0.5,0.7,1.2,1,2.2,1c0.9,0,1.7-0.3,2.2-1c0.5-0.7,0.8-1.6,0.8-2.7c0-1.2-0.3-2.1-0.8-2.7
		c-0.5-0.6-1.2-1-2.2-1c-0.9,0-1.7,0.3-2.2,1C66.2,63.1,66,64,66,65.2z M63,49.9c-0.4-0.4-0.5-1-0.5-1.9v-5.5h-1.3v-0.5l1.3-0.3
		l0.4-1.9h0.4v2h2.5v0.7h-2.5v5.4c0,0.6,0.1,1.1,0.3,1.4c0.2,0.3,0.6,0.5,1.1,0.5s0.9,0,1.3-0.1v0.6c-0.4,0.1-0.8,0.2-1.3,0.2
		C64,50.5,63.4,50.3,63,49.9z M62.4,62c0.6,0.7,0.9,1.8,0.9,3.3c0,1.4-0.3,2.5-0.9,3.2c-0.6,0.8-1.5,1.1-2.6,1.1
		c-1.3,0-2.3-0.5-2.9-1.5h-0.1l0,0.7c0,0.4,0,0.8,0,1.3v3.2h-0.8V61h0.7l0.1,1.2h0c0.6-0.9,1.5-1.4,2.8-1.4
		C60.9,60.8,61.8,61.2,62.4,62z M59.8,61.5c-1,0-1.7,0.3-2.2,0.8c-0.5,0.5-0.7,1.4-0.7,2.6v0.2c0,1.3,0.2,2.3,0.7,2.8
		c0.4,0.6,1.2,0.8,2.2,0.8c0.9,0,1.5-0.3,2-1c0.5-0.6,0.7-1.5,0.7-2.7C62.5,62.8,61.6,61.5,59.8,61.5z M59,44.8
		c0-0.9-0.2-1.5-0.5-1.9c-0.4-0.4-0.9-0.6-1.7-0.6c-1,0-1.8,0.3-2.2,0.8c-0.5,0.5-0.7,1.3-0.7,2.5v4.7H53V38.2h0.8v3.9l0,1.1h0.1
		c0.3-0.5,0.7-0.9,1.2-1.1c0.5-0.2,1.1-0.3,1.8-0.3c1.9,0,2.9,1,2.9,3.1v5.5H59V44.8z M50.2,44.4c0,0.8-0.3,1.5-0.8,2
		c-0.5,0.5-1.3,0.8-2.2,0.8c-0.4,0-0.7,0-0.8,0c-0.3,0.2-0.5,0.3-0.7,0.6c-0.2,0.2-0.2,0.4-0.2,0.7c0,0.3,0.1,0.5,0.3,0.6
		c0.2,0.1,0.6,0.2,1,0.2h1.5c0.9,0,1.6,0.2,2.1,0.6c0.5,0.4,0.7,0.9,0.7,1.6c0,0.9-0.4,1.6-1.1,2.1c-0.7,0.5-1.8,0.7-3.1,0.7
		c-1.1,0-1.9-0.2-2.5-0.6c-0.6-0.4-0.9-1-0.9-1.7c0-0.6,0.2-1.1,0.5-1.4c0.4-0.4,0.9-0.6,1.5-0.8c-0.3-0.1-0.5-0.3-0.6-0.5
		c-0.2-0.2-0.2-0.4-0.2-0.7c0-0.6,0.4-1.1,1.1-1.5c-0.5-0.2-0.9-0.5-1.2-1c-0.3-0.4-0.4-0.9-0.4-1.5c0-0.8,0.3-1.5,0.8-2
		c0.5-0.5,1.3-0.8,2.2-0.8c0.6,0,1,0.1,1.3,0.2h2.7v0.5l-1.8,0.1C50,43.1,50.2,43.7,50.2,44.4z M44.4,51.8c0,1.2,0.9,1.7,2.6,1.7
		c2.2,0,3.3-0.7,3.3-2.1c0-0.5-0.2-0.9-0.5-1.1c-0.3-0.2-0.9-0.3-1.7-0.3h-1.4C45.2,49.9,44.4,50.5,44.4,51.8z M48.9,42.9
		c-0.4-0.4-0.9-0.5-1.6-0.5c-0.7,0-1.2,0.2-1.6,0.6c-0.4,0.4-0.6,0.9-0.6,1.6c0,0.7,0.2,1.2,0.6,1.5c0.4,0.4,0.9,0.5,1.6,0.5
		c0.7,0,1.3-0.2,1.6-0.5c0.4-0.4,0.6-0.9,0.6-1.6C49.5,43.8,49.3,43.2,48.9,42.9z M46.9,64.6l1.6,0V64c0-0.8-0.2-1.4-0.5-1.8
		c-0.3-0.4-0.9-0.6-1.6-0.6c-0.8,0-1.6,0.2-2.4,0.7l-0.3-0.7c0.9-0.4,1.9-0.7,2.8-0.7c0.9,0,1.6,0.2,2.1,0.7
		c0.5,0.5,0.7,1.2,0.7,2.3v5.6h-0.6l-0.2-1.3h-0.1c-0.4,0.5-0.9,0.9-1.3,1.2c-0.5,0.2-1,0.3-1.6,0.3c-0.8,0-1.5-0.2-1.9-0.6
		c-0.5-0.4-0.7-1-0.7-1.8c0-0.8,0.3-1.5,1-1.9C44.6,64.8,45.6,64.6,46.9,64.6z M44.2,68.5c0.3,0.3,0.8,0.4,1.4,0.4
		c0.9,0,1.6-0.3,2.1-0.8c0.5-0.5,0.8-1.2,0.8-2.2v-0.8L47,65.2c-1.2,0.1-2,0.2-2.6,0.6c-0.5,0.3-0.8,0.8-0.8,1.5
		C43.7,67.8,43.8,68.2,44.2,68.5z M41.4,40.3c-0.3,0-0.5-0.3-0.5-0.8c0-0.5,0.2-0.7,0.5-0.7c0.2,0,0.3,0.1,0.4,0.2
		c0.1,0.1,0.1,0.3,0.1,0.6c0,0.2,0,0.4-0.1,0.6C41.7,40.2,41.6,40.3,41.4,40.3z M41.1,41.9h0.8v8.5h-0.8V41.9z M41.5,61.7H39V67
		c0,0.6,0.1,1.1,0.3,1.4c0.2,0.3,0.6,0.5,1.1,0.5c0.5,0,0.9,0,1.3-0.1v0.6c-0.4,0.1-0.8,0.2-1.3,0.2c-0.7,0-1.3-0.2-1.7-0.6
		c-0.4-0.4-0.5-1-0.5-1.9v-5.5h-1.3v-0.5l1.3-0.3l0.4-1.9H39v2h2.5V61.7z M36.2,45.6c0.8,0.3,1.3,0.5,1.7,0.7
		c0.3,0.2,0.6,0.5,0.8,0.8c0.2,0.3,0.3,0.6,0.3,1c0,0.8-0.3,1.3-0.9,1.7c-0.6,0.4-1.4,0.6-2.5,0.6c-1.1,0-2-0.2-2.7-0.5v-0.8
		c0.9,0.4,1.8,0.6,2.7,0.6c0.8,0,1.5-0.1,1.9-0.4c0.4-0.3,0.7-0.6,0.7-1.1c0-0.4-0.2-0.8-0.5-1.1c-0.3-0.3-0.9-0.6-1.7-0.9
		c-0.8-0.3-1.4-0.6-1.8-0.8c-0.3-0.2-0.6-0.5-0.8-0.7c-0.2-0.3-0.3-0.6-0.3-1c0-0.6,0.3-1.1,0.8-1.5c0.5-0.4,1.3-0.6,2.2-0.6
		c0.9,0,1.8,0.2,2.6,0.5l-0.3,0.7c-0.8-0.3-1.6-0.5-2.3-0.5c-0.7,0-1.2,0.1-1.6,0.3c-0.4,0.2-0.6,0.5-0.6,0.9c0,0.4,0.2,0.8,0.5,1.1
		C34.6,45,35.2,45.3,36.2,45.6z M34.7,61.6c0.5,0.5,0.7,1.2,0.7,2.3v5.6h-0.6l-0.2-1.3h-0.1c-0.4,0.5-0.9,0.9-1.3,1.2
		c-0.5,0.2-1,0.3-1.6,0.3c-0.8,0-1.5-0.2-1.9-0.6c-0.5-0.4-0.7-1-0.7-1.8c0-0.8,0.3-1.5,1-1.9c0.7-0.5,1.7-0.7,3-0.7l1.6,0V64
		c0-0.8-0.2-1.4-0.5-1.8c-0.3-0.4-0.9-0.6-1.6-0.6c-0.8,0-1.6,0.2-2.4,0.7l-0.3-0.7c0.9-0.4,1.9-0.7,2.8-0.7
		C33.5,60.9,34.2,61.1,34.7,61.6z M34.6,65.2l-1.5,0.1c-1.2,0.1-2,0.2-2.6,0.6c-0.5,0.3-0.8,0.8-0.8,1.5c0,0.5,0.2,0.9,0.5,1.2
		c0.3,0.3,0.8,0.4,1.4,0.4c0.9,0,1.6-0.3,2.1-0.8c0.5-0.5,0.8-1.2,0.8-2.2V65.2z M30.1,44.8c0-0.9-0.2-1.5-0.5-1.9
		c-0.4-0.4-0.9-0.6-1.7-0.6c-1,0-1.8,0.3-2.2,0.8c-0.5,0.5-0.7,1.3-0.7,2.5v4.7h-0.8v-8.5h0.7L25,43h0c0.6-0.9,1.5-1.3,2.9-1.3
		c1.9,0,2.9,1,2.9,3.1v5.5h-0.8V44.8z M26,62.3L26,62.3c0-0.7,0-1.3,0-1.9v-3h0.8v12.1h-0.5l-0.2-1.3H26c-0.6,1-1.6,1.4-2.8,1.4
		c-1.2,0-2.1-0.4-2.7-1.1c-0.6-0.7-0.9-1.8-0.9-3.2c0-1.5,0.3-2.6,0.9-3.4s1.5-1.2,2.7-1.2c0.6,0,1.1,0.1,1.6,0.3
		C25.3,61.4,25.7,61.8,26,62.3z M23.2,61.5c-0.9,0-1.6,0.3-2.1,1c-0.5,0.6-0.7,1.6-0.7,2.8c0,2.4,0.9,3.6,2.8,3.6
		c1,0,1.7-0.3,2.1-0.8c0.4-0.6,0.7-1.5,0.7-2.7v-0.1c0-1.3-0.2-2.2-0.7-2.8C24.9,61.8,24.2,61.5,23.2,61.5z M20.3,39h0.8v11.4h-0.8
		V39z M75.4,57.9c0.2,0,0.3,0.1,0.4,0.2c0.1,0.1,0.1,0.3,0.1,0.6c0,0.2,0,0.4-0.1,0.6c-0.1,0.1-0.2,0.2-0.4,0.2
		c-0.3,0-0.5-0.3-0.5-0.8C74.9,58.2,75.1,57.9,75.4,57.9z M75.8,69.5H75V61h0.8V69.5z"/>
	<path class="st0" d="M146.7,23.8v7.4h-29.2v-6.1L128,14.5c3.1-3.2,5.1-5.4,6.1-6.6c1-1.2,1.6-2.4,2.1-3.4c0.4-1,0.6-2.1,0.6-3.2
		c0-1.7-0.5-2.9-1.4-3.7c-0.9-0.8-2.2-1.2-3.7-1.2c-1.6,0-3.2,0.4-4.7,1.1c-1.5,0.7-3.1,1.8-4.8,3.2l-4.8-5.7c2.1-1.7,3.8-3,5.1-3.7
		c1.4-0.7,2.8-1.3,4.4-1.7c1.6-0.4,3.4-0.6,5.4-0.6c2.6,0,4.9,0.5,6.9,1.4c2,0.9,3.6,2.3,4.7,4c1.1,1.7,1.7,3.7,1.7,5.9
		c0,1.9-0.3,3.7-1,5.4c-0.7,1.7-1.7,3.4-3.1,5.2c-1.4,1.8-3.9,4.3-7.5,7.6l-5.4,5v0.4H146.7z M84,25.1l10.5-10.6
		c3.1-3.2,5.1-5.4,6.1-6.6c1-1.2,1.6-2.4,2.1-3.4c0.4-1,0.6-2.1,0.6-3.2c0-1.7-0.5-2.9-1.4-3.7c-0.9-0.8-2.2-1.2-3.7-1.2
		c-1.6,0-3.2,0.4-4.7,1.1c-1.5,0.7-3.1,1.8-4.8,3.2l-4.8-5.7C86-6.8,87.7-8,89-8.8c1.4-0.7,2.8-1.3,4.4-1.7c1.6-0.4,3.4-0.6,5.4-0.6
		c2.6,0,4.9,0.5,6.9,1.4c2,0.9,3.6,2.3,4.7,4c1.1,1.7,1.7,3.7,1.7,5.9c0,1.9-0.3,3.7-1,5.4s-1.7,3.4-3.1,5.2
		c-1.4,1.8-3.9,4.3-7.5,7.6l-5.4,5v0.4h18.2v7.4H84V25.1z M58.7,31.8c-2.5,0-4.4-0.1-5.6-0.4v-7.1c1.6,0.4,3.3,0.6,5,0.6
		c3,0,5.4-0.4,7.3-1.3c1.9-0.9,3.4-2.2,4.4-4.1c1-1.9,1.6-4.4,1.7-7.7h-0.3c-1.1,1.8-2.4,3-3.8,3.8c-1.5,0.7-3.3,1.1-5.4,1.1
		c-3.6,0-6.5-1.2-8.6-3.5c-2.1-2.3-3.1-5.6-3.1-9.7c0-4.5,1.3-8,3.8-10.6c2.5-2.6,6-3.9,10.4-3.9c3.1,0,5.8,0.7,8.1,2.2
		c2.3,1.4,4.1,3.5,5.3,6.3c1.2,2.7,1.9,6,1.9,9.8c0,8.2-1.7,14.3-5.2,18.4C71,29.8,65.7,31.8,58.7,31.8z M69.1-1.5
		c-1.2-1.6-2.7-2.3-4.6-2.3c-1.8,0-3.3,0.6-4.3,1.9c-1,1.3-1.5,3.1-1.5,5.4c0,2,0.5,3.6,1.4,4.8s2.4,1.8,4.3,1.8
		c1.8,0,3.3-0.6,4.6-1.8c1.3-1.2,1.9-2.5,1.9-4C70.9,2,70.3,0.1,69.1-1.5z M25.2,31.8c-2.5,0-4.4-0.1-5.6-0.4v-7.1
		c1.6,0.4,3.3,0.6,5,0.6c3,0,5.4-0.4,7.3-1.3c1.9-0.9,3.4-2.2,4.4-4.1c1-1.9,1.6-4.4,1.7-7.7h-0.3c-1.1,1.8-2.4,3-3.8,3.8
		c-1.5,0.7-3.3,1.1-5.4,1.1c-3.6,0-6.5-1.2-8.6-3.5c-2.1-2.3-3.1-5.6-3.1-9.7c0-4.5,1.3-8,3.8-10.6c2.5-2.6,6-3.9,10.4-3.9
		c3.1,0,5.8,0.7,8.1,2.2c2.3,1.4,4.1,3.5,5.3,6.3c1.2,2.7,1.9,6,1.9,9.8c0,8.2-1.7,14.3-5.2,18.4C37.5,29.8,32.3,31.8,25.2,31.8z
		 M35.6-1.5c-1.2-1.6-2.7-2.3-4.6-2.3c-1.8,0-3.3,0.6-4.3,1.9c-1,1.3-1.5,3.1-1.5,5.4c0,2,0.5,3.6,1.4,4.8C27.6,9.4,29,10,30.9,10
		c1.8,0,3.3-0.6,4.6-1.8c1.3-1.2,1.9-2.5,1.9-4C37.4,2,36.8,0.1,35.6-1.5z"/>
	<g>
		<path class="st1" d="M-11.2,68.2h-68c-7.8,0-14.1-6.4-14.1-14.1V-6.2c0-7.8,6.4-14.1,14.1-14.1h68c7.8,0,14.1,6.4,14.1,14.1V54
			C2.9,61.8-3.4,68.2-11.2,68.2z"/>
		<line class="st2" x1="-93" y1="8.2" x2="3" y2="8.2"/>
		<line class="st2" x1="-93" y1="39.2" x2="3" y2="39.2"/>
		<circle class="st1" cx="-77.5" cy="-6" r="4.8"/>
		<circle class="st1" cx="-77.5" cy="23.7" r="4.8"/>
		<circle class="st1" cx="-77.5" cy="54.1" r="4.8"/>
		<line class="st2" x1="-36" y1="-6.8" x2="-11" y2="-6.8"/>
		<line class="st2" x1="-36" y1="23.2" x2="-11" y2="23.2"/>
		<line class="st2" x1="-36" y1="54.2" x2="-11" y2="54.2"/>
		<path class="st1" d="M-58.8,69.8L-58.8,69.8c0,3.2-2.6,5.8-5.8,5.8h-8.1c-3.2,0-5.8-2.6-5.8-5.8v0"/>
		<path class="st1" d="M-10.6,69.8L-10.6,69.8c0,3.2-2.6,5.8-5.8,5.8h-8.1c-3.2,0-5.8-2.6-5.8-5.8v0"/>
	</g>
</g>
</svg>
