<?xml version="1.0" encoding="utf-8"?>
<!-- Generator: Adobe Illustrator 19.2.0, SVG Export Plug-In . SVG Version: 6.00 Build 0)  -->
<svg version="1.1" id="Layer_1" xmlns="http://www.w3.org/2000/svg" xmlns:xlink="http://www.w3.org/1999/xlink" x="0px" y="0px"
	 viewBox="-88.3 -101.1 258 258" style="enable-background:new -88.3 -101.1 258 258;" xml:space="preserve">
<style type="text/css">
	.st0{fill:#FFFFFF;}
	.st1{fill:none;stroke:#FFFFFF;stroke-width:5.4566;stroke-linecap:round;stroke-linejoin:round;stroke-miterlimit:10;}
	.st2{fill:none;stroke:#FFFFFF;stroke-width:3.7113;stroke-linecap:round;stroke-linejoin:round;stroke-miterlimit:10;}
</style>
<g>
	<path class="st0" d="M49.4,105.9c-0.8,0-1.4,0.1-1.9,0.4c-0.5,0.3-0.7,0.6-0.7,1.1c0,0.5,0.2,0.9,0.5,1.2c0.4,0.3,1.1,0.6,2.1,1
		c0.9,0.3,1.5,0.6,1.9,0.9c0.4,0.3,0.7,0.5,0.9,0.9c0.2,0.3,0.3,0.7,0.3,1.1c0,0.9-0.3,1.5-1,2c-0.7,0.5-1.6,0.7-2.8,0.7
		c-1.3,0-2.4-0.2-3.1-0.6v-1c1,0.5,2,0.7,3.1,0.7c1,0,1.7-0.2,2.2-0.5c0.5-0.3,0.8-0.7,0.8-1.3c0-0.5-0.2-0.9-0.6-1.2
		c-0.4-0.3-1.1-0.7-2-1c-1-0.4-1.7-0.7-2.1-0.9c-0.4-0.3-0.7-0.5-0.9-0.9c-0.2-0.3-0.3-0.7-0.3-1.2c0-0.7,0.3-1.3,0.9-1.7
		c0.6-0.4,1.5-0.6,2.6-0.6c1.1,0,2.1,0.2,3,0.6l-0.3,0.8C51.1,106.1,50.2,105.9,49.4,105.9z M41,114.5c-0.4-0.5-0.6-1.2-0.6-2.2
		v-6.3h-1.5v-0.5l1.5-0.4l0.5-2.2h0.5v2.4h2.9v0.8h-2.9v6.2c0,0.7,0.1,1.3,0.4,1.7c0.3,0.4,0.7,0.5,1.2,0.5c0.6,0,1.1,0,1.5-0.1v0.7
		c-0.4,0.1-0.9,0.2-1.5,0.2C42,115.2,41.4,115,41,114.5z M36.2,108.7c0-1-0.2-1.7-0.6-2.1c-0.4-0.4-1.1-0.7-1.9-0.7
		c-1.2,0-2,0.3-2.6,0.9c-0.5,0.6-0.8,1.5-0.8,2.9v5.4h-0.9v-9.8h0.8l0.2,1.3h0.1c0.6-1,1.8-1.5,3.4-1.5c2.2,0,3.3,1.2,3.3,3.6v6.4
		h-0.9V108.7z M25.7,103.4c-0.4,0-0.6-0.3-0.6-0.9c0-0.6,0.2-0.9,0.6-0.9c0.2,0,0.3,0.1,0.4,0.2c0.1,0.1,0.2,0.4,0.2,0.6
		c0,0.3-0.1,0.5-0.2,0.6C26,103.4,25.9,103.4,25.7,103.4z M21.2,108.6c0-1-0.2-1.6-0.6-2.1c-0.4-0.4-0.9-0.7-1.7-0.7
		c-1,0-1.7,0.3-2.2,0.8c-0.5,0.6-0.7,1.4-0.7,2.6v5.7H15v-6.7c0-1.6-0.8-2.5-2.3-2.5c-1,0-1.8,0.3-2.2,0.9c-0.5,0.6-0.7,1.5-0.7,2.9
		v5.4H8.9v-9.8h0.7l0.2,1.3h0.1c0.3-0.5,0.7-0.9,1.2-1.1c0.5-0.3,1-0.4,1.7-0.4c1.5,0,2.5,0.6,3,1.7h0c0.3-0.6,0.7-1,1.3-1.3
		c0.5-0.3,1.2-0.4,1.8-0.4c1.1,0,1.9,0.3,2.4,0.9c0.5,0.6,0.8,1.5,0.8,2.7v6.4h-0.9V108.6z M137.8,104.5c0.5,0.6,0.8,1.4,0.8,2.6
		v6.5h-0.7l-0.2-1.5h-0.1c-0.5,0.6-1,1.1-1.5,1.3c-0.5,0.3-1.1,0.4-1.8,0.4c-1,0-1.7-0.2-2.2-0.7c-0.5-0.5-0.8-1.2-0.8-2
		c0-1,0.4-1.7,1.2-2.2c0.8-0.5,2-0.8,3.5-0.8l1.9-0.1v-0.6c0-0.9-0.2-1.6-0.6-2.1c-0.4-0.5-1-0.7-1.8-0.7c-0.9,0-1.8,0.3-2.8,0.8
		l-0.3-0.8c1.1-0.5,2.1-0.8,3.2-0.8C136.4,103.7,137.2,104,137.8,104.5z M137.7,108.7l-1.7,0.1c-1.4,0.1-2.4,0.3-2.9,0.6
		c-0.6,0.4-0.9,0.9-0.9,1.7c0,0.6,0.2,1.1,0.6,1.4c0.4,0.3,0.9,0.5,1.6,0.5c1,0,1.9-0.3,2.5-0.9c0.6-0.6,0.9-1.4,0.9-2.5V108.7z
		 M126.4,113.6l-2.1-6.5c-0.1-0.4-0.3-1.1-0.5-1.9h-0.1l-0.2,0.7l-0.4,1.3l-2.2,6.5H120l-2.8-9.8h1l1.6,5.7c0.4,1.4,0.6,2.4,0.7,3.1
		h0.1c0.4-1.4,0.6-2.3,0.8-2.8l2-6h0.8l1.9,5.9c0.4,1.4,0.7,2.3,0.8,2.8h0.1c0-0.4,0.3-1.4,0.7-3.1l1.5-5.6h0.9l-2.7,9.8H126.4z
		 M0,113.6L0,113.6c-0.8,1.1-1.9,1.7-3.3,1.7c-1.4,0-2.4-0.4-3.1-1.3c-0.7-0.8-1.1-2.1-1.1-3.7c0-1.7,0.4-3,1.1-3.9
		c0.7-0.9,1.7-1.3,3.1-1.3c0.7,0,1.3,0.1,1.8,0.4c0.5,0.3,1,0.7,1.4,1.3H0c0-0.8-0.1-1.5-0.1-2.2v-3.5h0.9v14H0.2L0,113.6z
		 M-0.1,110.2c0-1.5-0.3-2.6-0.8-3.3c-0.5-0.7-1.3-1-2.5-1c-1.1,0-1.9,0.4-2.4,1.1c-0.5,0.7-0.8,1.8-0.8,3.3c0,2.8,1.1,4.1,3.2,4.1
		c1.1,0,1.9-0.3,2.4-1c0.5-0.6,0.8-1.7,0.8-3.2V110.2z M-15.7,113.4c0.6,0.7,1.5,1.1,2.6,1.1c0.6,0,1.1,0,1.5-0.1
		c0.4-0.1,1-0.2,1.6-0.5v0.8c-0.6,0.2-1.1,0.4-1.5,0.5c-0.5,0.1-1,0.1-1.6,0.1c-1.4,0-2.5-0.4-3.3-1.3c-0.8-0.9-1.2-2.1-1.2-3.7
		c0-1.6,0.4-2.8,1.2-3.7c0.8-0.9,1.8-1.4,3.1-1.4c1.2,0,2.1,0.4,2.7,1.2c0.7,0.8,1,1.9,1,3.3v0.7h-7.1
		C-16.6,111.6-16.3,112.7-15.7,113.4z M-10.5,109.5c0-1.1-0.2-2-0.7-2.7c-0.5-0.6-1.2-1-2-1c-0.9,0-1.7,0.3-2.3,0.9
		c-0.6,0.6-0.9,1.5-1,2.7H-10.5z M114.6,104.5c0.5,0.6,0.8,1.4,0.8,2.6v6.5h-0.7l-0.2-1.5h-0.1c-0.5,0.6-1,1.1-1.5,1.3
		c-0.5,0.3-1.1,0.4-1.8,0.4c-1,0-1.7-0.2-2.2-0.7c-0.5-0.5-0.8-1.2-0.8-2c0-1,0.4-1.7,1.2-2.2c0.8-0.5,1.9-0.8,3.5-0.8l1.9-0.1v-0.6
		c0-0.9-0.2-1.6-0.6-2.1c-0.4-0.5-1-0.7-1.8-0.7c-0.9,0-1.8,0.3-2.8,0.8l-0.3-0.8c1.1-0.5,2.1-0.8,3.2-0.8
		C113.3,103.7,114.1,104,114.6,104.5z M114.5,108.7l-1.7,0.1c-1.4,0.1-2.4,0.3-2.9,0.6c-0.6,0.4-0.9,0.9-0.9,1.7
		c0,0.6,0.2,1.1,0.6,1.4c0.4,0.3,0.9,0.5,1.6,0.5c1,0,1.9-0.3,2.5-0.9c0.6-0.6,0.9-1.4,0.9-2.5V108.7z M-21.1,113.6L-21.1,113.6
		c-0.8,1.1-1.9,1.7-3.3,1.7c-1.4,0-2.4-0.4-3.1-1.3c-0.7-0.8-1.1-2.1-1.1-3.7c0-1.7,0.4-3,1.1-3.9c0.7-0.9,1.7-1.3,3.1-1.3
		c0.7,0,1.3,0.1,1.8,0.4c0.5,0.3,1,0.7,1.4,1.3h0.1c0-0.8-0.1-1.5-0.1-2.2v-3.5h0.9v14h-0.6L-21.1,113.6z M-21.2,110.2
		c0-1.5-0.3-2.6-0.8-3.3c-0.5-0.7-1.3-1-2.5-1c-1.1,0-1.9,0.4-2.4,1.1c-0.5,0.7-0.8,1.8-0.8,3.3c0,2.8,1.1,4.1,3.2,4.1
		c1.1,0,1.9-0.3,2.4-1c0.5-0.6,0.8-1.7,0.8-3.2V110.2z M100.8,113.6h-0.9v-6.3c0-1-0.2-1.7-0.6-2.1c-0.4-0.4-1.1-0.7-1.9-0.7
		c-1.2,0-2,0.3-2.6,0.9c-0.5,0.6-0.8,1.5-0.8,2.9v5.4h-0.9v-9.8h0.8l0.2,1.3h0.1c0.6-1,1.8-1.5,3.4-1.5c2.2,0,3.3,1.2,3.3,3.6V113.6
		z M-32.1,108.7c0-1-0.2-1.7-0.6-2.1c-0.4-0.4-1.1-0.7-1.9-0.7c-1.2,0-2,0.3-2.6,0.9c-0.5,0.6-0.8,1.5-0.8,2.9v5.4h-0.9v-9.8h0.8
		l0.2,1.3h0.1c0.6-1,1.8-1.5,3.4-1.5c2.2,0,3.3,1.2,3.3,3.6v6.4h-0.9V108.7z M90.4,108.1v0.7h-7.1c0,1.3,0.3,2.4,0.9,3.1
		c0.6,0.7,1.5,1.1,2.6,1.1c0.6,0,1.1,0,1.5-0.1c0.4-0.1,1-0.2,1.6-0.5v0.8c-0.6,0.2-1.1,0.4-1.5,0.5c-0.5,0.1-1,0.1-1.6,0.1
		c-1.4,0-2.5-0.4-3.3-1.3c-0.8-0.9-1.2-2.1-1.2-3.7c0-1.6,0.4-2.8,1.2-3.7c0.8-0.9,1.8-1.4,3.1-1.4c1.2,0,2.1,0.4,2.7,1.2
		C90.1,105.7,90.4,106.8,90.4,108.1z M86.7,104.5c-0.9,0-1.7,0.3-2.3,0.9c-0.6,0.6-0.9,1.5-1,2.7h6.1c0-1.1-0.2-2-0.7-2.7
		C88.2,104.8,87.5,104.5,86.7,104.5z M-43,113.5L-43,113.5c-0.6,0.6-1.1,1.1-1.6,1.3c-0.5,0.3-1.1,0.4-1.8,0.4c-1,0-1.7-0.2-2.2-0.7
		s-0.8-1.2-0.8-2c0-1,0.4-1.7,1.2-2.2c0.8-0.5,2-0.8,3.5-0.8l1.9-0.1v-0.6c0-0.9-0.2-1.6-0.6-2.1c-0.4-0.5-1-0.7-1.8-0.7
		c-0.9,0-1.8,0.3-2.8,0.8l-0.3-0.8c1.1-0.5,2.1-0.8,3.2-0.8c1.1,0,1.9,0.3,2.4,0.8c0.5,0.6,0.8,1.4,0.8,2.6v6.5h-0.7L-43,113.5z
		 M-43,110.1l-1.7,0.1c-1.4,0.1-2.4,0.3-2.9,0.6c-0.6,0.4-0.9,0.9-0.9,1.7c0,0.6,0.2,1.1,0.6,1.4c0.4,0.3,0.9,0.5,1.6,0.5
		c1,0,1.9-0.3,2.5-0.9c0.6-0.6,0.9-1.4,0.9-2.5V110.1z M81.3,103.9l-3.8,9.8h-0.9l-3.8-9.8h0.9l2.5,6.6c0.3,0.8,0.6,1.6,0.8,2.2h0.1
		c0.2-0.8,0.5-1.6,0.8-2.2l2.5-6.6H81.3z M-52.1,105.9c-0.8,0-1.5,0.4-2.1,1.1c-0.5,0.7-0.8,1.6-0.8,2.7v5.4h-0.9v-9.8h0.8l0.1,1.8
		h0.1c0.4-0.7,0.8-1.2,1.3-1.5c0.5-0.3,1-0.4,1.7-0.4c0.4,0,0.9,0,1.3,0.1l-0.2,0.9C-51.3,106-51.7,105.9-52.1,105.9z M70.7,102
		c-0.4,0-0.6-0.3-0.6-0.9c0-0.6,0.2-0.9,0.6-0.9c0.2,0,0.3,0.1,0.4,0.2c0.1,0.1,0.2,0.4,0.2,0.6c0,0.3-0.1,0.5-0.2,0.6
		C71.1,101.9,70.9,102,70.7,102z M-62.8,115.2c-0.7,0-1.3-0.1-1.9-0.4c-0.6-0.3-1-0.7-1.3-1.2h-0.1l-0.3,1.5h-0.6v-14h0.9v3.5
		c0,0.5,0,1,0,1.5l0,0.8h0.1c0.4-0.6,0.8-1,1.3-1.3c0.5-0.3,1.2-0.4,1.9-0.4c1.4,0,2.4,0.4,3.1,1.3c0.7,0.9,1,2.1,1,3.8
		c0,1.6-0.4,2.9-1.1,3.8C-60.4,114.8-61.5,115.2-62.8,115.2z M-62.8,105.9c-1.2,0-2,0.3-2.5,1c-0.5,0.7-0.7,1.7-0.7,3.3v0.2
		c0,1.5,0.3,2.5,0.8,3.2c0.5,0.6,1.3,1,2.4,1c1.1,0,1.9-0.4,2.4-1.1c0.5-0.7,0.8-1.8,0.8-3.2C-59.6,107.3-60.6,105.9-62.8,105.9z
		 M60.2,106.9c0-1,0.3-1.8,0.9-2.3c0.6-0.6,1.5-0.9,2.5-0.9c0.6,0,1.1,0.1,1.5,0.2h3.1v0.6l-2,0.1c0.5,0.7,0.8,1.4,0.8,2.2
		c0,0.9-0.3,1.7-0.9,2.3c-0.6,0.6-1.5,0.9-2.5,0.9c-0.4,0-0.8,0-0.9-0.1c-0.4,0.2-0.6,0.4-0.8,0.7c-0.2,0.3-0.3,0.5-0.3,0.8
		c0,0.3,0.1,0.5,0.4,0.7c0.2,0.1,0.6,0.2,1.2,0.2h1.7c1.1,0,1.9,0.2,2.4,0.6c0.6,0.4,0.8,1.1,0.8,1.9c0,1-0.4,1.8-1.3,2.4
		c-0.8,0.6-2,0.8-3.6,0.8c-1.2,0-2.2-0.2-2.9-0.7c-0.7-0.5-1-1.1-1-2c0-0.7,0.2-1.2,0.6-1.7c0.4-0.4,1-0.7,1.7-0.9
		c-0.3-0.1-0.5-0.3-0.7-0.5c-0.2-0.2-0.3-0.5-0.3-0.8c0-0.7,0.4-1.2,1.3-1.7c-0.6-0.2-1-0.6-1.3-1.1
		C60.4,108.1,60.2,107.6,60.2,106.9z M60.3,115.3c0,1.3,1,2,3,2c2.6,0,3.9-0.8,3.9-2.5c0-0.6-0.2-1-0.6-1.3c-0.4-0.3-1.1-0.4-2-0.4
		H63C61.2,113.2,60.3,113.9,60.3,115.3z M61.8,108.7c0.5,0.4,1.1,0.6,1.8,0.6c0.8,0,1.4-0.2,1.9-0.6c0.4-0.4,0.7-1,0.7-1.8
		c0-0.8-0.2-1.5-0.7-1.9c-0.4-0.4-1.1-0.6-1.9-0.6c-0.8,0-1.4,0.2-1.8,0.7c-0.4,0.4-0.7,1.1-0.7,1.9
		C61.1,107.7,61.3,108.2,61.8,108.7z M71.2,113.6h-0.9v-9.8h0.9V113.6z M141,103.9l2.1,5.5c0.6,1.7,1,2.8,1.2,3.4h0.1
		c0.3-0.8,0.7-1.9,1.2-3.5l2.1-5.4h0.9l-4.4,11.3c-0.4,0.9-0.7,1.5-0.9,1.9c-0.2,0.3-0.5,0.6-0.8,0.7c-0.3,0.2-0.7,0.2-1.2,0.2
		c-0.3,0-0.7-0.1-1.1-0.2v-0.8c0.3,0.1,0.7,0.1,1.1,0.1c0.3,0,0.6-0.1,0.8-0.2c0.2-0.1,0.4-0.4,0.6-0.7c0.2-0.3,0.4-0.8,0.7-1.4
		c0.2-0.7,0.4-1.1,0.5-1.3l-3.8-9.8H141z M26.1,115.1h-0.9v-9.8h0.9V115.1z"/>
	<path class="st0" d="M119.5,75.6c-3.2,4.6-8,6.9-14.6,6.9c-6.4,0-11.1-2.4-14.4-7.1c-3.2-4.7-4.8-11.7-4.8-21
		c0-9.7,1.6-16.8,4.7-21.3c3.1-4.6,8-6.9,14.5-6.9c6.4,0,11.2,2.4,14.4,7.2c3.3,4.8,4.9,11.8,4.9,21C124.3,64,122.7,71,119.5,75.6z
		 M110.8,40c-1.2-2.9-3.2-4.4-5.9-4.4c-2.7,0-4.7,1.5-5.9,4.4c-1.2,2.9-1.8,7.7-1.8,14.5s0.6,11.5,1.8,14.4c1.2,2.9,3.1,4.4,5.9,4.4
		c2.7,0,4.7-1.5,5.9-4.4c1.2-2.9,1.8-7.7,1.8-14.4C112.6,47.7,112,42.9,110.8,40z M60.9,82.5c-6.4,0-11.1-2.4-14.4-7.1
		c-3.2-4.7-4.8-11.7-4.8-21c0-9.7,1.6-16.8,4.7-21.3c3.1-4.6,8-6.9,14.5-6.9c6.4,0,11.2,2.4,14.4,7.2c3.3,4.8,4.9,11.8,4.9,21
		c0,9.6-1.6,16.6-4.7,21.2C72.3,80.2,67.5,82.5,60.9,82.5z M66.8,40c-1.2-2.9-3.2-4.4-5.9-4.4c-2.7,0-4.7,1.5-5.9,4.4
		c-1.2,2.9-1.8,7.7-1.8,14.5s0.6,11.5,1.8,14.4c1.2,2.9,3.1,4.4,5.9,4.4c2.7,0,4.7-1.5,5.9-4.4c1.2-2.9,1.8-7.7,1.8-14.4
		C68.6,47.7,68,42.9,66.8,40z M16.9,82.5c-6.4,0-11.1-2.4-14.4-7.1c-3.2-4.7-4.8-11.7-4.8-21c0-9.7,1.6-16.8,4.7-21.3
		c3.1-4.6,8-6.9,14.5-6.9c6.4,0,11.2,2.4,14.4,7.2c3.3,4.8,4.9,11.8,4.9,21c0,9.6-1.6,16.6-4.7,21.2C28.3,80.2,23.4,82.5,16.9,82.5z
		 M22.7,40c-1.2-2.9-3.2-4.4-5.9-4.4c-2.7,0-4.7,1.5-5.9,4.4c-1.2,2.9-1.8,7.7-1.8,14.5S9.8,65.9,11,68.8c1.2,2.9,3.1,4.4,5.9,4.4
		c2.7,0,4.7-1.5,5.9-4.4c1.2-2.9,1.8-7.7,1.8-14.4C24.5,47.7,23.9,42.9,22.7,40z M-25.2,91.6c1.6-6.6,2.9-12.9,3.8-18.8h10.6
		l0.6,0.9c-1.3,5-3.5,11-6.6,17.9H-25.2z M-30.2,67.6c0,4.5-1.8,8.1-5.3,10.8c-3.5,2.7-8.2,4.1-14,4.1c-6,0-10.8-1.3-14.2-3.8
		c-3.4-2.5-5.2-6.1-5.2-10.8c0-3.1,0.8-5.9,2.5-8.3c1.7-2.4,4.4-4.6,8-6.4c-3.1-2-5.4-4.1-6.8-6.3c-1.4-2.2-2.1-4.7-2.1-7.4
		c0-3.9,1.6-7.1,4.9-9.5c3.3-2.4,7.5-3.6,12.8-3.6c5.3,0,9.5,1.2,12.8,3.6c3.2,2.4,4.8,5.6,4.8,9.6c0,2.8-0.8,5.3-2.3,7.5
		c-1.6,2.2-4.1,4.1-7.5,5.9c4.1,2.2,7.1,4.5,8.9,6.9C-31.1,62.1-30.2,64.7-30.2,67.6z M-44.8,36.3c-1.3-1-2.9-1.5-4.8-1.5
		c-2,0-3.6,0.5-4.8,1.5c-1.2,1-1.8,2.4-1.8,4.1c0,1.5,0.5,2.8,1.5,4c1,1.2,2.7,2.4,5.3,3.6c2.5-1.1,4.2-2.3,5.2-3.5s1.5-2.6,1.5-4.2
		C-42.9,38.7-43.5,37.3-44.8,36.3z M-43.2,62.6c-1.4-1.5-3.7-3-6.9-4.7c-5.4,2.4-8,5.5-8,9.3c0,2.1,0.8,3.8,2.3,5s3.6,1.8,6.2,1.8
		c2.9,0,5-0.6,6.5-1.9c1.4-1.2,2.1-2.9,2.1-4.9C-41,65.6-41.7,64.1-43.2,62.6z"/>
	<path class="st1" d="M74.3,1.5H2.6c-18.7,0-34.1-15.3-34.1-34.1v0c0-18.7,15.3-34.1,34.1-34.1h71.6c18.7,0,34.1,15.3,34.1,34.1v0
		C108.4-13.8,93,1.5,74.3,1.5z"/>
	<path class="st1" d="M-65.5,1.5c18.7,0,34.1-15.3,34.1-34.1v0c0-18.7-15.3-34.1-34.1-34.1V1.5z"/>
	<path class="st1" d="M142.4-66.6c-18.7,0-34.1,15.3-34.1,34.1v0c0,18.7,15.3,34.1,34.1,34.1V-66.6z"/>
	<path class="st2" d="M81.3-48.8H51.2c-2.2,0-3.9-1.8-3.9-3.9v0c0-2.2,1.8-3.9,3.9-3.9h30.1c2.2,0,3.9,1.8,3.9,3.9v0
		C85.3-50.5,83.5-48.8,81.3-48.8z"/>
</g>
</svg>
