<?xml version="1.0" encoding="utf-8"?>
<!-- Generator: Adobe Illustrator 18.1.1, SVG Export Plug-In . SVG Version: 6.00 Build 0)  -->
<svg version="1.1" id="Layer_3" xmlns="http://www.w3.org/2000/svg" xmlns:xlink="http://www.w3.org/1999/xlink" x="0px" y="0px"
	 viewBox="0 0 686 596" enable-background="new 0 0 686 596" xml:space="preserve">
<g>
	<g>
		<g>
			<path fill="#FFFFFF" d="M66.4,559.8V396.8c0-8.6,0.1-16.6,0.3-24.2c0.2-7.6,0.4-15.4,0.7-23.2c0.3-7.9,0.7-16.2,1.3-24.9
				c0.6-8.7,1.1-18.4,1.7-29.1h18.5c0.6,10.7,1.1,20.4,1.7,29.1s1,17.1,1.3,24.9c0.3,7.9,0.5,15.6,0.7,23.2
				c0.2,7.6,0.3,15.7,0.3,24.2v163.1H66.4z"/>
			<path fill="#FFFFFF" d="M92.9,568H66.4c-4.5,0-8.2-3.7-8.2-8.2V396.8c0-8.6,0.1-16.8,0.3-24.5c0.2-7.6,0.4-15.4,0.7-23.3
				c0.3-7.9,0.7-16.3,1.3-25.1c0.6-8.7,1.2-18.4,1.7-29c0.2-4.4,3.8-7.8,8.2-7.8h18.5c4.4,0,8,3.4,8.2,7.8c0.6,10.6,1.2,20.3,1.7,29
				c0.6,8.8,1,17.2,1.3,25.1l0.7,23.3c0.2,7.7,0.3,15.8,0.3,24.5v163.1C101.1,564.3,97.4,568,92.9,568z M74.6,551.6h10.1V396.8
				c0-8.5-0.1-16.5-0.3-24l-0.7-23.2c-0.3-7.8-0.7-16-1.3-24.7c-0.4-6.6-0.9-13.7-1.3-21.4h-3c-0.4,7.7-0.9,14.8-1.3,21.4
				c-0.6,8.6-1,16.9-1.2,24.7c-0.3,7.9-0.5,15.5-0.7,23.1c-0.2,7.6-0.3,15.5-0.3,24V551.6z"/>
		</g>
		<g>
			<path fill="#FFFFFF" d="M53.3,273.8c0-3.6,0.7-7,2-10.3c1.3-3.2,3.2-6,5.6-8.4c2.4-2.4,5.1-4.3,8.3-5.7c3.1-1.4,6.6-2.2,10.4-2.2
				c3.6,0,7,0.7,10.3,2.2c3.2,1.4,6,3.3,8.4,5.7c2.4,2.4,4.3,5.2,5.7,8.4c1.4,3.2,2.1,6.7,2.1,10.3c0,3.8-0.7,7.3-2.1,10.4
				c-1.4,3.1-3.3,5.9-5.7,8.3c-2.4,2.4-5.2,4.2-8.4,5.6c-3.2,1.3-6.7,2-10.3,2c-7.4,0-13.6-2.5-18.7-7.6
				C55.8,287.4,53.3,281.2,53.3,273.8z"/>
			<path fill="#FFFFFF" d="M79.5,308.3c-9.6,0-17.9-3.4-24.5-10c-6.6-6.6-10-14.8-10-24.5c0-4.7,0.9-9.2,2.6-13.4
				c1.8-4.2,4.2-8,7.4-11.1c3.1-3.1,6.7-5.5,10.7-7.4c8.2-3.7,18.5-3.9,27.4,0c4.2,1.8,7.9,4.3,10.9,7.4c3.1,3.1,5.6,6.7,7.4,10.9
				c1.9,4.3,2.9,8.9,2.9,13.6c0,5-1,9.6-2.9,13.8c-1.8,4-4.3,7.6-7.4,10.7s-6.8,5.6-11.1,7.3C88.6,307.4,84.1,308.3,79.5,308.3z
				 M79.5,255.5c-2.6,0-5,0.5-7,1.4c-2.3,1-4.2,2.3-5.9,4.1c-1.6,1.6-2.9,3.5-3.8,5.7c-0.9,2.2-1.4,4.6-1.4,7.1
				c0,5.3,1.6,9.3,5.2,12.9c5.2,5.2,12.9,6.7,20,3.8c2.2-0.9,4.1-2.1,5.7-3.7c1.7-1.7,3.1-3.6,4.1-5.9c0.9-2.1,1.4-4.4,1.4-7
				c0-2.4-0.5-4.7-1.4-7c-1-2.2-2.4-4.2-4-5.9c-1.6-1.7-3.6-3-5.9-4C84.2,256,81.9,255.5,79.5,255.5z"/>
		</g>
		<g>
			<path fill="#FFFFFF" d="M592.5,559.8V396.8c0-8.6,0.1-16.6,0.3-24.2c0.2-7.6,0.4-15.4,0.7-23.2c0.3-7.9,0.7-16.2,1.3-24.9
				c0.6-8.7,1.1-18.4,1.7-29.1h18.5c0.6,10.7,1.1,20.4,1.7,29.1c0.6,8.7,1,17.1,1.3,24.9c0.3,7.9,0.5,15.6,0.7,23.2
				c0.2,7.6,0.3,15.7,0.3,24.2v163.1H592.5z"/>
			<path fill="#FFFFFF" d="M619.1,568h-26.5c-4.5,0-8.2-3.7-8.2-8.2V396.8c0-8.6,0.1-16.8,0.3-24.4c0.2-7.6,0.4-15.4,0.7-23.4
				c0.3-7.9,0.7-16.3,1.3-25.1c0.6-8.7,1.2-18.4,1.7-29c0.2-4.4,3.8-7.8,8.2-7.8h18.5c4.4,0,8,3.4,8.2,7.8c0.6,10.6,1.1,20.3,1.7,29
				c0.6,8.8,1,17.2,1.3,25.1l0.7,23.3c0.2,7.7,0.3,15.8,0.3,24.5v163.1C627.3,564.3,623.6,568,619.1,568z M600.7,551.6h10.1V396.8
				c0-8.5-0.1-16.5-0.3-24l-0.7-23.2c-0.3-7.8-0.7-16-1.3-24.7c-0.4-6.6-0.9-13.7-1.3-21.4h-3c-0.4,7.7-0.9,14.8-1.3,21.4
				c-0.6,8.6-1,16.9-1.2,24.7c-0.3,7.9-0.5,15.6-0.7,23.2c-0.2,7.5-0.3,15.5-0.3,24V551.6z"/>
		</g>
		<g>
			<path fill="#FFFFFF" d="M579.4,273.8c0-3.6,0.7-7,2-10.3c1.3-3.2,3.2-6,5.6-8.4c2.4-2.4,5.1-4.3,8.3-5.7
				c3.1-1.4,6.6-2.2,10.4-2.2c3.6,0,7,0.7,10.3,2.2c3.2,1.4,6,3.3,8.4,5.7c2.4,2.4,4.3,5.2,5.7,8.4c1.4,3.2,2.1,6.7,2.1,10.3
				c0,3.8-0.7,7.3-2.1,10.4c-1.4,3.1-3.3,5.9-5.7,8.3c-2.4,2.4-5.2,4.2-8.4,5.6c-3.2,1.3-6.7,2-10.3,2c-7.4,0-13.6-2.5-18.7-7.6
				C581.9,287.4,579.4,281.2,579.4,273.8z"/>
			<path fill="#FFFFFF" d="M605.7,308.3c-9.6,0-17.9-3.4-24.5-10c-6.6-6.6-10-14.8-10-24.5c0-4.7,0.9-9.2,2.6-13.4
				c1.8-4.2,4.2-8,7.4-11.1c3-3,6.6-5.5,10.7-7.4c8.2-3.7,18.5-3.9,27.4,0c4.1,1.8,7.8,4.3,10.9,7.4c3.1,3.1,5.6,6.8,7.4,10.9
				c1.9,4.3,2.8,8.9,2.8,13.6c0,5-1,9.6-2.9,13.8c-1.8,4-4.3,7.6-7.4,10.7c-3.1,3.1-6.9,5.6-11.1,7.3
				C614.8,307.4,610.3,308.3,605.7,308.3z M605.7,255.5c-2.6,0-4.9,0.5-7,1.4c-2.3,1-4.2,2.4-5.8,4c-1.7,1.7-2.9,3.5-3.8,5.8
				c-0.9,2.2-1.4,4.6-1.4,7.1c0,5.3,1.6,9.4,5.1,12.9c5.2,5.2,12.9,6.7,20,3.8c2.2-0.9,4.1-2.1,5.7-3.8c1.7-1.7,3-3.6,4.1-5.8
				c0.9-2,1.4-4.4,1.4-7c0-2.5-0.5-4.8-1.4-7c-1-2.2-2.4-4.2-4-5.9c-1.7-1.7-3.6-3-5.9-4C610.4,256,608.1,255.5,605.7,255.5z"/>
		</g>
		<g>
			<path fill="#FFFFFF" d="M65.7,289.1c0.9,0.8,30.1,27,79.7,53.4c49.5,26.3,119.7,52.9,202.2,52.9c82.5,0.1,176.9-27.1,271.5-105.7
				l-26.5-32c-88.1,72.8-171.5,96-245,96.2c-73.4,0-137.2-23.9-182.7-48c-22.7-12.1-40.8-24.1-53-33.1c-6.1-4.5-10.8-8.2-13.9-10.7
				c-1.5-1.3-2.7-2.2-3.4-2.9l-0.8-0.7l-0.2-0.1l-0.3,0.4l0.3-0.4l0,0l-0.3,0.4l0.3-0.4L65.7,289.1L65.7,289.1z"/>
			<path fill="#FFFFFF" d="M348.2,403.6L348.2,403.6c0,0-0.6,0-0.6,0c-69.5,0-138.8-18.2-206-53.9c-46.9-24.9-75.8-49.7-81.2-54.4
				c-1.6-1.4-2.7-3.6-2.8-5.7c-0.1-2.2,0.6-4.4,2-6l27.3-30.2c0.1-0.2,0.2-0.3,0.4-0.4c0,0,0,0,0,0l0,0c0,0,0,0,0,0l0,0l0,0l0,0
				c0,0,0,0,0,0l0,0l0,0l0,0l0,0l0,0c0,0,0,0,0,0l0,0c0,0,0,0,0,0l0,0l0.1-0.1l0,0l0,0c3-3,8.2-3.5,11.4-0.7l4.3,3.6
				c3,2.4,7.6,6.1,13.5,10.4c11,8.1,29,20.3,52.1,32.5c40.4,21.5,104.2,47.1,178.7,47.1c83.7-0.2,164.4-31.9,239.9-94.3
				c3.4-2.9,8.7-2.4,11.5,1.1l26.5,32c2.9,3.5,2.4,8.6-1.1,11.5C538.3,367.4,445.4,403.6,348.2,403.6z M77.5,288.3
				c11.5,9.3,36.1,28,71.7,46.9c64.8,34.4,131.6,51.9,198.3,51.9l0.6,8.2v-8.2c90.9,0,178.1-33.2,259.3-98.7l-16.1-19.4
				c-76.7,61.5-158.7,92.7-243.8,92.9c-78,0-144.5-26.7-186.5-49c-23.9-12.7-42.6-25.3-54-33.7c-5.3-3.9-9.6-7.2-12.7-9.7
				L77.5,288.3z"/>
		</g>
		<g>
			<path fill="#FFFFFF" d="M258.6,268.4V46.9c0-2.9,2.3-5.2,5.2-5.2h157.8c2.9,0,5.2,2.3,5.2,5.2v221.6c0,2.9-2.3,5.2-5.2,5.2H263.8
				C260.9,273.7,258.6,271.3,258.6,268.4z M269,52.1v211.1h147.4V52.1H269z"/>
			<path fill="#FFFFFF" d="M421.6,281.9H263.8c-7.4,0-13.4-6-13.4-13.4V46.9c0-7.4,6-13.4,13.4-13.4h157.8c7.4,0,13.4,6,13.4,13.4
				v221.6C435.1,275.9,429,281.9,421.6,281.9z M277.2,255h131V60.3h-131V255z"/>
		</g>
		<g>
			<path fill="#FFFFFF" d="M258.6,268.4h6.9V46.9h-1.7l0,1.7l1.7-1.7h-1.7l0,1.7h157.8v-1.7h-1.7l1.7,1.7v-1.7h-1.7v221.6h1.7l0-1.7
				l-1.7,1.7h1.7l0-1.7H263.8v1.7h1.7l-1.7-1.7v1.7h1.7H258.6h-6.9c0,6.7,5.4,12.1,12.1,12.1h157.8c6.7,0,12.1-5.4,12.1-12.1V46.9
				c0-6.7-5.4-12.1-12.1-12.1H263.8c-6.7,0-12.1,5.4-12.1,12.1v221.6H258.6z M269,52.1h-6.9v218.1h161.3v-225H262.1v6.9H269V59
				h140.5v197.3H276l0-204.2H269V59V52.1z"/>
			<path fill="#FFFFFF" d="M421.6,288.8H263.8c-11.2,0-20.4-9.1-20.4-20.3V46.9c0-11.2,9.1-20.4,20.4-20.4h157.8
				c11.2,0,20.3,9.1,20.4,20.3v221.6C442,279.7,432.8,288.8,421.6,288.8z M284.2,248.1h117.1V67.2H284.2V248.1z"/>
		</g>
		<g>
			<path fill="#FFFFFF" d="M72.8,534.8c0,0-28.2,25.1-23.5,25.1c4.7,0,61.2,0,61.2,0l-25.1-26.7L72.8,534.8z"/>
			<path fill="#FFFFFF" d="M110.4,568.1H49.2c-3.4,0-7-2.4-8.2-5.5c-1.9-5.1-3-7.9,26.3-33.9c1.2-1.1,2.8-1.8,4.4-2l12.6-1.6
				c2.6-0.4,5.2,0.6,7,2.5l25.1,26.7c2.2,2.4,2.9,5.9,1.6,8.9S113.7,568.1,110.4,568.1z M66.6,551.7h24.8l-9.2-9.8l-5.9,0.7
				C73.1,545.6,69.7,548.7,66.6,551.7z"/>
		</g>
		<g>
			<path fill="#FFFFFF" d="M72.8,534.8l-0.9-1c0,0-6,5.4-12.1,11.1c-3,2.9-6,5.9-8.3,8.4c-1.1,1.3-2.1,2.4-2.8,3.4
				c-0.7,1-1.2,1.6-1.3,2.8l0.6,1.4l1.3,0.4c4.7,0,61.2,0,61.2,0l1.3-0.8l-0.3-1.5l-25.1-26.7l-1.2-0.4l-12.6,1.6l-0.7,0.3
				L72.8,534.8l0.2,1.4l11.9-1.5l24.6,26.2l1-1v-1.4c0,0-14.1,0-28.8,0s-30,0-32.4,0v0.8l0.5-0.6l-0.5-0.2v0.8l0.5-0.6l-0.6,0.8l1,0
				l-0.4-0.8l-0.6,0.8l1,0h-0.2l0.2,0.1l0-0.1h-0.2l0.2,0.1c0.1-0.5,1.8-2.7,4-5.1c3.4-3.7,8.3-8.3,12.4-12.1c4-3.7,7.2-6.5,7.2-6.5
				L72.8,534.8l0.2,1.4L72.8,534.8z"/>
			<path fill="#FFFFFF" d="M110.4,569.5H49.2c-0.8,0-1.7-0.1-2.5-0.4c-2.2-0.7-5.3-2.7-6.3-4.9c-0.6-1.2-1.4-4-1.3-5.4
				c0.2-3.3,1.7-5.3,2.6-6.6c1.1-1.6,2.3-2.9,3.6-4.5c2.5-2.7,5.6-5.8,8.8-8.8c6.2-5.9,12.3-11.3,12.3-11.3c0.7-0.7,1.6-1.2,2.4-1.5
				c0.8-0.3,2.1-0.8,2.8-0.9l12.6-1.6c1.2-0.2,2.5,0,3.7,0.4c1.2,0.4,3.6,1.6,4.5,2.5l25.1,26.7c1.1,1.2,1.8,2.6,2.1,4.2
				c0.6,3.2-0.5,8-3.3,9.8C114.9,568.2,112,569.5,110.4,569.5z M70.1,550.3h18.2l-6.5-6.9l-4.7,0.6l-4.9,4.5
				C71.4,549,70.7,549.7,70.1,550.3z"/>
		</g>
		<g>
			<path fill="#FFFFFF" d="M600,534.8c0,0-28.2,25.1-23.5,25.1c4.7,0,61.2,0,61.2,0l-25.1-26.7L600,534.8z"/>
			<path fill="#FFFFFF" d="M637.6,568.1h-61.2c-3.4,0-7-2.4-8.2-5.5c-1.9-5.1-3-7.9,26.3-33.9c1.2-1.1,2.8-1.8,4.4-2l12.6-1.6
				c2.5-0.4,5.2,0.6,7,2.5l25.1,26.7c2.2,2.4,2.9,5.9,1.6,8.9S640.9,568.1,637.6,568.1z M593.8,551.7h24.8l-9.2-9.8l-5.9,0.7
				C600.3,545.6,596.9,548.7,593.8,551.7z"/>
		</g>
		<g>
			<path fill="#FFFFFF" d="M600,534.8l-0.9-1c0,0-6,5.4-12.1,11.1c-3,2.9-6,5.9-8.3,8.4c-1.1,1.3-2.1,2.4-2.8,3.4
				c-0.7,1-1.2,1.6-1.3,2.8l0.6,1.4l1.3,0.4c4.7,0,61.2,0,61.2,0l1.3-0.8l-0.3-1.5l-25.1-26.7l-1.2-0.4l-12.6,1.6l-0.7,0.3
				L600,534.8l0.2,1.4l11.9-1.5l24.6,26.2l1-1v-1.4c0,0-14.1,0-28.8,0c-14.7,0-30,0-32.4,0v0.8l0.5-0.6l-0.5-0.2v0.8l0.5-0.6
				l-0.6,0.8l1,0l-0.4-0.8l-0.6,0.8l1,0h-0.2l0.2,0.1l0-0.1h-0.2l0.2,0.1c0.1-0.5,1.8-2.7,4-5.1c3.4-3.7,8.3-8.3,12.4-12.1
				c4-3.7,7.2-6.5,7.2-6.5L600,534.8l0.2,1.4L600,534.8z"/>
			<path fill="#FFFFFF" d="M637.6,569.5h-61.2c-0.8,0-1.7-0.1-2.5-0.4c-2.2-0.7-5.3-2.7-6.3-4.9c-0.6-1.2-1.4-4-1.3-5.4
				c0.2-3.3,1.7-5.3,2.6-6.6c1.1-1.6,2.3-3,3.7-4.5c2.4-2.6,5.5-5.8,8.7-8.8c6.2-5.9,12.3-11.3,12.3-11.3c0.7-0.7,1.6-1.2,2.4-1.5
				c0.8-0.3,2-0.7,2.7-0.8l12.6-1.6c1.2-0.2,2.5,0,3.7,0.4c1.2,0.4,3.6,1.6,4.5,2.5l25.1,26.7c1.1,1.2,1.9,2.7,2.1,4.3
				c0.5,3.2-0.6,7.9-3.3,9.7C642.1,568.2,639.2,569.5,637.6,569.5z M597.3,550.3h18.2l-6.5-6.9l-4.7,0.6l-4.9,4.5
				C598.6,549,597.9,549.7,597.3,550.3z"/>
		</g>
	</g>
</g>
</svg>
