<?xml version="1.0" encoding="utf-8"?>
<!-- Generator: Adobe Illustrator 19.2.1, SVG Export Plug-In . SVG Version: 6.00 Build 0)  -->
<svg version="1.1" id="Layer_1" xmlns="http://www.w3.org/2000/svg" xmlns:xlink="http://www.w3.org/1999/xlink" x="0px" y="0px"
	 viewBox="0 0 258 258" style="enable-background:new 0 0 258 258;" xml:space="preserve">
<style type="text/css">
	.st0{fill:#FFFFFF;}
</style>
<path class="st0" d="M72.8,82.6c0,15.3-3.2,26.8-9.7,34.3c-6.5,7.6-16.2,11.3-29.3,11.3c-4.6,0-8.1-0.2-10.5-0.7v-13.2
	c3,0.7,6.1,1.1,9.4,1.1c5.5,0,10-0.8,13.6-2.4c3.5-1.6,6.3-4.2,8.1-7.6c1.9-3.5,3-8.2,3.2-14.3H57c-2.1,3.3-4.4,5.7-7.1,7
	c-2.7,1.3-6.1,2-10.1,2c-6.8,0-12.1-2.2-16-6.5s-5.9-10.4-5.9-18.1c0-8.3,2.4-14.9,7.1-19.8c4.7-4.8,11.2-7.3,19.3-7.3
	c5.7,0,10.8,1.3,15.1,4S67,59,69.3,64.1C71.6,69.4,72.8,75.5,72.8,82.6z M44.6,61.7c-3.4,0-6.1,1.2-8,3.5c-1.9,2.3-2.9,5.7-2.9,10.1
	c0,3.8,0.9,6.7,2.6,8.9c1.7,2.2,4.4,3.3,7.9,3.3c3.3,0,6.2-1.1,8.6-3.3c2.4-2.2,3.6-4.7,3.6-7.5c0-4.2-1.1-7.8-3.3-10.7
	S48.1,61.7,44.6,61.7z"/>
<g>
	<path class="st0" d="M156.7,61.5l-21.1,62.6l-46.1,0.6L156.7,61.5 M174.4,65.7l70.9,114.7H183L174.4,65.7 M164.8,68.9l7.7,103.3
		L145,128.9L164.8,68.9 M163,51.7l-80.7,76l55.4-0.8L163,51.7L163,51.7z M170.7,54.3l9.7,128.9h69.9L170.7,54.3L170.7,54.3z
		 M166.6,54.5l-24.7,74.8l34.3,54L166.6,54.5L166.6,54.5z"/>
</g>
<g>
	<path class="st0" d="M20.7,145.2v7.2c0,1.1,0.2,1.9,0.7,2.4c0.5,0.5,1.2,0.8,2.2,0.8c1.3,0,2.3-0.3,2.9-1c0.6-0.7,0.9-1.8,0.9-3.3
		v-6.2h1v11.1h-0.9l-0.2-1.5h-0.1c-0.7,1.2-2,1.7-3.9,1.7c-2.5,0-3.8-1.4-3.8-4.1v-7.3H20.7z"/>
	<path class="st0" d="M39.9,156.4v-7.2c0-1.1-0.2-1.9-0.7-2.4c-0.5-0.5-1.2-0.8-2.2-0.8c-1.3,0-2.3,0.3-2.9,1
		c-0.6,0.7-0.9,1.8-0.9,3.3v6.2h-1v-11.1H33l0.2,1.5h0.1c0.7-1.2,2-1.7,3.9-1.7c2.5,0,3.8,1.4,3.8,4.1v7.3H39.9z"/>
	<path class="st0" d="M48.6,145c0.8,0,1.5,0.1,2.1,0.4s1.1,0.8,1.6,1.5h0.1c0-0.9-0.1-1.7-0.1-2.5v-4h1v16h-0.7l-0.3-1.7h-0.1
		c-0.8,1.3-2.1,1.9-3.7,1.9c-1.5,0-2.7-0.5-3.5-1.4s-1.2-2.4-1.2-4.2c0-1.9,0.4-3.4,1.2-4.4S47.1,145,48.6,145z M48.6,145.9
		c-1.2,0-2.1,0.4-2.7,1.3s-0.9,2.1-0.9,3.7c0,3.2,1.2,4.7,3.7,4.7c1.3,0,2.2-0.4,2.8-1.1s0.9-1.9,0.9-3.6v-0.2c0-1.7-0.3-3-0.9-3.7
		C50.9,146.3,49.9,145.9,48.6,145.9z"/>
	<path class="st0" d="M57.9,145.2v7.2c0,1.1,0.2,1.9,0.7,2.4c0.5,0.5,1.2,0.8,2.2,0.8c1.3,0,2.3-0.3,2.9-1c0.6-0.7,0.9-1.8,0.9-3.3
		v-6.2h1v11.1h-0.9l-0.2-1.5h-0.1c-0.7,1.2-2,1.7-3.9,1.7c-2.5,0-3.8-1.4-3.8-4.1v-7.3H57.9z"/>
	<path class="st0" d="M70.5,156.4h-1v-16h1V156.4z"/>
	<path class="st0" d="M81,156.4l-0.3-1.8h-0.1c-0.6,0.7-1.1,1.2-1.7,1.5c-0.6,0.3-1.3,0.4-2.1,0.4c-1.1,0-1.9-0.3-2.6-0.8
		s-0.9-1.3-0.9-2.3c0-1.1,0.5-1.9,1.4-2.5s2.2-0.9,3.9-1l2.1-0.1v-0.7c0-1.1-0.2-1.9-0.6-2.4s-1.1-0.8-2.1-0.8c-1,0-2.1,0.3-3.2,0.9
		l-0.4-0.9c1.2-0.6,2.4-0.9,3.6-0.9c1.2,0,2.1,0.3,2.7,1c0.6,0.6,0.9,1.6,0.9,3v7.4H81z M76.9,155.6c1.2,0,2.1-0.3,2.8-1
		c0.7-0.7,1-1.6,1-2.8v-1.1l-1.9,0.1c-1.6,0.1-2.7,0.3-3.3,0.7c-0.7,0.4-1,1.1-1,1.9c0,0.7,0.2,1.2,0.6,1.6
		C75.5,155.4,76.1,155.6,76.9,155.6z"/>
	<path class="st0" d="M88.3,155.7c0.6,0,1.2-0.1,1.7-0.2v0.8c-0.5,0.2-1.1,0.2-1.7,0.2c-1,0-1.7-0.3-2.2-0.8s-0.7-1.4-0.7-2.5v-7.2
		h-1.7v-0.6l1.7-0.5l0.5-2.5h0.5v2.7h3.3v0.9h-3.3v7.1c0,0.9,0.2,1.5,0.5,1.9S87.6,155.7,88.3,155.7z"/>
	<path class="st0" d="M92.2,142.1c0-0.7,0.2-1,0.6-1c0.2,0,0.4,0.1,0.5,0.3c0.1,0.2,0.2,0.4,0.2,0.7c0,0.3-0.1,0.6-0.2,0.7
		c-0.1,0.2-0.3,0.3-0.5,0.3C92.4,143.1,92.2,142.8,92.2,142.1z M93.4,156.4h-1v-11.1h1V156.4z"/>
	<path class="st0" d="M104.9,156.4v-7.2c0-1.1-0.2-1.9-0.7-2.4c-0.5-0.5-1.2-0.8-2.2-0.8c-1.3,0-2.3,0.3-2.9,1
		c-0.6,0.7-0.9,1.8-0.9,3.3v6.2h-1v-11.1H98l0.2,1.5h0.1c0.7-1.2,2-1.7,3.9-1.7c2.5,0,3.8,1.4,3.8,4.1v7.3H104.9z"/>
	<path class="st0" d="M118.2,145.2v0.7l-2.3,0.1c0.6,0.8,0.9,1.6,0.9,2.5c0,1.1-0.4,1.9-1.1,2.6c-0.7,0.7-1.7,1-2.9,1
		c-0.5,0-0.9,0-1.1-0.1c-0.4,0.2-0.7,0.5-0.9,0.7s-0.3,0.6-0.3,0.9c0,0.4,0.1,0.6,0.4,0.8s0.7,0.2,1.4,0.2h1.9
		c1.2,0,2.1,0.2,2.8,0.7c0.6,0.5,1,1.2,1,2.2c0,1.2-0.5,2.1-1.4,2.7c-1,0.6-2.3,1-4.1,1c-1.4,0-2.5-0.3-3.3-0.8
		c-0.8-0.5-1.2-1.3-1.2-2.3c0-0.8,0.2-1.4,0.7-1.9s1.1-0.9,1.9-1c-0.3-0.1-0.6-0.3-0.8-0.6c-0.2-0.3-0.3-0.6-0.3-0.9
		c0-0.7,0.5-1.4,1.4-2c-0.6-0.3-1.2-0.7-1.5-1.3c-0.4-0.6-0.5-1.2-0.5-2c0-1.1,0.4-2,1.1-2.7c0.7-0.7,1.7-1,2.9-1
		c0.7,0,1.3,0.1,1.7,0.2H118.2z M109.2,158.2c0,1.5,1.1,2.3,3.4,2.3c2.9,0,4.4-0.9,4.4-2.8c0-0.7-0.2-1.2-0.7-1.5s-1.2-0.5-2.2-0.5
		h-1.8C110.2,155.8,109.2,156.6,109.2,158.2z M110,148.7c0,0.9,0.3,1.5,0.8,2c0.5,0.5,1.2,0.7,2.1,0.7c0.9,0,1.6-0.2,2.1-0.7
		s0.7-1.2,0.7-2.1c0-1-0.3-1.7-0.8-2.1c-0.5-0.5-1.2-0.7-2.1-0.7c-0.9,0-1.6,0.3-2.1,0.8C110.3,147.1,110,147.8,110,148.7z"/>
	<path class="st0" d="M26.7,178.7c0,1-0.4,1.8-1.1,2.3c-0.8,0.5-1.8,0.8-3.2,0.8c-1.5,0-2.7-0.2-3.5-0.7V180
		c1.1,0.6,2.3,0.8,3.5,0.8c1.1,0,1.9-0.2,2.5-0.5c0.6-0.4,0.9-0.9,0.9-1.5c0-0.6-0.2-1-0.7-1.4c-0.5-0.4-1.2-0.8-2.2-1.1
		c-1.1-0.4-1.9-0.8-2.3-1c-0.5-0.3-0.8-0.6-1-1c-0.2-0.4-0.3-0.8-0.3-1.3c0-0.8,0.4-1.5,1.1-2c0.7-0.5,1.7-0.7,2.9-0.7
		c1.2,0,2.3,0.2,3.4,0.7l-0.4,0.9c-1.1-0.5-2.1-0.7-3-0.7c-0.9,0-1.6,0.2-2.2,0.5s-0.8,0.7-0.8,1.3c0,0.6,0.2,1,0.6,1.4
		c0.4,0.3,1.2,0.7,2.4,1.2c1,0.4,1.7,0.7,2.2,1c0.5,0.3,0.8,0.6,1,1S26.7,178.2,26.7,178.7z"/>
	<path class="st0" d="M37.3,181.6v-7.2c0-1.1-0.2-1.9-0.7-2.4c-0.5-0.5-1.2-0.8-2.2-0.8c-1.3,0-2.3,0.3-2.9,1
		c-0.6,0.7-0.9,1.8-0.9,3.3v6.2h-1v-16h1v5.1l-0.1,1.4h0.1c0.4-0.7,0.9-1.2,1.6-1.5c0.6-0.3,1.4-0.5,2.4-0.5c2.5,0,3.8,1.4,3.8,4.1
		v7.3H37.3z"/>
	<path class="st0" d="M48.7,181.6l-0.3-1.8h-0.1c-0.6,0.7-1.1,1.2-1.7,1.5c-0.6,0.3-1.3,0.4-2.1,0.4c-1.1,0-1.9-0.3-2.6-0.8
		s-0.9-1.3-0.9-2.3c0-1.1,0.5-1.9,1.4-2.5s2.2-0.9,3.9-1l2.1-0.1v-0.7c0-1.1-0.2-1.9-0.6-2.4s-1.1-0.8-2.1-0.8c-1,0-2.1,0.3-3.2,0.9
		l-0.4-0.9c1.2-0.6,2.4-0.9,3.6-0.9c1.2,0,2.1,0.3,2.7,1c0.6,0.6,0.9,1.6,0.9,3v7.4H48.7z M44.6,180.8c1.2,0,2.1-0.3,2.8-1
		c0.7-0.7,1-1.6,1-2.8v-1.1l-1.9,0.1c-1.6,0.1-2.7,0.3-3.3,0.7c-0.7,0.4-1,1.1-1,1.9c0,0.7,0.2,1.2,0.6,1.6
		C43.2,180.6,43.8,180.8,44.6,180.8z"/>
	<path class="st0" d="M57.5,170.2c0.5,0,1,0,1.5,0.1l-0.2,1c-0.5-0.1-0.9-0.2-1.4-0.2c-1,0-1.7,0.4-2.3,1.2s-0.9,1.8-0.9,3.1v6.2h-1
		v-11.1h0.9l0.1,2h0.1c0.5-0.8,0.9-1.4,1.5-1.7C56.1,170.4,56.7,170.2,57.5,170.2z"/>
	<path class="st0" d="M65.3,170.2c0.8,0,1.5,0.1,2.1,0.4s1.1,0.8,1.6,1.5h0.1c0-0.9-0.1-1.7-0.1-2.5v-4h1v16h-0.7l-0.3-1.7H69
		c-0.8,1.3-2.1,1.9-3.7,1.9c-1.5,0-2.7-0.5-3.5-1.4s-1.2-2.4-1.2-4.2c0-1.9,0.4-3.4,1.2-4.4S63.8,170.2,65.3,170.2z M65.3,171.1
		c-1.2,0-2.1,0.4-2.7,1.3s-0.9,2.1-0.9,3.7c0,3.2,1.2,4.7,3.7,4.7c1.3,0,2.2-0.4,2.8-1.1s0.9-1.9,0.9-3.6V176c0-1.7-0.3-3-0.9-3.7
		C67.6,171.5,66.6,171.1,65.3,171.1z"/>
	<path class="st0" d="M87.9,170.4v0.7l-2.3,0.1c0.6,0.8,0.9,1.6,0.9,2.5c0,1.1-0.4,1.9-1.1,2.6c-0.7,0.7-1.7,1-2.9,1
		c-0.5,0-0.9,0-1.1-0.1c-0.4,0.2-0.7,0.5-0.9,0.7s-0.3,0.6-0.3,0.9c0,0.4,0.1,0.6,0.4,0.8s0.7,0.2,1.4,0.2H84c1.2,0,2.1,0.2,2.8,0.7
		c0.6,0.5,1,1.2,1,2.2c0,1.2-0.5,2.1-1.4,2.7c-1,0.6-2.3,1-4.1,1c-1.4,0-2.5-0.3-3.3-0.8c-0.8-0.5-1.2-1.3-1.2-2.3
		c0-0.8,0.2-1.4,0.7-1.9s1.1-0.9,1.9-1c-0.3-0.1-0.6-0.3-0.8-0.6c-0.2-0.3-0.3-0.6-0.3-0.9c0-0.7,0.5-1.4,1.4-2
		c-0.6-0.3-1.2-0.7-1.5-1.3c-0.4-0.6-0.5-1.2-0.5-2c0-1.1,0.4-2,1.1-2.7c0.7-0.7,1.7-1,2.9-1c0.7,0,1.3,0.1,1.7,0.2H87.9z
		 M78.9,183.4c0,1.5,1.1,2.3,3.4,2.3c2.9,0,4.4-0.9,4.4-2.8c0-0.7-0.2-1.2-0.7-1.5s-1.2-0.5-2.2-0.5h-1.8
		C79.9,181,78.9,181.8,78.9,183.4z M79.7,173.9c0,0.9,0.3,1.5,0.8,2c0.5,0.5,1.2,0.7,2.1,0.7c0.9,0,1.6-0.2,2.1-0.7s0.7-1.2,0.7-2.1
		c0-1-0.3-1.7-0.8-2.1c-0.5-0.5-1.2-0.7-2.1-0.7c-0.9,0-1.6,0.3-2.1,0.8C80,172.3,79.7,173,79.7,173.9z"/>
	<path class="st0" d="M94.6,170.2c0.5,0,1,0,1.5,0.1l-0.2,1c-0.5-0.1-0.9-0.2-1.4-0.2c-1,0-1.7,0.4-2.3,1.2s-0.9,1.8-0.9,3.1v6.2h-1
		v-11.1H91l0.1,2h0.1c0.5-0.8,0.9-1.4,1.5-1.7C93.2,170.4,93.8,170.2,94.6,170.2z"/>
	<path class="st0" d="M105.1,181.6l-0.3-1.8h-0.1c-0.6,0.7-1.1,1.2-1.7,1.5c-0.6,0.3-1.3,0.4-2.1,0.4c-1.1,0-1.9-0.3-2.6-0.8
		s-0.9-1.3-0.9-2.3c0-1.1,0.5-1.9,1.4-2.5s2.2-0.9,3.9-1l2.1-0.1v-0.7c0-1.1-0.2-1.9-0.6-2.4s-1.1-0.8-2.1-0.8c-1,0-2.1,0.3-3.2,0.9
		l-0.4-0.9c1.2-0.6,2.4-0.9,3.6-0.9c1.2,0,2.1,0.3,2.7,1c0.6,0.6,0.9,1.6,0.9,3v7.4H105.1z M101,180.8c1.2,0,2.1-0.3,2.8-1
		c0.7-0.7,1-1.6,1-2.8v-1.1l-1.9,0.1c-1.6,0.1-2.7,0.3-3.3,0.7c-0.7,0.4-1,1.1-1,1.9c0,0.7,0.2,1.2,0.6,1.6
		C99.6,180.6,100.2,180.8,101,180.8z"/>
	<path class="st0" d="M114.3,181.8c-1.7,0-3-0.6-3.8-1.9h-0.1l0,0.9c0,0.5,0,1.1,0,1.7v4.2h-1v-16.2h0.9l0.2,1.6h0.1
		c0.8-1.2,2-1.8,3.7-1.8c1.5,0,2.7,0.5,3.4,1.5c0.8,1,1.2,2.4,1.2,4.3c0,1.8-0.4,3.3-1.2,4.3C116.8,181.3,115.7,181.8,114.3,181.8z
		 M114.2,180.9c1.1,0,2-0.4,2.7-1.3c0.6-0.8,0.9-2,0.9-3.6c0-3.3-1.2-4.9-3.5-4.9c-1.3,0-2.3,0.4-2.9,1.1c-0.6,0.7-0.9,1.9-0.9,3.5
		v0.3c0,1.7,0.3,3,0.9,3.7C112,180.5,112.9,180.9,114.2,180.9z"/>
	<path class="st0" d="M129.8,181.6v-7.2c0-1.1-0.2-1.9-0.7-2.4c-0.5-0.5-1.2-0.8-2.2-0.8c-1.3,0-2.3,0.3-2.9,1
		c-0.6,0.7-0.9,1.8-0.9,3.3v6.2h-1v-16h1v5.1l-0.1,1.4h0.1c0.4-0.7,0.9-1.2,1.6-1.5s1.4-0.5,2.4-0.5c2.5,0,3.8,1.4,3.8,4.1v7.3
		H129.8z"/>
	<path class="st0" d="M134.2,167.3c0-0.7,0.2-1,0.6-1c0.2,0,0.4,0.1,0.5,0.3c0.1,0.2,0.2,0.4,0.2,0.7c0,0.3-0.1,0.5-0.2,0.7
		c-0.1,0.2-0.3,0.3-0.5,0.3C134.4,168.3,134.2,168,134.2,167.3z M135.4,181.6h-1v-11.1h1V181.6z"/>
	<path class="st0" d="M143.6,181.8c-1.6,0-2.8-0.5-3.7-1.5s-1.4-2.4-1.4-4.2c0-1.8,0.5-3.3,1.4-4.3c0.9-1,2.2-1.5,3.8-1.5
		c1,0,1.9,0.2,2.8,0.5l-0.3,0.9c-1-0.3-1.8-0.5-2.5-0.5c-1.4,0-2.4,0.4-3.1,1.3c-0.7,0.8-1.1,2.1-1.1,3.6c0,1.5,0.4,2.7,1.1,3.5
		c0.7,0.9,1.7,1.3,3,1.3c1,0,2-0.2,2.8-0.5v0.9C145.7,181.6,144.7,181.8,143.6,181.8z"/>
	<path class="st0" d="M156,178.7c0,1-0.4,1.8-1.1,2.3c-0.8,0.5-1.8,0.8-3.2,0.8c-1.5,0-2.7-0.2-3.5-0.7V180c1.1,0.6,2.3,0.8,3.5,0.8
		c1.1,0,1.9-0.2,2.5-0.5c0.6-0.4,0.9-0.9,0.9-1.5c0-0.6-0.2-1-0.7-1.4c-0.5-0.4-1.2-0.8-2.2-1.1c-1.1-0.4-1.9-0.8-2.3-1
		c-0.5-0.3-0.8-0.6-1-1c-0.2-0.4-0.3-0.8-0.3-1.3c0-0.8,0.4-1.5,1.1-2c0.7-0.5,1.7-0.7,2.9-0.7c1.2,0,2.3,0.2,3.4,0.7l-0.4,0.9
		c-1.1-0.5-2.1-0.7-3-0.7c-0.9,0-1.6,0.2-2.2,0.5s-0.8,0.7-0.8,1.3c0,0.6,0.2,1,0.6,1.4c0.4,0.3,1.2,0.7,2.4,1.2
		c1,0.4,1.7,0.7,2.2,1c0.5,0.3,0.8,0.6,1,1S156,178.2,156,178.7z"/>
</g>
</svg>
