<?xml version="1.0" encoding="utf-8"?>
<!-- Generator: Adobe Illustrator 18.1.1, SVG Export Plug-In . SVG Version: 6.00 Build 0)  -->
<svg version="1.1" id="Layer_1" xmlns="http://www.w3.org/2000/svg" xmlns:xlink="http://www.w3.org/1999/xlink" x="0px" y="0px"
	 viewBox="0 0 75 75" enable-background="new 0 0 75 75" xml:space="preserve">
<path fill="#FFFFFF" d="M62.1,41.4c0.3,0,0.6,0.3,0.6,0.6c0,0.4-0.2,0.6-0.6,0.6c-0.3,0-0.6-0.3-0.6-0.6
	C61.5,41.7,61.8,41.4,62.1,41.4z M52.7,38.2v10.3c-1.8-1.2-3.8-1.9-6.1-1.9c-3.9,0-7.1,2-9.1,5.1c-1.9-3.1-5.3-5.1-9.1-5.1
	c-2.3,0-4.3,0.7-6.1,1.9V38.2L35,42.6c1.4,0.5,3.4,0.5,4.9,0L52.7,38.2z M37.5,22.9c0.8,0,1.5,0.1,2,0.3l26.2,9
	c0.1,0,0.2,0.1,0.3,0.1c-0.1,0.1-0.1,0.1-0.3,0.1l-12.4,4.3c-0.1,0-0.3,0-0.3,0.1l-13.5,4.6c-1,0.3-3,0.3-4,0L22,36.7
	c-0.1,0-0.1-0.1-0.2-0.1L9.3,32.4c-0.1,0-0.2-0.1-0.3-0.1c0.1-0.1,0.1-0.1,0.3-0.1l26.2-8.9C36,23,36.8,22.9,37.5,22.9z M37.5,21.5
	c-0.9,0-1.7,0.1-2.4,0.4L8.9,30.8C8.5,31,8.2,31.1,8,31.3c-0.3,0.2-0.4,0.5-0.4,0.9c0,0.4,0.2,0.7,0.4,0.9c0.3,0.2,0.6,0.4,0.9,0.5
	L21,37.8v12c0,0.6,0.7,0.9,1.1,0.5c1.7-1.5,3.9-2.4,6.3-2.4c3.7,0,6.9,2.1,8.5,5.3c0.3,0.4,1,0.4,1.2,0c1.6-3.1,4.8-5.3,8.5-5.3
	c2.4,0,4.6,0.9,6.3,2.4c0.5,0.4,1.1,0.1,1.1-0.5v-12l7.4-2.6v5c-0.6,0.3-1.1,0.9-1.2,1.6c0,0.1,0,0.1,0,0.1v3
	c-0.1,0.9,1.4,0.9,1.3,0v-1.2c0.2,0.1,0.3,0.1,0.6,0.1c0.2,0,0.4-0.1,0.6-0.1V45c0,0.9,1.3,0.9,1.3,0v-3c0-0.1,0-0.1,0-0.1
	c-0.1-0.7-0.6-1.4-1.2-1.6v-5.4l3.4-1.1c0.4-0.1,0.6-0.3,0.9-0.5c0.3-0.2,0.4-0.5,0.4-0.9c0-0.4-0.2-0.7-0.4-0.9
	c-0.3-0.2-0.6-0.4-0.9-0.5l-26.2-9C39.2,21.6,38.4,21.5,37.5,21.5z"/>
</svg>
