<?xml version="1.0" encoding="utf-8"?>
<!-- Generator: Adobe Illustrator 18.1.1, SVG Export Plug-In . SVG Version: 6.00 Build 0)  -->
<svg version="1.1" id="Layer_1" xmlns="http://www.w3.org/2000/svg" xmlns:xlink="http://www.w3.org/1999/xlink" x="0px" y="0px"
	 viewBox="808.8 0 174 119.1" enable-background="new 808.8 0 174 119.1" xml:space="preserve">
<g id="Layer_4">
	<rect x="784" y="73.1" fill="none" width="49.9" height="45.8"/>
	<g>
		<path fill="#F1F2F2" d="M826.1,101.4v8h21.5V96h-21.5V101.4z M828.7,98.8h16.1v2.6h-16.1V98.8z M828.7,104.2h16.1v2.6h-16.1V104.2
			z"/>
		<path fill="#F1F2F2" d="M847.5,77.3v-8h-21.4v13.4h21.5v-5.4H847.5z"/>
		<path fill="#F1F2F2" d="M852.8,77.3h-2.6v8h-26.9v-8h-2.6c-2.6,0-5.4,2.6-5.4,5.4v13.4c0,2.6,2.6,5.4,5.4,5.4h2.6v-8h26.8v8h2.6
			c2.6,0,5.4-2.6,5.4-5.4V82.7C858.2,80,855.5,77.3,852.8,77.3L852.8,77.3z"/>
	</g>
	<g>
		<g>
			<path fill="#F1F2F2" d="M833.6,21.5c-2.2,0-4,0.2-5.5,0.5l-1.3,0.2l1-10.5h19V2.2h-28.9l-2,27.1l4.4,2.4c1-0.3,2.2-0.5,3.8-0.8
				c1.6-0.2,3-0.4,4.2-0.4c7.1,0,10.7,2.6,10.7,8c0,5.6-3.5,8.5-10.4,8.5c-2.3,0-4.8-0.3-7.3-1c-2.5-0.6-4.8-1.5-6.8-2.5v9.7
				c3.7,1.9,8.5,2.9,14.4,2.9c6.9,0,12.1-1.6,15.8-4.8s5.5-7.7,5.5-13.7c0-5-1.5-9-4.5-11.8C842.9,22.8,838.8,21.5,833.6,21.5z
				 M875.2,1.4c-6.3,0-11,2.2-14.1,6.7c-3.1,4.4-4.5,11.3-4.5,20.7c0,9,1.6,15.8,4.7,20.4c3.2,4.7,7.7,6.9,14,6.9
				c6.3,0,11.1-2.2,14.1-6.7c3.1-4.4,4.5-11.3,4.5-20.6c0-9-1.6-15.8-4.8-20.4C886.1,3.7,881.4,1.4,875.2,1.4z M880.9,42.8
				c-1.2,2.9-3.1,4.3-5.7,4.3c-2.6,0-4.5-1.4-5.7-4.2s-1.7-7.5-1.7-14.1s0.5-11.2,1.7-14.1s3.1-4.2,5.7-4.2c2.6,0,4.5,1.4,5.7,4.2
				s1.8,7.5,1.8,14.1C882.7,35.3,882,40,880.9,42.8z M917.9,1.4c-6.3,0-11,2.2-14.1,6.7c-3.1,4.4-4.5,11.3-4.5,20.7
				c0,9,1.6,15.8,4.7,20.4c3.2,4.7,7.7,6.9,14,6.9c6.3,0,11.1-2.2,14.1-6.7c3.1-4.4,4.5-11.3,4.5-20.6c0-9-1.6-15.8-4.8-20.4
				C928.7,3.7,924,1.4,917.9,1.4z M923.6,42.8c-1.2,2.9-3.1,4.3-5.7,4.3c-2.6,0-4.5-1.4-5.7-4.2s-1.7-7.5-1.7-14.1
				s0.5-11.2,1.7-14.1s3.1-4.2,5.7-4.2c2.6,0,4.5,1.4,5.7,4.2s1.8,7.5,1.8,14.1C925.3,35.3,924.8,40,923.6,42.8z M974.5,8.3
				c-3.2-4.7-7.8-7-14-7c-6.3,0-11,2.2-14.1,6.7c-3.1,4.4-4.5,11.3-4.5,20.7c0,9,1.6,15.8,4.7,20.4c3.2,4.7,7.7,6.9,14,6.9
				c6.3,0,11.1-2.2,14.1-6.7c3.1-4.4,4.5-11.3,4.5-20.6C979.2,19.9,977.6,13,974.5,8.3z M966.2,42.8c-1.2,2.9-3.1,4.3-5.7,4.3
				c-2.6,0-4.5-1.4-5.7-4.2c-1.2-2.9-1.7-7.5-1.7-14.1s0.5-11.2,1.7-14.1c1.2-2.9,3.1-4.2,5.7-4.2c2.6,0,4.5,1.4,5.7,4.2
				c1.2,2.9,1.8,7.5,1.8,14.1C968,35.3,967.4,40,966.2,42.8z"/>
		</g>
	</g>
	<g>
		<g>
			<path fill="#F1F2F2" d="M875.8,82.6h-6v-5.5h5.7v-0.8h-5.7v-4.9h6v-0.7h-7v12.7h7V82.6z M885,73.9h-1l-2.7,4l-2.9-4h-1l3.3,4.5
				l-3.4,4.9h1l3-4.2l3,4.2h1l-3.5-4.9L885,73.9z M891.2,82.7c-0.4,0.1-0.8,0.1-1.5,0.1c-0.5,0-1-0.2-1.2-0.5
				c-0.2-0.3-0.4-0.8-0.4-1.6v-6h2.7v-0.7h-2.7v-2.3h-0.4l-0.4,2.1l-1.4,0.4v0.5h1.4v6.1c0,1,0.2,1.7,0.6,2.1s1.1,0.6,1.9,0.6
				c0.5,0,1.1-0.1,1.5-0.2v-0.6H891.2z M895.5,74.1c-0.4,0.3-0.8,0.7-1.3,1.5h-0.1l-0.1-1.7h-0.7v9.4h0.8v-5.2
				c0-1.1,0.2-1.9,0.7-2.6c0.5-0.6,1.2-1.1,2-1.1c0.4,0,0.8,0,1.3,0.1l0.2-0.8c-0.4-0.1-0.8-0.1-1.3-0.1
				C896.4,73.7,895.9,73.9,895.5,74.1z M906.7,77.1c0-1.2-0.2-2-0.7-2.5c-0.5-0.5-1.3-0.8-2.3-0.8c-1.1,0-2,0.2-3.1,0.7l0.3,0.7
				c1-0.5,1.8-0.7,2.7-0.7c0.8,0,1.4,0.2,1.8,0.7c0.3,0.4,0.5,1.2,0.5,2v0.6h-1.8c-1.5,0-2.5,0.3-3.4,0.8c-0.7,0.5-1.2,1.3-1.2,2.1
				c0,0.8,0.2,1.5,0.7,2c0.5,0.4,1.3,0.7,2.2,0.7c0.6,0,1.3-0.1,1.8-0.4c0.5-0.2,1-0.6,1.5-1.3h0.1l0.2,1.5h0.6v-6.2H906.7z
				 M905.8,79.5c0,1.1-0.3,1.8-0.8,2.4c-0.6,0.5-1.4,0.8-2.4,0.8c-0.6,0-1.2-0.2-1.6-0.5c-0.3-0.3-0.5-0.7-0.5-1.4
				c0-0.7,0.3-1.3,0.8-1.7c0.5-0.3,1.5-0.5,2.9-0.6l1.7-0.1V79.5z M920.5,83.1v-0.8c-0.7,0.3-1.6,0.4-2.4,0.4
				c-1.1,0-1.9-0.3-2.5-1.1c-0.6-0.7-0.8-1.7-0.8-3c0-1.4,0.3-2.3,0.8-3.1c0.6-0.7,1.5-1.1,2.6-1.1c0.6,0,1.3,0.1,2.1,0.4l0.2-0.7
				c-0.7-0.3-1.5-0.4-2.3-0.4c-1.4,0-2.4,0.4-3.3,1.3c-0.8,0.8-1.2,2.1-1.2,3.7c0,1.5,0.4,2.7,1.2,3.6c0.7,0.8,1.8,1.3,3.2,1.3
				C919.1,83.5,919.9,83.4,920.5,83.1z M926.5,73.7c-1.3,0-2.3,0.4-3.1,1.3c-0.7,0.8-1.2,2.1-1.2,3.6c0,1,0.2,1.8,0.5,2.6
				c0.3,0.7,0.8,1.4,1.5,1.7c0.6,0.4,1.4,0.6,2.2,0.6c1.3,0,2.3-0.4,3.1-1.3c0.7-0.8,1.2-2.1,1.2-3.6s-0.4-2.7-1.2-3.6
				C928.8,74.2,927.7,73.7,926.5,73.7z M928.9,81.6c-0.5,0.7-1.4,1.1-2.4,1.1s-1.9-0.3-2.4-1.1s-0.8-1.7-0.8-3.1
				c0-1.3,0.3-2.3,0.8-3.1c0.5-0.7,1.4-1.1,2.4-1.1s1.9,0.3,2.4,1.1s0.8,1.7,0.8,3.1C929.7,79.9,929.4,81,928.9,81.6z M937.3,73.7
				c-1.5,0-2.4,0.5-3.1,1.5l0,0l-0.2-1.4h-0.7v13.7h0.8V84c0-0.5,0-1,0-1.4v-0.7h0.1c0.6,1.1,1.7,1.6,3.2,1.6c1.3,0,2.2-0.4,2.9-1.3
				c0.7-0.8,1.1-2,1.1-3.6s-0.3-2.9-1.1-3.7C939.6,74.1,938.6,73.7,937.3,73.7z M939.6,81.7c-0.5,0.7-1.3,1.1-2.2,1.1
				c-1.2,0-1.9-0.3-2.4-1c-0.5-0.6-0.7-1.7-0.7-3.2v-0.3c0-1.4,0.2-2.3,0.7-3s1.4-1,2.4-1c2,0,3,1.4,3,4.1
				C940.3,79.9,940.1,81,939.6,81.7z M947.9,73.7c-1.5,0-2.4,0.5-3.1,1.5l0,0l-0.2-1.4h-0.7v13.7h0.8V84c0-0.5,0-1,0-1.4v-0.7h0.1
				c0.6,1.1,1.7,1.6,3.2,1.6c1.3,0,2.2-0.4,2.9-1.3c0.7-0.8,1.1-2,1.1-3.6s-0.3-2.9-1.1-3.7C950.3,74.1,949.2,73.7,947.9,73.7z
				 M950.1,81.7c-0.5,0.7-1.3,1.1-2.2,1.1c-1.2,0-1.9-0.3-2.4-1c-0.5-0.6-0.7-1.7-0.7-3.2v-0.3c0-1.4,0.2-2.3,0.7-3s1.4-1,2.4-1
				c2,0,3,1.4,3,4.1C951,79.9,950.7,81,950.1,81.7z M954.5,83.4h0.8V74h-0.8V83.4z M954.9,70.4c-0.3,0-0.5,0.3-0.5,0.8
				c0,0.5,0.2,0.8,0.5,0.8c0.2,0,0.3-0.1,0.4-0.2s0.1-0.3,0.1-0.6s0-0.4-0.1-0.6C955.2,70.5,955.1,70.4,954.9,70.4z M962.1,73.7
				c-1.3,0-2.2,0.4-3,1.4c-0.7,1-1.2,2.1-1.2,3.6s0.4,2.7,1.2,3.6c0.7,0.8,1.8,1.3,3.2,1.3c0.5,0,1.1,0,1.5-0.1
				c0.4-0.1,1-0.2,1.5-0.4v-0.7c-0.6,0.2-1.2,0.4-1.6,0.5c-0.4,0.1-0.8,0.1-1.4,0.1c-1.1,0-2-0.3-2.5-1.1c-0.6-0.6-0.8-1.7-1-3h6.8
				V78c0-1.4-0.3-2.4-1-3.2C964.1,74.1,963.3,73.7,962.1,73.7z M958.9,78c0.1-1.2,0.4-2,1-2.6c0.5-0.6,1.3-1,2.2-1
				c0.8,0,1.5,0.3,2,1c0.5,0.6,0.7,1.5,0.7,2.5h-5.9V78z M973.9,79.8c-0.2-0.3-0.5-0.6-0.8-0.8c-0.4-0.2-1.1-0.5-1.9-0.8
				c-1.1-0.3-1.7-0.7-2-1c-0.3-0.3-0.5-0.7-0.5-1.2s0.2-0.8,0.6-1.1c0.4-0.2,1.1-0.4,1.8-0.4c0.8,0,1.7,0.2,2.5,0.5l0.3-0.7
				c-1-0.4-1.9-0.5-3-0.5c-1.1,0-1.9,0.2-2.5,0.6c-0.6,0.4-0.8,1-0.8,1.7c0,0.4,0.1,0.8,0.3,1.2c0.2,0.3,0.5,0.6,0.8,0.8
				c0.4,0.2,1.1,0.5,2,0.8c0.8,0.3,1.5,0.6,1.9,1c0.4,0.3,0.5,0.7,0.5,1.2c0,0.5-0.2,1-0.7,1.3c-0.5,0.3-1.2,0.4-2.1,0.4
				c-1.1,0-2-0.2-3-0.7v1c0.7,0.4,1.8,0.6,3,0.6s2.1-0.2,2.7-0.6c0.6-0.4,1-1.1,1-1.9C974.2,80.5,974,80.2,973.9,79.8z M872.6,97.5
				c-1.5,0-2.4,0.5-3.1,1.5l0,0l-0.2-1.4h-0.7v13.7h0.8v-3.6c0-0.5,0-1,0-1.4v-0.7h0.1c0.6,1.1,1.7,1.6,3.2,1.6
				c1.3,0,2.2-0.4,2.9-1.3c0.7-0.8,1.1-2,1.1-3.6s-0.3-2.9-1.1-3.7C875,97.9,874,97.5,872.6,97.5z M874.8,105.5
				c-0.5,0.7-1.3,1.1-2.2,1.1c-1.2,0-1.9-0.3-2.4-1c-0.5-0.6-0.7-1.7-0.7-3.2v-0.3c0-1.4,0.2-2.3,0.7-3c0.5-0.6,1.4-1,2.4-1
				c2,0,3,1.4,3,4.1C875.7,103.7,875.4,104.8,874.8,105.5z M881.3,97.9c-0.4,0.3-0.8,0.7-1.3,1.5h-0.1l-0.1-1.7h-0.7v9.4h0.8v-5.2
				c0-1.1,0.2-1.9,0.7-2.6c0.5-0.6,1.2-1.1,2-1.1c0.4,0,0.8,0,1.3,0.1l0.2-0.8c-0.4-0.1-0.8-0.1-1.3-0.1
				C882.4,97.5,881.8,97.6,881.3,97.9z M886.2,107.1h0.8v-9.4h-0.8V107.1z M886.6,94.2c-0.3,0-0.5,0.3-0.5,0.8
				c0,0.5,0.2,0.8,0.5,0.8c0.2,0,0.3-0.1,0.4-0.2c0.1-0.1,0.1-0.3,0.1-0.6s0-0.4-0.1-0.6C886.9,94.3,886.8,94.2,886.6,94.2z
				 M894.4,97.5c-1.6,0-2.6,0.5-3.3,1.5l0,0l-0.2-1.3h-0.7v9.4h0.8v-5.2c0-1.3,0.2-2.2,0.7-2.7c0.5-0.5,1.4-0.8,2.5-0.8
				c0.8,0,1.5,0.2,1.9,0.6c0.4,0.4,0.6,1.2,0.6,2.1v6.1h0.8V101C897.7,98.7,896.6,97.5,894.4,97.5z M902,106.1
				c-0.2-0.3-0.4-0.8-0.4-1.6v-6h2.7v-0.7h-2.7v-2.3h-0.4l-0.4,2.1l-1.4,0.4v0.5h1.4v6.1c0,1,0.2,1.7,0.6,2.1s1.1,0.6,1.9,0.6
				c0.5,0,1.1-0.1,1.5-0.2v-0.7c-0.4,0.1-0.8,0.1-1.5,0.1S902.2,106.4,902,106.1z M910.3,97.5c-1.3,0-2.2,0.4-3,1.4
				c-0.7,1-1.2,2.1-1.2,3.6s0.4,2.7,1.2,3.6c0.7,0.8,1.8,1.3,3.2,1.3c0.5,0,1.1,0,1.5-0.1s1-0.2,1.5-0.4v-0.7
				c-0.6,0.2-1.2,0.4-1.6,0.5c-0.4,0.1-0.8,0.1-1.4,0.1c-1.1,0-2-0.3-2.5-1.1c-0.6-0.6-0.8-1.7-1-3h6.8v-0.7c0-1.4-0.3-2.4-1-3.2
				C912.3,97.9,911.3,97.5,910.3,97.5z M907.1,101.7c0.1-1.2,0.4-2,1-2.6c0.5-0.6,1.3-1,2.2-1c0.8,0,1.5,0.3,2,1
				c0.5,0.6,0.7,1.5,0.7,2.5h-5.9V101.7z M923.1,97c0,0.7,0,1.4,0,2.1l0,0c-0.4-0.6-0.8-1.1-1.4-1.3c-0.5-0.2-1.1-0.4-1.8-0.4
				c-1.3,0-2.3,0.4-3,1.3c-0.6,0.8-1.1,2.1-1.1,3.7s0.3,2.7,1.1,3.6c0.7,0.8,1.7,1.3,3,1.3c1.4,0,2.4-0.5,3.1-1.6h0.1l0.2,1.5h0.5
				V93.6H923V97H923.1z M923.1,102.6c0,1.4-0.2,2.4-0.7,3.1c-0.5,0.6-1.3,1-2.3,1c-2.1,0-3.2-1.4-3.2-4c0-1.4,0.2-2.4,0.7-3.2
				s1.3-1.1,2.3-1.1s1.9,0.3,2.4,1c0.5,0.6,0.7,1.7,0.7,3.2V102.6z"/>
		</g>
	</g>
</g>
<g id="stat-1" display="none">
	<g display="inline">
		<path fill="#FFFFFF" d="M854.3,4.9c0-2.4-3.7-4.3-8.2-4.3c-4.5,0-8.2,2-8.2,4.3h-3.6v49.3h6.7V57h10.2v-2.7h6.7V4.9H854.3z
			 M846.2,49.3c-3.2,0-5.8-2.6-5.8-5.8c0-3.2,2.6-5.8,5.8-5.8s5.8,2.6,5.8,5.8C852,46.7,849.4,49.3,846.2,49.3L846.2,49.3z
			 M846.2,34.4c-3.2,0-5.8-2.6-5.8-5.8s2.6-5.8,5.8-5.8s5.8,2.6,5.8,5.8S849.4,34.4,846.2,34.4L846.2,34.4z M846.2,20
			c-3.2,0-5.8-2.6-5.8-5.8s2.6-5.8,5.8-5.8s5.8,2.6,5.8,5.8S849.4,20,846.2,20L846.2,20z"/>
	</g>
	<g display="inline">
		<g>
			<path fill="#FFFFFF" d="M833.9,79.9l5.2,6.5l5.8-4.7c0.7-0.5,2-1.7,3.8-3.5l-0.2,5.3l-0.1,4.8v29.4h10.8V66.9h-8.8L833.9,79.9z
				 M898,90.9c3.2-1.6,5.5-3.4,7-5.4c1.4-2,2.1-4.3,2.1-6.9c0-3.8-1.5-6.7-4.5-8.9s-6.9-3.3-11.8-3.3s-8.8,1.1-11.8,3.4
				c-3,2.3-4.5,5.2-4.5,8.8c0,2.5,0.7,4.8,1.9,6.8c1.3,2.1,3.4,4,6.3,5.9c-3.4,1.7-5.9,3.7-7.4,6c-1.5,2.3-2.3,4.8-2.3,7.7
				c0,4.3,1.6,7.7,4.8,10.1c3.2,2.4,7.6,3.6,13.2,3.6c5.4,0,9.6-1.3,12.9-3.8c3.3-2.6,4.9-5.9,4.9-10.1c0-2.6-0.8-5.1-2.5-7.3
				C904.6,95.1,901.8,92.9,898,90.9z M886.3,75.5c1.1-1,2.6-1.4,4.5-1.4c1.8,0,3.3,0.5,4.5,1.4c1.2,1,1.7,2.2,1.7,3.8
				c0,1.5-0.5,2.7-1.4,3.9s-2.5,2.2-4.8,3.3c-2.3-1.1-4-2.3-4.9-3.4c-0.9-1.1-1.4-2.3-1.4-3.8C884.7,77.7,885.2,76.4,886.3,75.5z
				 M896.8,108.8c-1.3,1.1-3.3,1.7-6,1.7c-2.4,0-4.3-0.5-5.7-1.7c-1.4-1.1-2.1-2.7-2.1-4.6c0-3.5,2.5-6.4,7.4-8.6
				c3,1.5,5.1,3,6.4,4.3c1.3,1.4,2,2.8,2,4.3C898.7,106.1,898.1,107.7,896.8,108.8z M961.2,86.5c-8,0-12,5.3-12,15.9
				c0,5.2,1.1,9.1,3.2,11.8s5.1,4.1,8.9,4.1c4,0,7-1.3,9.1-4s3.1-6.7,3.1-12c0-5.1-1.1-9-3.2-11.8C968.1,87.9,965.1,86.5,961.2,86.5
				z M961.2,111.2c-1.2,0-2-0.7-2.5-2.1c-0.5-1.4-0.8-3.6-0.8-6.6c0-2.9,0.2-5.1,0.8-6.5s1.4-2.1,2.5-2.1c2.3,0,3.3,2.9,3.3,8.7
				C964.6,108.3,963.5,111.2,961.2,111.2z M953.3,66.9L925,117.8h8.4l28.3-50.8H953.3z M934.6,94.1c2.1-2.7,3.1-6.7,3.1-12
				c0-5.1-1.1-9-3.2-11.8c-2.1-2.7-5.1-4.1-9-4.1c-8,0-12,5.3-12,15.9c0,5.2,1.1,9.2,3.2,11.9c2.1,2.7,5.1,4.1,8.9,4.1
				C929.4,98.1,932.5,96.7,934.6,94.1z M923,88.7c-0.5-1.4-0.8-3.6-0.8-6.6c0-2.9,0.2-5.1,0.8-6.5s1.4-2.1,2.5-2.1
				c2.3,0,3.3,2.9,3.3,8.7c0,5.8-1.1,8.8-3.3,8.8C924.4,90.9,923.5,90.2,923,88.7z M878.4,22.4c0.8-0.7,1.2-1.5,1.2-2.6
				c0-0.6-0.1-1.1-0.4-1.5c-0.2-0.4-0.6-0.8-1.1-1.1c-0.5-0.3-1.3-0.7-2.3-1c-1-0.4-1.6-0.7-2-0.9c-0.4-0.2-0.7-0.5-0.8-0.8
				c-0.2-0.3-0.2-0.7-0.2-1.2c0-0.8,0.3-1.4,0.8-1.8c0.5-0.4,1.3-0.7,2.3-0.7c1,0,2,0.2,3,0.7l0.3-0.8c-1.1-0.5-2.2-0.7-3.4-0.7
				s-2.1,0.3-2.9,0.9c-0.8,0.6-1.1,1.4-1.1,2.3c0,0.9,0.2,1.5,0.8,2.1c0.5,0.5,1.4,1,2.7,1.5c0.9,0.3,1.6,0.6,2,0.8
				c0.5,0.2,0.8,0.5,1,0.9c0.2,0.3,0.3,0.7,0.3,1.2c0,0.8-0.3,1.4-1,1.9c-0.6,0.5-1.4,0.7-2.5,0.7c-1.4,0-2.6-0.2-3.6-0.6v0.9
				c0.8,0.4,2,0.5,3.6,0.5C876.6,23.4,877.7,23.1,878.4,22.4z M882.5,11.9c0.2,0,0.3-0.1,0.4-0.2c0.1-0.2,0.2-0.4,0.2-0.6
				c0-0.3-0.1-0.5-0.2-0.6c-0.1-0.1-0.2-0.2-0.4-0.2c-0.4,0-0.5,0.3-0.5,0.8C882,11.6,882.2,11.9,882.5,11.9z M882.1,23.2h0.9v-9.5
				h-0.9V23.2z M886.2,20.6c0,1,0.2,1.7,0.6,2.1c0.4,0.5,1,0.7,1.8,0.7c0.5,0,1-0.1,1.5-0.2v-0.7c-0.4,0.1-0.9,0.1-1.4,0.1
				c-0.5,0-1-0.2-1.2-0.5c-0.2-0.4-0.4-0.9-0.4-1.6v-6h2.8v-0.8h-2.8v-2.3h-0.5l-0.4,2.1l-1.4,0.4v0.5h1.4V20.6z M896.1,23.4
				c0.5,0,1.1-0.1,1.5-0.1c0.5-0.1,1-0.2,1.5-0.5V22c-0.7,0.2-1.1,0.4-1.5,0.5c-0.4,0.1-0.9,0.1-1.4,0.1c-1.1,0-2-0.4-2.6-1
				c-0.6-0.7-0.9-1.7-0.9-3h6.9v-0.8c0-1.4-0.3-2.4-1-3.2c-0.7-0.8-1.5-1.2-2.7-1.2c-1.3,0-2.3,0.5-3,1.4c-0.8,0.9-1.1,2.1-1.1,3.6
				c0,1.5,0.4,2.7,1.2,3.6C893.6,23,894.7,23.4,896.1,23.4z M893.6,15.2c0.5-0.6,1.3-0.9,2.2-0.9c0.8,0,1.5,0.3,2,1
				c0.5,0.6,0.7,1.5,0.7,2.6h-5.9C892.7,16.7,893.1,15.8,893.6,15.2z M908.1,22.1c-0.2-0.4-0.4-0.9-0.4-1.6v-6h2.8v-0.8h-2.8v-2.3
				h-0.5l-0.4,2.1l-1.4,0.4v0.5h1.4v6.1c0,1,0.2,1.7,0.6,2.1c0.4,0.5,1,0.7,1.8,0.7c0.5,0,1-0.1,1.5-0.2v-0.7
				c-0.4,0.1-0.9,0.1-1.4,0.1C908.8,22.6,908.4,22.4,908.1,22.1z M913.7,18c0-1.1,0.2-1.9,0.8-2.6c0.5-0.7,1.2-1,2-1
				c0.4,0,0.8,0.1,1.3,0.2l0.2-0.8c-0.5-0.1-0.9-0.1-1.3-0.1c-0.7,0-1.2,0.1-1.6,0.4c-0.4,0.3-0.9,0.8-1.3,1.5h-0.1l-0.1-1.7H913
				v9.5h0.9V18H913.7z M922.1,23.4c0.7,0,1.3-0.1,1.8-0.4c0.5-0.2,1-0.7,1.5-1.3h0.1l0.2,1.5h0.7v-6.3c0-1.1-0.2-2-0.8-2.6
				c-0.5-0.5-1.3-0.8-2.4-0.8c-1,0-2.1,0.2-3.1,0.7l0.3,0.8c1-0.5,1.8-0.7,2.7-0.7c0.8,0,1.4,0.2,1.8,0.7c0.4,0.5,0.5,1.1,0.5,2v0.7
				l-1.8,0.1c-1.5,0-2.6,0.3-3.4,0.8c-0.8,0.5-1.2,1.3-1.2,2.1c0,0.8,0.2,1.5,0.8,2C920.5,23.2,921.2,23.4,922.1,23.4z M920.9,19
				c0.6-0.4,1.5-0.5,2.9-0.7l1.7-0.1v1c0,1-0.3,1.8-0.9,2.4s-1.4,0.9-2.4,0.9c-0.7,0-1.2-0.2-1.5-0.5c-0.4-0.4-0.5-0.8-0.5-1.4
				C920,20,920.3,19.4,920.9,19z M940.2,13.7v9.5h0.9v-9.5H940.2z M929.9,23.2h0.9v-8.8h2.3v-0.8h-2.3v-0.9c0-0.9,0.1-1.5,0.4-2
				c0.3-0.4,0.8-0.6,1.4-0.6c0.5,0,1,0.1,1.4,0.2l0.2-0.8c-0.5-0.2-1.1-0.2-1.6-0.2c-1,0-1.7,0.3-2.1,0.8c-0.4,0.5-0.7,1.4-0.7,2.6
				v0.7l-1.8,0.3v0.5h1.8L929.9,23.2L929.9,23.2z M940.6,11.9c0.2,0,0.3-0.1,0.4-0.2s0.2-0.4,0.2-0.6c0-0.3-0.1-0.5-0.2-0.6
				s-0.2-0.2-0.4-0.2c-0.4,0-0.5,0.3-0.5,0.8C940.1,11.6,940.3,11.9,940.6,11.9z M933.5,14.5h1.8v8.8h0.9v-8.8h2.3v-0.8h-2.3v-0.9
				c0-0.9,0.1-1.5,0.4-2c0.3-0.4,0.8-0.6,1.4-0.6c0.5,0,1,0.1,1.4,0.2l0.2-0.8c-0.5-0.2-1.1-0.2-1.6-0.2c-1,0-1.7,0.3-2.1,0.8
				c-0.4,0.5-0.7,1.4-0.7,2.6v0.7l-1.8,0.3L933.5,14.5L933.5,14.5z M948.1,23.4c1,0,1.8-0.2,2.4-0.5v-0.8c-0.8,0.3-1.5,0.5-2.4,0.5
				c-1.1,0-1.9-0.4-2.6-1.1c-0.6-0.7-0.9-1.7-0.9-3c0-1.4,0.3-2.4,0.9-3.1c0.6-0.7,1.5-1.1,2.7-1.1c0.6,0,1.3,0.1,2.1,0.4l0.2-0.8
				c-0.8-0.3-1.5-0.4-2.4-0.4c-1.4,0-2.5,0.4-3.3,1.3c-0.8,0.9-1.2,2.1-1.2,3.7c0,1.5,0.4,2.7,1.2,3.6
				C945.7,23,946.8,23.4,948.1,23.4z M873.4,34.3h-0.9v12.8h0.9V34.3z M877.8,38.9L877.8,38.9l-0.2-1.3h-0.7v9.5h0.9v-5.2
				c0-1.3,0.2-2.2,0.8-2.8c0.5-0.6,1.4-0.9,2.5-0.9c0.8,0,1.5,0.2,1.9,0.7c0.4,0.4,0.6,1.1,0.6,2.1v6.2h0.9V41
				c0-2.3-1.1-3.5-3.3-3.5C879.5,37.4,878.4,38,877.8,38.9z M886.9,42.4c0,1.5,0.4,2.7,1.2,3.6c0.8,0.8,1.8,1.3,3.2,1.3
				c1,0,1.8-0.2,2.4-0.5V46c-0.8,0.3-1.5,0.5-2.4,0.5c-1.1,0-1.9-0.4-2.6-1.1c-0.6-0.7-0.9-1.7-0.9-3c0-1.4,0.3-2.4,0.9-3.1
				c0.6-0.7,1.5-1.1,2.7-1.1c0.6,0,1.3,0.1,2.1,0.4l0.2-0.8c-0.8-0.3-1.5-0.4-2.4-0.4c-1.4,0-2.5,0.4-3.3,1.3
				C887.3,39.6,886.9,40.9,886.9,42.4z M896.9,39.3L896.9,39.3l-0.1-1.7h-0.7v9.5h0.9v-5.2c0-1.1,0.2-1.9,0.8-2.6c0.5-0.7,1.2-1,2-1
				c0.4,0,0.8,0.1,1.3,0.2l0.2-0.8c-0.5-0.1-0.9-0.1-1.3-0.1c-0.7,0-1.2,0.1-1.6,0.4C897.7,38.2,897.3,38.6,896.9,39.3z M906.6,37.4
				c-1.3,0-2.3,0.5-3,1.4c-0.8,0.9-1.1,2.1-1.1,3.6c0,1.5,0.4,2.7,1.2,3.6c0.8,0.8,1.8,1.3,3.3,1.3c0.5,0,1.1-0.1,1.5-0.1
				c0.5-0.1,1-0.2,1.5-0.5V46c-0.7,0.2-1.1,0.4-1.5,0.5c-0.4,0.1-0.9,0.1-1.4,0.1c-1.1,0-2-0.4-2.6-1c-0.6-0.7-0.9-1.7-0.9-3h6.9
				v-0.7c0-1.4-0.3-2.4-1-3.2C908.7,37.9,907.8,37.4,906.6,37.4z M903.5,41.7c0.1-1.1,0.4-2,1-2.6c0.5-0.6,1.3-0.9,2.2-0.9
				c0.8,0,1.5,0.3,2,1c0.5,0.6,0.7,1.5,0.7,2.6L903.5,41.7L903.5,41.7z M917,47c0.5-0.2,1-0.7,1.5-1.3h0.1l0.2,1.5h0.7v-6.3
				c0-1.1-0.2-2-0.8-2.6c-0.5-0.5-1.3-0.8-2.4-0.8c-1,0-2.1,0.2-3.1,0.7l0.3,0.8c1-0.5,1.8-0.7,2.7-0.7c0.8,0,1.4,0.2,1.8,0.7
				c0.4,0.5,0.5,1.1,0.5,2v0.7l-1.8,0.1c-1.5,0-2.6,0.3-3.4,0.8c-0.8,0.5-1.2,1.3-1.2,2.1c0,0.8,0.2,1.5,0.8,2
				c0.5,0.5,1.3,0.7,2.2,0.7C915.9,47.3,916.5,47.2,917,47z M913.1,44.7c0-0.8,0.3-1.3,0.8-1.7c0.6-0.4,1.5-0.5,2.9-0.7l1.7-0.1v1
				c0,1-0.3,1.8-0.9,2.4c-0.6,0.6-1.4,0.9-2.4,0.9c-0.7,0-1.2-0.2-1.5-0.5C913.3,45.7,913.1,45.3,913.1,44.7z M926.8,46.1
				c-0.5,0.3-1.2,0.5-2.1,0.5c-1.1,0-2.1-0.2-3-0.7v1c0.8,0.4,1.8,0.6,3,0.6c1.2,0,2.1-0.2,2.8-0.7c0.7-0.5,1-1.1,1-2
				c0-0.4-0.1-0.8-0.3-1.1c-0.2-0.3-0.5-0.6-0.9-0.8c-0.4-0.2-1-0.5-1.9-0.8c-1-0.4-1.7-0.7-2.1-1c-0.4-0.3-0.5-0.7-0.5-1.2
				s0.2-0.8,0.7-1.1c0.5-0.2,1.1-0.4,1.8-0.4c0.8,0,1.7,0.2,2.6,0.6l0.3-0.8c-1-0.4-1.9-0.6-2.9-0.6c-1.1,0-1.9,0.2-2.5,0.6
				c-0.6,0.4-0.9,1-0.9,1.7c0,0.5,0.1,0.8,0.3,1.1c0.2,0.3,0.5,0.6,0.9,0.8c0.4,0.2,1.1,0.5,2,0.9c0.9,0.3,1.5,0.7,1.9,1
				c0.4,0.4,0.6,0.7,0.6,1.2C927.5,45.4,927.3,45.8,926.8,46.1z M938.1,41.8c0-1.4-0.3-2.4-1-3.2c-0.7-0.8-1.5-1.2-2.7-1.2
				c-1.3,0-2.3,0.5-3,1.4c-0.8,0.9-1.1,2.1-1.1,3.6c0,1.5,0.4,2.7,1.2,3.6c0.8,0.8,1.8,1.3,3.3,1.3c0.5,0,1.1-0.1,1.5-0.1
				c0.5-0.1,1-0.2,1.5-0.5V46c-0.7,0.2-1.1,0.4-1.5,0.5c-0.4,0.1-0.9,0.1-1.4,0.1c-1.1,0-2-0.4-2.6-1c-0.6-0.7-0.9-1.7-0.9-3h6.9
				v-0.7H938.1z M931.3,41.7c0.1-1.1,0.4-2,1-2.6c0.5-0.6,1.3-0.9,2.2-0.9c0.8,0,1.5,0.3,2,1c0.5,0.6,0.7,1.5,0.7,2.6L931.3,41.7
				L931.3,41.7z M941.3,46.1c0.7,0.8,1.7,1.3,3,1.3c1.4,0,2.4-0.5,3.2-1.6h0.1l0.2,1.4h0.6V33.5h-0.8V37c0,0.7,0,1.4,0.1,2.1h-0.1
				c-0.4-0.6-0.8-1-1.4-1.3c-0.5-0.2-1.1-0.4-1.8-0.4c-1.3,0-2.3,0.4-3,1.3c-0.7,0.9-1,2.1-1,3.8C940.2,44.1,940.6,45.3,941.3,46.1z
				 M941.9,39.3c0.5-0.7,1.3-1.1,2.4-1.1c1.1,0,1.9,0.3,2.4,1c0.5,0.7,0.7,1.7,0.7,3.2v0.2c0,1.4-0.2,2.4-0.8,3.1
				c-0.5,0.7-1.3,1-2.4,1c-2.1,0-3.2-1.4-3.2-4C941.2,41.1,941.4,40.1,941.9,39.3z M957,45.7L957,45.7c0.4,0.5,0.8,0.9,1.4,1.2
				s1.1,0.4,1.8,0.4c1.3,0,2.3-0.4,3-1.3c0.7-0.8,1.1-2.1,1.1-3.7s-0.4-2.9-1-3.7c-0.7-0.8-1.7-1.3-3-1.3c-0.7,0-1.4,0.1-1.8,0.4
				c-0.5,0.3-1,0.7-1.3,1.3H957v-0.8c0-0.4,0.1-0.9,0.1-1.4v-3.5h-0.9V47h0.5L957,45.7z M957.1,42.4c0-1.5,0.2-2.6,0.7-3.2
				c0.5-0.7,1.3-1,2.4-1c2.1,0,3.2,1.4,3.2,4.1c0,1.4-0.2,2.4-0.8,3.1s-1.3,1.1-2.4,1.1c-1.1,0-1.8-0.3-2.4-1
				c-0.5-0.7-0.8-1.7-0.8-3.1V42.4z M968.5,48.4c-0.2,0.7-0.5,1.1-0.7,1.4s-0.4,0.5-0.6,0.7c-0.2,0.1-0.5,0.2-0.8,0.2
				c-0.4,0-0.8-0.1-1.1-0.1v0.8c0.4,0.1,0.8,0.2,1.1,0.2c0.4,0,0.8-0.1,1.1-0.2c0.3-0.2,0.6-0.4,0.8-0.7c0.2-0.3,0.5-1,0.9-1.8
				l4.3-11.1h-0.9l-2,5.3c-0.5,1.5-1,2.6-1.2,3.4h-0.1c-0.2-0.6-0.5-1.7-1.2-3.3l-2-5.4h-1l3.7,9.5
				C968.9,47.4,968.7,47.8,968.5,48.4z"/>
		</g>
	</g>
</g>
<g id="stat-2" display="none">
	<g display="inline">
		<path fill="#FFFFFF" d="M896,31.3h-51.2c-1.6,0-3,1.1-3.3,2.7h-0.2c-8,0-14.5,6.5-14.5,14.5c0,0.8,0.1,8.8,6,14.8
			c4.2,4.3,10.2,6.5,17.7,6.5c4.6,4,10.5,6.4,17.1,6.4h5.5c14.5,0,26.3-11.8,26.3-26.3V34.7C899.4,32.9,897.9,31.3,896,31.3
			 M837.8,58.5c-4.1-4.2-4.1-10-4.1-10v-0.1c0-4.2,3.4-7.6,7.6-7.6h0.1v9c0,4.5,1.1,8.6,3.1,12.3C841.7,61.5,839.4,60.2,837.8,58.5
			 M873.1,69.4h-5.5c-10.5,0-19.2-8.5-19.4-18.9h44.3C892.3,60.9,883.7,69.4,873.1,69.4 M892.5,44.2h-44.3v-6h44.3V44.2z"/>
		<path fill="#FFFFFF" d="M867.2,26.6c0.1,0.1,0.2,0.1,0.2,0.1l0,0c0.2,0,0.4-0.2,0.4-0.4c0-0.1,0-0.1,0-0.2
			c-1-4.5-0.5-8.1,1.5-10.8c1.9-2.6,2.8-5.9,2.3-8.8c-0.4-2.5-1.8-4.6-4-6.1c-0.2-0.1-0.4-0.1-0.5,0c-0.2,0.1-0.2,0.3-0.2,0.5
			c1.1,4.6,0.1,7.7-2.3,12c-1.3,2.3-1.8,5-1.5,7.4C863.5,22.9,865,25.1,867.2,26.6"/>
		<path fill="#FFFFFF" d="M878.4,26.7c0.1,0.1,0.1,0.1,0.2,0.1l0,0c0.2,0,0.4-0.2,0.4-0.4c0-0.1,0-0.1,0-0.1
			c-0.8-3.6-0.4-6.6,1.3-8.8c1.6-2.1,2.3-4.8,1.9-7.2c-0.4-2.1-1.5-3.8-3.3-5c-0.1-0.1-0.3-0.1-0.4,0c-0.1,0.1-0.2,0.2-0.1,0.4
			c0.9,3.8,0.1,6.3-1.9,9.8c-1.1,1.9-1.5,4-1.3,6C875.4,23.6,876.5,25.4,878.4,26.7"/>
	</g>
	<g display="inline">
		<g>
			<path fill="#FFFFFF" d="M929.3,48.3c-1.8,0-3.3,0.1-4.5,0.4l-1.1,0.2l0.8-8.5h15.6v-7.7h-23.6l-1.7,22.1l3.7,2
				c0.8-0.2,1.8-0.5,3.1-0.7c1.3-0.2,2.4-0.3,3.5-0.3c5.8,0,8.8,2.2,8.8,6.5c0,4.6-2.8,6.9-8.5,6.9c-1.8,0-3.9-0.2-6-0.8
				s-3.9-1.2-5.5-2v7.9c3,1.5,6.9,2.3,11.8,2.3c5.6,0,9.9-1.3,12.9-3.9c3-2.6,4.5-6.4,4.5-11.2c0-4.1-1.3-7.3-3.8-9.7
				C936.9,49.5,933.6,48.3,929.3,48.3z M947.5,32.7v7.7h21.5l-16.4,35.7h9.6l16.5-37.6v-5.8H947.5z M839.1,81.1h-9.4v1.7h3.7v10.7h2
				V82.9h3.7V81.1z M844.6,84c-1.4,0-2.4,0.4-3.2,1.3c-0.8,0.9-1.1,2.1-1.1,3.6c0,1.5,0.4,2.7,1.3,3.5c0.8,0.8,2,1.3,3.5,1.3
				c0.7,0,1.2-0.1,1.7-0.1c0.5-0.1,1-0.2,1.5-0.5v-1.6c-0.5,0.2-1.1,0.4-1.5,0.5c-0.5,0.1-1,0.2-1.5,0.2c-0.8,0-1.5-0.2-2-0.7
				s-0.7-1.2-0.8-2.1h6.3v-1.1c0-1.3-0.4-2.4-1.1-3.1C846.8,84.4,845.9,84,844.6,84z M842.4,87.9c0.1-0.8,0.3-1.4,0.7-1.8
				c0.4-0.4,0.9-0.6,1.5-0.6s1.1,0.2,1.5,0.6s0.5,1,0.5,1.8H842.4z M854.7,84c-0.5,0-1.1,0.1-1.7,0.2c-0.6,0.1-1.2,0.4-1.7,0.6
				l0.7,1.4c0.4-0.2,0.8-0.4,1.3-0.5c0.4-0.1,0.9-0.2,1.4-0.2c0.6,0,1,0.2,1.3,0.5c0.3,0.3,0.4,0.8,0.4,1.4v0.5l-1.6,0.1
				c-1.5,0.1-2.6,0.3-3.3,0.8c-0.7,0.5-1.1,1.3-1.1,2.2c0,0.9,0.2,1.6,0.8,2.1c0.5,0.5,1.3,0.8,2.2,0.8c0.7,0,1.3-0.1,1.8-0.3
				c0.5-0.2,0.9-0.6,1.4-1.2h0.1l0.4,1.3h1.4v-6.4c0-1.1-0.3-2-0.9-2.4C856.8,84.3,855.9,84,854.7,84z M856.3,89.9
				c0,0.7-0.2,1.3-0.7,1.7c-0.4,0.4-1,0.6-1.8,0.6c-0.5,0-0.9-0.1-1.1-0.4c-0.2-0.2-0.4-0.5-0.4-1c0-0.6,0.2-1,0.7-1.3
				c0.4-0.3,1.1-0.4,2.1-0.5l1.2-0.1V89.9z M867.5,90.9c0-0.5-0.1-0.8-0.2-1.2c-0.2-0.3-0.4-0.6-0.8-0.9c-0.4-0.2-0.9-0.5-1.7-0.8
				c-1-0.4-1.5-0.7-1.8-0.8c-0.3-0.2-0.4-0.5-0.4-0.8c0-0.6,0.5-0.9,1.6-0.9c0.7,0,1.5,0.2,2.6,0.7l0.7-1.5c-1-0.5-2-0.7-3.2-0.7
				c-1.1,0-2,0.2-2.7,0.7c-0.7,0.4-1,1.1-1,1.9c0,0.7,0.2,1.2,0.6,1.7c0.4,0.4,1.1,0.8,2.2,1.3c0.5,0.2,1,0.4,1.3,0.6
				c0.3,0.2,0.5,0.4,0.7,0.5c0.1,0.2,0.2,0.4,0.2,0.6c0,0.8-0.6,1.1-1.8,1.1c-1,0-2-0.2-3.1-0.8v1.7c0.8,0.4,1.8,0.6,3,0.6
				c1.3,0,2.2-0.2,2.9-0.7C867.1,92.6,867.5,91.9,867.5,90.9z M880.9,92.2l0.2,1.4h0.5V80.4h-0.8v3.3c0,0.7,0,1.4,0.1,2.1h-0.1
				c-0.4-0.6-0.8-1-1.3-1.3c-0.5-0.2-1.1-0.4-1.7-0.4c-1.3,0-2.3,0.4-2.9,1.3c-0.7,0.8-1,2.1-1,3.7c0,1.5,0.4,2.7,1,3.5
				c0.7,0.8,1.7,1.2,2.9,1.2C879.1,93.8,880.1,93.2,880.9,92.2L880.9,92.2L880.9,92.2z M880,92.1c-0.5,0.6-1.3,0.9-2.3,0.9
				c-2,0-3.1-1.3-3.1-3.9c0-1.4,0.2-2.4,0.8-3.1c0.5-0.7,1.3-1.1,2.3-1.1c1.1,0,1.8,0.3,2.3,1c0.5,0.7,0.7,1.7,0.7,3.1v0.1
				C880.8,90.5,880.5,91.5,880,92.1z M885.6,88.5c0-1,0.2-1.8,0.8-2.6c0.5-0.7,1.1-1,2-1c0.4,0,0.8,0.1,1.2,0.1l0.2-0.8
				c-0.5-0.1-0.9-0.1-1.3-0.1c-0.6,0-1.1,0.1-1.5,0.4c-0.4,0.3-0.8,0.8-1.3,1.4h-0.1l-0.1-1.7h-0.7v9.3h0.8V88.5z M897.9,92.3
				L897.9,92.3l0.2,1.3h0.7v-9.3H898v5.1c0,1.3-0.2,2.1-0.8,2.7c-0.5,0.5-1.3,0.8-2.4,0.8c-0.8,0-1.4-0.2-1.8-0.7
				c-0.4-0.4-0.6-1.1-0.6-2v-6h-0.8v6.1c0,2.3,1.1,3.4,3.2,3.4C896.2,93.8,897.2,93.3,897.9,92.3z M907.8,85.5
				c0.4,0.4,0.6,1.1,0.6,2v6h0.8v-6.1c0-2.3-1.1-3.4-3.2-3.4c-1.5,0-2.6,0.5-3.2,1.4h-0.1l-0.2-1.3h-0.7v9.3h0.8v-5.1
				c0-1.3,0.2-2.1,0.8-2.7c0.5-0.5,1.3-0.8,2.4-0.8C906.8,84.9,907.4,85.1,907.8,85.5z M918.8,84.4h-1l-4.8,5.2H913l0.1-2.6v-6.6
				h-0.8v13.3h0.8v-3.3l1.5-1.4l3.5,4.7h1l-4-5.3L918.8,84.4z M931.8,83.7c0,0.7,0,1.4,0.1,2.1h-0.1c-0.4-0.6-0.8-1-1.3-1.3
				c-0.5-0.2-1.1-0.4-1.7-0.4c-1.3,0-2.3,0.4-2.9,1.3c-0.7,0.8-1,2.1-1,3.7c0,1.5,0.4,2.7,1,3.5c0.7,0.8,1.7,1.2,2.9,1.2
				c1.3,0,2.3-0.5,3-1.6h0.1l0.2,1.4h0.5V80.4h-0.8C931.8,80.4,931.8,83.7,931.8,83.7z M931.8,89.1c0,1.4-0.2,2.4-0.7,3
				c-0.5,0.6-1.3,0.9-2.3,0.9c-2,0-3.1-1.3-3.1-3.9c0-1.4,0.2-2.4,0.8-3.1s1.3-1.1,2.3-1.1c1.1,0,1.8,0.3,2.3,1
				c0.5,0.7,0.7,1.7,0.7,3.1L931.8,89.1L931.8,89.1z M942.1,89.5c0,1.3-0.2,2.1-0.8,2.7c-0.5,0.5-1.3,0.8-2.4,0.8
				c-0.8,0-1.4-0.2-1.8-0.7c-0.4-0.4-0.6-1.1-0.6-2v-6h-0.8v6.1c0,2.3,1.1,3.4,3.2,3.4c1.5,0,2.6-0.5,3.2-1.4h0.1l0.2,1.3h0.7v-9.3
				h-0.8V89.5z M948.1,84.6c-0.4,0.3-0.8,0.8-1.3,1.4l0,0l-0.1-1.7h-0.7v9.3h0.8v-5.1c0-1,0.2-1.8,0.8-2.6c0.5-0.7,1.1-1,2-1
				c0.4,0,0.8,0.1,1.2,0.1l0.2-0.8c-0.5-0.1-0.9-0.1-1.3-0.1C949.1,84.2,948.6,84.3,948.1,84.6z M952.9,93.6h0.8v-9.3h-0.8V93.6z
				 M953.3,81c-0.4,0-0.5,0.3-0.5,0.8s0.2,0.8,0.5,0.8c0.2,0,0.3-0.1,0.4-0.2c0.1-0.1,0.2-0.4,0.2-0.6c0-0.2-0.1-0.5-0.2-0.6
				C953.6,81,953.5,81,953.3,81z M961,84.2c-1.5,0-2.6,0.5-3.2,1.4h-0.1l-0.2-1.3h-0.7v9.3h0.8v-5.1c0-1.3,0.2-2.1,0.8-2.7
				c0.5-0.5,1.3-0.8,2.4-0.8c0.8,0,1.4,0.2,1.8,0.7c0.4,0.4,0.6,1.1,0.6,2v6h0.8v-6.1C964.2,85.3,963.1,84.2,961,84.2z M970,84.2
				c-1,0-1.8,0.3-2.4,0.8c-0.6,0.5-0.9,1.3-0.9,2.2c0,0.6,0.2,1.1,0.5,1.6c0.3,0.5,0.7,0.8,1.3,1.1c-0.8,0.5-1.2,1-1.2,1.7
				c0,0.3,0.1,0.5,0.2,0.8c0.2,0.2,0.4,0.4,0.7,0.5c-0.7,0.2-1.2,0.4-1.6,0.8c-0.4,0.4-0.6,1-0.6,1.6c0,0.8,0.3,1.4,1,1.9
				s1.5,0.7,2.7,0.7c1.5,0,2.6-0.2,3.4-0.8c0.8-0.5,1.2-1.3,1.2-2.3c0-0.8-0.3-1.4-0.8-1.8s-1.3-0.6-2.3-0.6h-1.6
				c-0.5,0-0.9-0.1-1.1-0.2c-0.2-0.1-0.4-0.4-0.4-0.7c0-0.2,0.1-0.5,0.2-0.8s0.4-0.4,0.8-0.6c0.2,0.1,0.5,0.1,0.9,0.1
				c1,0,1.8-0.3,2.4-0.8c0.6-0.5,0.9-1.3,0.9-2.1c0-0.8-0.2-1.5-0.8-2.1l1.9-0.1v-0.6h-3C971.1,84.2,970.6,84.2,970,84.2z
				 M969.4,93.2h1.5c0.8,0,1.5,0.1,1.8,0.4c0.4,0.2,0.6,0.7,0.6,1.2c0,1.5-1.3,2.3-3.7,2.3c-1.9,0-2.9-0.7-2.9-1.9
				C966.9,93.8,967.8,93.2,969.4,93.2z M972.4,87.2c0,0.8-0.2,1.3-0.6,1.7c-0.4,0.4-1,0.6-1.8,0.6c-0.7,0-1.3-0.2-1.7-0.6
				c-0.4-0.4-0.7-1-0.7-1.7c0-0.8,0.2-1.4,0.7-1.8c0.4-0.4,1-0.7,1.7-0.7c0.8,0,1.4,0.2,1.8,0.6C972.2,85.8,972.4,86.4,972.4,87.2z
				 M832.3,113.5c-0.2-0.4-0.4-0.9-0.4-1.6V106h2.7v-0.7h-2.7V103h-0.4l-0.4,2.1l-1.4,0.4v0.5h1.4v6c0,1,0.2,1.6,0.6,2.1
				c0.4,0.4,1,0.7,1.8,0.7c0.5,0,1-0.1,1.4-0.2v-0.7c-0.4,0.1-0.9,0.1-1.4,0.1C832.9,114,832.6,113.8,832.3,113.5z M841,105.1
				c-0.8,0-1.4,0.1-2,0.4c-0.5,0.2-1,0.7-1.3,1.2h-0.1l0.1-1.2v-4.2h-0.8v13.3h0.8v-5.1c0-1.3,0.2-2.1,0.8-2.7
				c0.5-0.5,1.3-0.8,2.4-0.8c0.8,0,1.4,0.2,1.8,0.7c0.4,0.4,0.6,1.1,0.6,2v6h0.8v-6.1C844.3,106.3,843.2,105.1,841,105.1z
				 M847.2,114.5h0.8v-9.3h-0.8V114.5z M847.7,101.9c-0.4,0-0.5,0.3-0.5,0.8s0.2,0.8,0.5,0.8c0.2,0,0.3-0.1,0.4-0.2
				c0.1-0.1,0.2-0.4,0.2-0.6c0-0.2-0.1-0.5-0.2-0.6C848,102,847.8,101.9,847.7,101.9z M855.8,110.2c-0.4-0.2-1-0.5-1.8-0.8
				c-1-0.4-1.7-0.7-2-1c-0.4-0.3-0.5-0.7-0.5-1.1c0-0.4,0.2-0.8,0.7-1c0.4-0.2,1.1-0.4,1.8-0.4c0.8,0,1.6,0.2,2.6,0.5l0.3-0.8
				c-0.9-0.4-1.8-0.5-2.9-0.5c-1.1,0-1.8,0.2-2.4,0.6c-0.6,0.4-0.9,1-0.9,1.7c0,0.4,0.1,0.8,0.3,1.1c0.2,0.3,0.5,0.6,0.8,0.8
				c0.4,0.2,1,0.5,2,0.9c0.9,0.3,1.5,0.6,1.8,1c0.4,0.3,0.6,0.7,0.6,1.2c0,0.5-0.2,0.9-0.7,1.2c-0.5,0.3-1.2,0.5-2.1,0.5
				c-1,0-2-0.2-3-0.7v0.9c0.7,0.4,1.7,0.6,3,0.6c1.2,0,2.1-0.2,2.7-0.7c0.7-0.4,1-1.1,1-1.9c0-0.4-0.1-0.8-0.3-1.1
				C856.5,110.8,856.2,110.5,855.8,110.2z M868,105.1c-1.4,0-2.4,0.5-3,1.5h-0.1l-0.2-1.3H864v13.5h0.8v-3.5c0-0.5,0-1-0.1-1.4v-0.7
				h0.1c0.7,1.1,1.7,1.6,3.2,1.6c1.2,0,2.1-0.4,2.9-1.3c0.7-0.8,1-2,1-3.6c0-1.5-0.4-2.7-1-3.6C870.2,105.5,869.2,105.1,868,105.1z
				 M870.1,112.9c-0.5,0.7-1.3,1.1-2.2,1.1c-1.1,0-1.9-0.3-2.4-1c-0.5-0.6-0.7-1.7-0.7-3.1v-0.3c0-1.4,0.2-2.3,0.8-2.9
				s1.3-0.9,2.4-0.9c2,0,3,1.4,3,4.1C870.9,111.3,870.6,112.2,870.1,112.9z M876.5,105.5c-0.4,0.3-0.8,0.8-1.3,1.4h-0.1l-0.1-1.7
				h-0.7v9.3h0.8v-5.1c0-1,0.2-1.8,0.8-2.6c0.5-0.7,1.1-1,2-1c0.4,0,0.8,0.1,1.2,0.1l0.2-0.8c-0.5-0.1-0.9-0.1-1.3-0.1
				C877.4,105.1,876.9,105.2,876.5,105.5z M884.8,105.1c-1.3,0-2.3,0.4-3,1.3c-0.7,0.8-1.1,2-1.1,3.5c0,1,0.2,1.8,0.5,2.6
				c0.4,0.7,0.8,1.3,1.4,1.7c0.6,0.4,1.4,0.6,2.1,0.6c1.3,0,2.3-0.4,3-1.3c0.7-0.8,1.1-2,1.1-3.6c0-1.5-0.4-2.7-1.1-3.5
				C887.1,105.5,886,105.1,884.8,105.1z M887.2,112.9c-0.5,0.7-1.4,1.1-2.4,1.1s-1.8-0.4-2.4-1.1s-0.8-1.7-0.8-3
				c0-1.3,0.3-2.3,0.8-3c0.5-0.7,1.4-1.1,2.4-1.1s1.8,0.4,2.4,1.1c0.6,0.7,0.8,1.7,0.8,3C888,111.2,887.7,112.2,887.2,112.9z
				 M891.9,101.9c-0.4,0-0.5,0.3-0.5,0.8s0.2,0.8,0.5,0.8c0.2,0,0.3-0.1,0.4-0.2c0.1-0.1,0.2-0.4,0.2-0.6c0-0.2-0.1-0.5-0.2-0.6
				C892.2,102,892.1,101.9,891.9,101.9z M891.5,116.5c0,1-0.4,1.5-1.3,1.5c-0.4,0-0.7-0.1-1.1-0.2v0.7c0.3,0.1,0.7,0.2,1.1,0.2
				c0.7,0,1.2-0.2,1.5-0.6s0.5-1,0.5-1.8v-11.1h-0.8L891.5,116.5L891.5,116.5z M898.9,105.1c-1.3,0-2.2,0.4-3,1.3
				c-0.7,0.9-1.1,2.1-1.1,3.6c0,1.5,0.4,2.7,1.1,3.5c0.8,0.8,1.8,1.3,3.2,1.3c0.5,0,1-0.1,1.5-0.1c0.4-0.1,1-0.2,1.4-0.5v-0.8
				c-0.6,0.2-1.1,0.4-1.5,0.5s-0.9,0.1-1.4,0.1c-1.1,0-1.9-0.4-2.5-1c-0.6-0.7-0.9-1.7-0.9-2.9h6.7v-0.7c0-1.3-0.3-2.3-1-3.1
				C900.9,105.5,900,105.1,898.9,105.1z M895.8,109.3c0.1-1.1,0.4-2,1-2.6s1.3-0.9,2.1-0.9c0.8,0,1.5,0.3,2,0.9s0.7,1.4,0.7,2.5
				L895.8,109.3L895.8,109.3z M908.8,105.9c0.6,0,1.3,0.1,2.1,0.4l0.2-0.8c-0.7-0.3-1.5-0.4-2.3-0.4c-1.4,0-2.4,0.4-3.2,1.3
				c-0.8,0.8-1.2,2-1.2,3.6c0,1.5,0.4,2.7,1.1,3.5c0.8,0.8,1.8,1.3,3.1,1.3c1,0,1.7-0.1,2.3-0.4v-0.8c-0.7,0.3-1.5,0.5-2.4,0.5
				c-1.1,0-1.9-0.4-2.4-1.1c-0.6-0.7-0.9-1.7-0.9-2.9c0-1.3,0.3-2.3,0.9-3C906.9,106.3,907.7,105.9,908.8,105.9z M914.6,113.5
				c-0.2-0.4-0.4-0.9-0.4-1.6V106h2.7v-0.7h-2.7V103h-0.4l-0.4,2.1l-1.4,0.4v0.5h1.4v6c0,1,0.2,1.6,0.6,2.1c0.4,0.4,1,0.7,1.8,0.7
				c0.5,0,1-0.1,1.4-0.2v-0.7c-0.4,0.1-0.9,0.1-1.4,0.1C915.3,114,914.9,113.8,914.6,113.5z"/>
		</g>
	</g>
</g>
<g id="stat-3" display="none">
	<g display="inline">
		<g>
			<path fill="#FFFFFF" d="M934.3,59.6c4.8,0,8.3-1.7,10.6-5c2.3-3.3,3.5-8.5,3.5-15.5c0-6.7-1.2-11.8-3.6-15.3
				c-2.4-3.5-5.8-5.2-10.5-5.2c-4.8,0-8.3,1.7-10.5,5c-2.3,3.3-3.4,8.5-3.4,15.5c0,6.7,1.2,11.8,3.5,15.3
				C926.2,57.9,929.7,59.6,934.3,59.6z M930,28.6c0.8-2.1,2.3-3.2,4.3-3.2c2,0,3.4,1.1,4.2,3.2c0.9,2.1,1.3,5.7,1.3,10.5
				c0,4.8-0.4,8.3-1.3,10.5c-0.9,2.1-2.3,3.2-4.3,3.2c-2,0-3.5-1.1-4.3-3.2c-0.8-2.1-1.3-5.6-1.3-10.5
				C928.8,34.2,929.2,30.7,930,28.6z M852.7,71.3h4.4l1.1,3.2h2l-4.3-11.5h-2l-4.3,11.5h2L852.7,71.3z M854.3,66.7
				c0.3-0.8,0.5-1.5,0.6-2.1c0.1,0.2,0.1,0.5,0.3,1c0.1,0.5,0.2,0.8,0.3,1l1.1,3.1h-3.3L854.3,66.7z M869.2,74.4v-5.7
				c0-2.1-1-3.2-3.1-3.2c-0.6,0-1.1,0.1-1.6,0.4c-0.5,0.2-0.8,0.5-1.1,1h-0.1l-0.2-1.1h-1.4v8.6h1.8v-4.3c0-1.1,0.2-1.8,0.5-2.3
				s1-0.7,1.7-0.7c0.6,0,1,0.2,1.3,0.5c0.3,0.4,0.4,0.8,0.4,1.5v5.3L869.2,74.4L869.2,74.4z M871.8,74.4h1.8v-8.6h-1.8V74.4z
				 M872.7,64.5c0.3,0,0.6-0.1,0.8-0.3c0.2-0.2,0.3-0.4,0.3-0.7c0-0.4-0.1-0.6-0.3-0.8s-0.4-0.2-0.8-0.2s-0.6,0.1-0.8,0.2
				c-0.2,0.2-0.3,0.4-0.3,0.8c0,0.3,0.1,0.5,0.3,0.7C872.1,64.4,872.4,64.5,872.7,64.5z M878.1,70.1c0-1.1,0.2-1.8,0.5-2.3
				c0.4-0.5,0.8-0.7,1.5-0.7c0.5,0,1,0.2,1.2,0.5c0.2,0.3,0.4,0.8,0.4,1.5v5.4h1.8v-4.6c0-0.9,0.2-1.6,0.5-2
				c0.4-0.4,0.8-0.7,1.5-0.7c0.5,0,1,0.2,1.2,0.5c0.2,0.3,0.4,0.8,0.4,1.5v5.4h1.8v-5.7c0-1.1-0.2-1.8-0.7-2.4
				c-0.5-0.5-1.3-0.8-2.3-0.8c-0.6,0-1.1,0.1-1.6,0.4c-0.5,0.2-0.8,0.6-1.1,1h-0.1c-0.4-0.9-1.3-1.4-2.7-1.4c-0.5,0-1.1,0.1-1.5,0.4
				c-0.5,0.2-0.8,0.5-1.1,1h-0.1l-0.2-1.1h-1.4v8.6h1.8v-4.3H878.1z M896.6,73.2l0.4,1.2h1.3v-5.8c0-1-0.3-1.8-0.8-2.3
				s-1.4-0.7-2.5-0.7c-0.5,0-1,0.1-1.6,0.2c-0.5,0.1-1.1,0.3-1.5,0.5l0.6,1.3c0.4-0.2,0.8-0.4,1.2-0.5c0.4-0.1,0.8-0.2,1.3-0.2
				c0.5,0,1,0.1,1.2,0.4c0.2,0.3,0.4,0.7,0.4,1.3v0.5l-1.5,0.1c-1.4,0.1-2.4,0.3-3,0.7c-0.7,0.5-1,1.1-1,2c0,0.8,0.2,1.5,0.7,2
				c0.5,0.5,1.1,0.7,2,0.7c0.7,0,1.2-0.1,1.6-0.3s0.8-0.5,1.3-1.1C896.5,73.2,896.6,73.2,896.6,73.2z M896.5,71
				c0,0.7-0.2,1.2-0.6,1.5c-0.4,0.4-1,0.5-1.6,0.5c-0.5,0-0.8-0.1-1-0.3c-0.2-0.2-0.4-0.5-0.4-0.9c0-0.5,0.2-1,0.6-1.2
				c0.4-0.2,1-0.4,1.9-0.4l1.1-0.1L896.5,71L896.5,71z M902.8,62.3h-1.8v12.1h1.8V62.3z M911.2,72c0-0.4-0.1-0.8-0.2-1.1
				s-0.4-0.5-0.7-0.8c-0.3-0.2-0.8-0.5-1.5-0.8c-0.8-0.4-1.4-0.6-1.7-0.8c-0.2-0.2-0.4-0.4-0.4-0.7c0-0.5,0.5-0.8,1.5-0.8
				c0.7,0,1.4,0.2,2.4,0.6l0.6-1.4c-0.9-0.4-1.9-0.6-2.9-0.6s-1.8,0.2-2.4,0.6c-0.6,0.4-0.9,1-0.9,1.7c0,0.6,0.2,1.1,0.5,1.5
				s1,0.8,2,1.1c0.5,0.2,0.9,0.4,1.2,0.5c0.3,0.2,0.5,0.3,0.6,0.5c0.1,0.1,0.2,0.4,0.2,0.5c0,0.7-0.6,1-1.7,1
				c-0.9,0-1.8-0.2-2.9-0.7v1.6c0.7,0.4,1.6,0.5,2.8,0.5c1.1,0,2-0.2,2.7-0.7C910.9,73.5,911.2,72.8,911.2,72z M919.5,74.4l1.9-5.7
				l0.4-1.1l0.2-0.6h0.1c0.2,0.8,0.4,1.3,0.5,1.7l1.8,5.7h0.8l2.3-8.5h-0.8l-1.3,4.9c-0.4,1.5-0.6,2.4-0.7,2.7h-0.1
				c-0.1-0.4-0.3-1.2-0.7-2.4l-1.7-5.2h-0.7l-1.8,5.2c-0.1,0.4-0.4,1.2-0.7,2.4H919c-0.1-0.6-0.3-1.5-0.7-2.7l-1.4-4.9h-0.8l2.4,8.5
				L919.5,74.4L919.5,74.4z M932.4,65.8c-1.1,0-2,0.4-2.7,1.3c-0.7,0.8-1,1.9-1,3.3s0.4,2.4,1,3.2c0.7,0.8,1.7,1.1,2.9,1.1
				c0.5,0,1-0.1,1.4-0.1c0.4-0.1,0.8-0.2,1.3-0.4v-0.7c-0.5,0.2-1,0.4-1.4,0.4c-0.4,0.1-0.8,0.1-1.3,0.1c-1,0-1.8-0.3-2.3-0.9
				s-0.8-1.5-0.8-2.7h6.2v-0.7c0-1.2-0.3-2.1-0.9-2.9C934.1,66.1,933.3,65.8,932.4,65.8z M929.5,69.6c0.1-1,0.4-1.8,0.9-2.3
				c0.5-0.5,1.1-0.8,2-0.8c0.8,0,1.4,0.3,1.8,0.8c0.4,0.5,0.7,1.3,0.7,2.3H929.5z M942.3,66.6l0.2-0.7c-0.4-0.1-0.8-0.1-1.2-0.1
				c-0.5,0-1.1,0.1-1.4,0.4c-0.4,0.2-0.8,0.7-1.1,1.3h-0.1l-0.1-1.5H938v8.5h0.8v-4.7c0-1,0.2-1.7,0.7-2.3s1.1-0.9,1.8-0.9
				C941.6,66.5,941.9,66.5,942.3,66.6z M950.3,73.3c-0.5,0.2-1,0.4-1.4,0.4c-0.4,0.1-0.8,0.1-1.3,0.1c-1,0-1.8-0.3-2.3-0.9
				c-0.5-0.6-0.8-1.5-0.8-2.7h6.1v-0.7c0-1.2-0.3-2.1-0.9-2.9c-0.6-0.7-1.4-1.1-2.4-1.1c-1.1,0-2,0.4-2.7,1.3c-0.7,0.8-1,1.9-1,3.3
				c0,1.4,0.4,2.4,1,3.2c0.7,0.8,1.7,1.1,2.9,1.1c0.5,0,1-0.1,1.4-0.1s0.8-0.2,1.3-0.4v-0.7H950.3z M945.5,67.3
				c0.5-0.5,1.1-0.8,2-0.8c0.8,0,1.4,0.3,1.8,0.8c0.4,0.5,0.7,1.3,0.7,2.3h-5.3C944.6,68.6,944.9,67.8,945.5,67.3z M857,88.1v5.5
				h0.8v-5.5c0-2.1-1-3.1-2.9-3.1c-0.7,0-1.3,0.1-1.8,0.4c-0.5,0.2-0.9,0.6-1.2,1.1h-0.1l0.1-1.1v-3.9H851v12.1h0.8V89
				c0-1.1,0.2-2,0.7-2.5c0.5-0.5,1.2-0.8,2.3-0.8c0.8,0,1.3,0.2,1.7,0.6C856.8,86.6,857,87.3,857,88.1z M866.3,88
				c0-1-0.2-1.8-0.7-2.3c-0.5-0.5-1.2-0.7-2.1-0.7s-1.8,0.2-2.8,0.7l0.3,0.7c0.8-0.4,1.7-0.7,2.4-0.7c0.7,0,1.3,0.2,1.6,0.6
				c0.4,0.4,0.5,1,0.5,1.8v0.5l-1.6,0.1c-1.3,0-2.3,0.3-3,0.7c-0.7,0.5-1,1.1-1,1.9c0,0.8,0.2,1.4,0.7,1.8s1.1,0.7,2,0.7
				c0.6,0,1.1-0.1,1.6-0.4c0.5-0.2,0.9-0.6,1.3-1.1h0.1l0.2,1.4h0.6C866.3,93.6,866.3,88,866.3,88z M865.5,90.1
				c0,0.9-0.2,1.7-0.8,2.1c-0.5,0.5-1.3,0.8-2.1,0.8c-0.6,0-1.1-0.1-1.4-0.4c-0.3-0.3-0.5-0.7-0.5-1.3c0-0.7,0.2-1.1,0.8-1.5
				c0.5-0.3,1.4-0.5,2.6-0.5l1.5-0.1L865.5,90.1L865.5,90.1z M869,93.6h0.8v-4.7c0-1,0.2-1.7,0.7-2.3c0.5-0.6,1.1-0.9,1.8-0.9
				c0.4,0,0.8,0.1,1.1,0.1l0.2-0.7c-0.4-0.1-0.8-0.1-1.2-0.1c-0.5,0-1.1,0.1-1.4,0.4c-0.4,0.2-0.8,0.7-1.1,1.3h-0.1l-0.1-1.5h-0.7
				L869,93.6L869,93.6z M881.4,93.6v-5c0-1,0.2-1.8,0.7-2.3c0.4-0.5,1.1-0.7,2-0.7c0.7,0,1.2,0.2,1.5,0.6c0.3,0.4,0.5,1,0.5,1.8v5.6
				h0.8v-5.5c0-1.1-0.2-1.8-0.7-2.4c-0.5-0.5-1.2-0.7-2.1-0.7c-0.6,0-1.1,0.1-1.6,0.4c-0.5,0.2-0.8,0.7-1.1,1.1h-0.1
				c-0.4-1-1.3-1.5-2.6-1.5c-0.5,0-1,0.1-1.4,0.4c-0.4,0.2-0.8,0.5-1,1h-0.1l-0.2-1.2h-0.7v8.5h0.8V89c0-1.1,0.2-2,0.6-2.5
				c0.4-0.5,1.1-0.8,2-0.8c1.3,0,2,0.7,2,2.1v5.8L881.4,93.6L881.4,93.6z M892.7,84.9c-1.1,0-2,0.4-2.7,1.3c-0.7,0.8-1,1.9-1,3.3
				c0,1.4,0.4,2.4,1,3.2c0.7,0.8,1.7,1.1,2.9,1.1c0.5,0,1-0.1,1.4-0.1c0.4-0.1,0.8-0.2,1.3-0.4v-0.7c-0.5,0.2-1,0.4-1.4,0.4
				c-0.4,0.1-0.8,0.1-1.3,0.1c-1,0-1.8-0.3-2.3-0.9s-0.8-1.5-0.8-2.7h6.1v-0.7c0-1.2-0.3-2.1-0.9-2.9
				C894.5,85.3,893.7,84.9,892.7,84.9z M889.9,88.8c0.1-1,0.4-1.8,0.9-2.3c0.5-0.5,1.1-0.8,2-0.8c0.8,0,1.4,0.3,1.8,0.8
				c0.4,0.5,0.7,1.3,0.7,2.3H889.9z M904.5,93.6h0.5V81.5h-0.8v3c0,0.7,0,1.3,0.1,1.9h-0.1c-0.4-0.5-0.8-1-1.2-1.1
				c-0.5-0.2-1-0.4-1.6-0.4c-1.2,0-2.1,0.4-2.7,1.2c-0.6,0.8-1,1.9-1,3.4c0,1.4,0.3,2.4,1,3.2c0.6,0.7,1.5,1.1,2.7,1.1
				c1.2,0,2.1-0.5,2.8-1.4h0.1L904.5,93.6z M904.2,89.5c0,1.3-0.2,2.2-0.7,2.7c-0.5,0.5-1.1,0.8-2.1,0.8c-1.9,0-2.8-1.2-2.8-3.6
				c0-1.3,0.2-2.2,0.7-2.9s1.2-1,2.1-1c1,0,1.7,0.3,2.1,0.9s0.7,1.5,0.7,2.9V89.5z M918.7,81.4H918v3c0,0.7,0,1.3,0.1,1.9H918
				c-0.4-0.5-0.8-1-1.2-1.1c-0.5-0.2-1-0.4-1.6-0.4c-1.2,0-2.1,0.4-2.7,1.2c-0.6,0.8-1,1.9-1,3.4c0,1.4,0.3,2.4,1,3.2
				c0.6,0.7,1.5,1.1,2.7,1.1c1.2,0,2.1-0.5,2.8-1.4h0.1l0.2,1.3h0.5V81.4z M918,89.5c0,1.3-0.2,2.2-0.7,2.7
				c-0.5,0.5-1.1,0.8-2.1,0.8c-1.9,0-2.8-1.2-2.8-3.6c0-1.3,0.2-2.2,0.7-2.9c0.5-0.7,1.2-1,2.1-1c1,0,1.7,0.3,2.1,0.9
				c0.4,0.6,0.7,1.5,0.7,2.9V89.5z M921.5,85.1v5.5c0,2.1,1,3.1,2.9,3.1c1.4,0,2.4-0.4,3-1.3h0.1l0.1,1.2h0.7v-8.5h-0.8v4.7
				c0,1.1-0.2,2-0.7,2.5s-1.3,0.8-2.3,0.8c-0.8,0-1.3-0.2-1.7-0.6c-0.4-0.4-0.5-1-0.5-1.8v-5.5H921.5z M933,85.4
				c-0.4,0.2-0.8,0.7-1.1,1.3h-0.1l-0.1-1.5h-0.7v8.5h0.8v-4.7c0-1,0.2-1.7,0.7-2.3c0.5-0.6,1.1-0.9,1.8-0.9c0.4,0,0.8,0.1,1.1,0.1
				l0.2-0.7c-0.4-0.1-0.8-0.1-1.2-0.1C933.9,84.9,933.4,85.1,933,85.4z M937.3,93.6h0.8v-8.5h-0.8V93.6z M937.7,82
				c-0.4,0-0.5,0.2-0.5,0.8c0,0.5,0.2,0.8,0.5,0.8c0.2,0,0.3-0.1,0.4-0.2c0.1-0.1,0.1-0.3,0.1-0.5s-0.1-0.4-0.1-0.5
				C938,82.1,937.8,82,937.7,82z M944.7,84.9c-1.4,0-2.4,0.4-3,1.3h-0.1l-0.2-1.2h-0.6v8.5h0.8v-4.7c0-1.1,0.2-2,0.7-2.5
				s1.2-0.8,2.3-0.8c0.8,0,1.3,0.2,1.7,0.6c0.4,0.4,0.5,1,0.5,1.8v5.5h0.8V88C947.7,86,946.7,84.9,944.7,84.9z M957.1,85.1h-2.7
				c-0.3-0.1-0.7-0.2-1.3-0.2c-0.9,0-1.7,0.2-2.2,0.8c-0.5,0.5-0.8,1.2-0.8,2c0,0.5,0.1,1.1,0.4,1.5c0.3,0.4,0.7,0.8,1.2,1
				c-0.7,0.4-1.1,1-1.1,1.5c0,0.2,0.1,0.5,0.2,0.7c0.2,0.2,0.4,0.4,0.6,0.5c-0.6,0.1-1.1,0.4-1.5,0.8s-0.5,0.9-0.5,1.4
				c0,0.7,0.3,1.3,0.9,1.7c0.6,0.4,1.4,0.6,2.5,0.6c1.4,0,2.4-0.2,3.1-0.7c0.7-0.5,1.1-1.2,1.1-2.1c0-0.7-0.2-1.3-0.7-1.7
				c-0.5-0.4-1.2-0.5-2.1-0.5h-1.5c-0.5,0-0.8-0.1-1-0.2s-0.3-0.3-0.3-0.6c0-0.2,0.1-0.5,0.2-0.7c0.2-0.2,0.4-0.4,0.7-0.6
				c0.2,0.1,0.4,0.1,0.8,0.1c0.9,0,1.7-0.2,2.2-0.8c0.5-0.5,0.8-1.2,0.8-2c0-0.7-0.2-1.3-0.7-1.9l1.8-0.1L957.1,85.1L957.1,85.1z
				 M952.5,93.2h1.4c0.8,0,1.4,0.1,1.7,0.4c0.4,0.2,0.5,0.6,0.5,1.1c0,1.4-1.1,2.1-3.3,2.1c-1.7,0-2.6-0.6-2.6-1.7
				C950.2,93.8,950.9,93.2,952.5,93.2z M954.7,89.3c-0.4,0.4-1,0.5-1.6,0.5c-0.7,0-1.2-0.2-1.6-0.5c-0.4-0.4-0.6-0.9-0.6-1.5
				c0-0.7,0.2-1.3,0.6-1.6c0.4-0.4,1-0.6,1.6-0.6c0.7,0,1.3,0.2,1.6,0.5c0.4,0.4,0.6,0.9,0.6,1.6C955.2,88.5,955,88.9,954.7,89.3z
				 M852.2,111.9c-0.2-0.3-0.4-0.8-0.4-1.4v-5.4h2.5v-0.7h-2.5v-2.1h-0.4l-0.4,1.8l-1.3,0.4v0.5h1.3v5.5c0,0.8,0.2,1.5,0.5,1.9
				s0.9,0.6,1.7,0.6c0.5,0,1-0.1,1.3-0.2v-0.7c-0.4,0.1-0.8,0.1-1.3,0.1C852.8,112.3,852.4,112.2,852.2,111.9z M860.2,104.2
				c-0.7,0-1.3,0.1-1.8,0.4c-0.5,0.2-0.9,0.6-1.2,1.1h-0.1l0.1-1.1v-3.9h-0.8v12.1h0.8v-4.7c0-1.1,0.2-2,0.7-2.5
				c0.5-0.5,1.2-0.8,2.3-0.8c0.8,0,1.3,0.2,1.7,0.6c0.4,0.4,0.5,1,0.5,1.8v5.5h0.8v-5.5C863.1,105.2,862.2,104.2,860.2,104.2z
				 M866.3,101.2c-0.4,0-0.5,0.2-0.5,0.8c0,0.5,0.2,0.8,0.5,0.8c0.2,0,0.3-0.1,0.4-0.2c0.1-0.1,0.1-0.3,0.1-0.5
				c0-0.2-0.1-0.4-0.1-0.5C866.6,101.3,866.5,101.2,866.3,101.2z M865.9,112.8h0.8v-8.5h-0.8V112.8z M873.8,108.9
				c-0.4-0.2-0.9-0.5-1.7-0.8c-0.9-0.4-1.5-0.7-1.8-0.9c-0.3-0.2-0.5-0.6-0.5-1.1c0-0.4,0.2-0.7,0.6-1c0.4-0.2,1-0.4,1.7-0.4
				c0.7,0,1.5,0.2,2.3,0.5l0.3-0.7c-0.8-0.4-1.7-0.5-2.6-0.5c-1,0-1.7,0.2-2.3,0.5c-0.5,0.4-0.8,0.9-0.8,1.5c0,0.4,0.1,0.7,0.2,1
				c0.2,0.3,0.4,0.5,0.8,0.8c0.4,0.2,1,0.5,1.8,0.8c0.8,0.3,1.4,0.6,1.7,0.8c0.4,0.3,0.5,0.7,0.5,1.1c0,0.5-0.2,0.8-0.7,1.1
				c-0.4,0.3-1.1,0.4-1.9,0.4c-1,0-1.8-0.2-2.7-0.7v0.8c0.7,0.4,1.5,0.5,2.7,0.5c1.1,0,1.9-0.2,2.5-0.6c0.6-0.4,0.9-1,0.9-1.7
				c0-0.4-0.1-0.7-0.2-1C874.4,109.4,874.1,109.1,873.8,108.9z M884.9,104.2c-1.3,0-2.2,0.5-2.8,1.4H882l-0.2-1.2h-0.7v12.3h0.8
				v-3.2c0-0.5,0-0.9-0.1-1.3v-0.7h0.1c0.6,1,1.5,1.5,2.9,1.5c1.1,0,2-0.4,2.6-1.1s1-1.8,1-3.3s-0.3-2.6-0.9-3.3
				C886.9,104.5,886,104.2,884.9,104.2z M886.8,111.3c-0.5,0.7-1.1,1-2,1c-1,0-1.7-0.3-2.2-0.8c-0.5-0.6-0.7-1.5-0.7-2.9v-0.2
				c0-1.3,0.2-2.1,0.7-2.7s1.2-0.8,2.2-0.8c1.8,0,2.7,1.3,2.7,3.8C887.6,109.8,887.4,110.7,886.8,111.3z M892.7,104.5
				c-0.4,0.2-0.8,0.7-1.1,1.3h-0.1l-0.1-1.5h-0.7v8.5h0.8v-4.7c0-1,0.2-1.7,0.7-2.3c0.5-0.6,1.1-0.9,1.8-0.9c0.4,0,0.8,0.1,1.1,0.1
				l0.2-0.7c-0.4-0.1-0.8-0.1-1.2-0.1C893.5,104.2,893.1,104.3,892.7,104.5z M900.3,104.2c-1.2,0-2.1,0.4-2.8,1.1
				c-0.7,0.8-1,1.8-1,3.2c0,0.9,0.2,1.7,0.5,2.3c0.3,0.7,0.7,1.2,1.3,1.5s1.3,0.5,2,0.5c1.2,0,2.1-0.4,2.8-1.2c0.7-0.8,1-1.8,1-3.3
				c0-1.4-0.4-2.4-1-3.2C902.4,104.6,901.5,104.2,900.3,104.2z M902.5,111.3c-0.5,0.7-1.3,1-2.2,1c-1,0-1.7-0.3-2.2-1
				s-0.8-1.5-0.8-2.7c0-1.2,0.2-2.1,0.8-2.7c0.5-0.7,1.3-1,2.2-1c1,0,1.7,0.3,2.2,1c0.5,0.7,0.8,1.5,0.8,2.7
				C903.3,109.7,903,110.7,902.5,111.3z M906.8,101.2c-0.4,0-0.5,0.2-0.5,0.8c0,0.5,0.2,0.8,0.5,0.8c0.2,0,0.3-0.1,0.4-0.2
				c0.1-0.1,0.1-0.3,0.1-0.5c0-0.2-0.1-0.4-0.1-0.5C907.1,101.3,906.9,101.2,906.8,101.2z M906.4,114.6c0,0.9-0.4,1.4-1.2,1.4
				c-0.3,0-0.7-0.1-1-0.2v0.7c0.3,0.1,0.7,0.2,1.1,0.2c0.6,0,1.1-0.2,1.4-0.6c0.4-0.4,0.5-0.9,0.5-1.6v-10.1h-0.8V114.6z
				 M913.3,104.2c-1.1,0-2,0.4-2.7,1.3c-0.7,0.8-1,1.9-1,3.3s0.4,2.4,1,3.2c0.7,0.8,1.7,1.1,2.9,1.1c0.5,0,1-0.1,1.4-0.1
				c0.4-0.1,0.8-0.2,1.3-0.4v-0.7c-0.5,0.2-1,0.4-1.4,0.4c-0.4,0.1-0.8,0.1-1.3,0.1c-1,0-1.8-0.3-2.3-0.9s-0.8-1.5-0.8-2.7h6.3v-0.7
				c0-1.2-0.3-2.1-0.9-2.9C915,104.5,914.3,104.2,913.3,104.2z M910.4,108c0.1-1,0.4-1.8,0.9-2.3c0.5-0.5,1.1-0.8,2-0.8
				c0.8,0,1.4,0.3,1.8,0.8c0.4,0.5,0.7,1.3,0.7,2.3H910.4z M922.4,104.9c0.5,0,1.2,0.1,1.9,0.4l0.2-0.7c-0.7-0.2-1.4-0.4-2.1-0.4
				c-1.3,0-2.2,0.4-2.9,1.2c-0.7,0.8-1.1,1.9-1.1,3.3s0.4,2.4,1,3.2c0.7,0.8,1.7,1.1,2.9,1.1c0.9,0,1.6-0.1,2.1-0.4v-0.7
				c-0.7,0.3-1.4,0.4-2.1,0.4c-1,0-1.7-0.3-2.3-1s-0.8-1.5-0.8-2.7c0-1.2,0.3-2.1,0.8-2.8S921.3,104.9,922.4,104.9z M927.7,111.9
				c-0.2-0.3-0.4-0.8-0.4-1.4v-5.4h2.5v-0.7h-2.5v-2.1h-0.4l-0.4,1.9l-1.3,0.4v0.5h1.3v5.5c0,0.8,0.2,1.5,0.5,1.9s0.9,0.6,1.7,0.6
				c0.5,0,1-0.1,1.3-0.2v-0.7c-0.4,0.1-0.8,0.1-1.3,0.1C928.3,112.3,927.9,112.2,927.7,111.9z"/>
		</g>
	</g>
	<g display="inline">
		<g>
			<g>
				<defs>
					<rect id="SVGID_1_" x="845.7" y="0" width="59.6" height="58.5"/>
				</defs>
				<clipPath id="SVGID_2_">
					<use xlink:href="#SVGID_1_"  overflow="visible"/>
				</clipPath>
				<path clip-path="url(#SVGID_2_)" fill="#FFFFFF" d="M846,45.1c0,0-3,12.1,8.3,12.1c11.3,0,12.5-4.2,12.5-4.2s2.9,3.1,4.8,3.5
					s18.9,0.1,18.9,0.1s3.1-4.3-6.7-5c0,0,3-4.8,1.9-8.2l2.4-0.4c0,0,4.1,10.9,6.8,13.3l5.6,0.1c0,0,1.8-0.8-2.7-4.2
					c-4.5-3.4-3.5-14.4-2.7-17.9c0.8-3.5,1-12.1-0.3-16.2s0-0.7,0-0.7s7.7,1.9,9.2-2.9c0,0,1.9-0.8,1.5-2.6c0,0-6.1-2.7-7.2-3.3
					c0,0-0.8-2.4-3.2-3.3c0,0,0.8-3.4-0.2-3.9c0,0-3.7,2.3-3.9,3c0,0-0.2-3.9-1-4.6c0,0-4.6,3-4.3,7.2c0,0-6.5,9.8-5.7,16.3
					c0,0-22,8.2-16.5,25.1C863.4,48.6,855,52.4,846,45.1L846,45.1z"/>
			</g>
		</g>
	</g>
</g>
</svg>
