<?xml version="1.0" encoding="utf-8"?>
<!-- Generator: Adobe Illustrator 18.1.1, SVG Export Plug-In . SVG Version: 6.00 Build 0)  -->
<svg version="1.1" id="Layer_1" xmlns="http://www.w3.org/2000/svg" xmlns:xlink="http://www.w3.org/1999/xlink" x="0px" y="0px"
	 viewBox="831 0 174 119.1" enable-background="new 831 0 174 119.1" xml:space="preserve">
<g id="Layer_4">
	<g>
		<g>
			<g>
				<defs>
					<rect id="SVGID_1_" x="859.2" y="0" width="59.8" height="58.7"/>
				</defs>
				<clipPath id="SVGID_2_">
					<use xlink:href="#SVGID_1_"  overflow="visible"/>
				</clipPath>
				<path clip-path="url(#SVGID_2_)" fill="#F1F2F2" d="M859.5,45.2c0,0-3,12.1,8.3,12.1c11.3,0,12.5-4.2,12.5-4.2s2.8,3.2,4.7,3.6
					c1.9,0.4,18.9,0.2,18.9,0.2s3.2-4.3-6.6-5.1c0,0,3-4.7,1.9-8.1l2.5-0.4c0,0,4.1,10.9,6.8,13.4l5.6,0.2c0,0,1.7-0.8-2.7-4.2
					s-3.6-14.4-2.7-18c0.8-3.6,0.9-12.1-0.2-16.2c-1.2-4.1,0-0.7,0-0.7s7.8,1.9,9.3-2.8c0,0,1.9-0.8,1.5-2.6c0,0-6.1-2.7-7.2-3.2
					c0,0-0.8-2.4-3.2-3.3c0,0,0.8-3.4-0.2-3.9c0,0-3.7,2.3-4,3c0,0-0.2-4-0.9-4.6c0,0-4.6,3-4.4,7.2c0,0-6.6,9.8-5.7,16.4
					c0,0-22.1,8.1-16.6,25.2C877,48.8,868.6,52.5,859.5,45.2L859.5,45.2z"/>
			</g>
		</g>
	</g>
	<path fill="#F1F2F2" d="M959.7,23.2c-2.5-3.7-6.1-5.4-10.9-5.4c-4.9,0-8.5,1.7-11,5.1c-2.3,3.5-3.6,8.8-3.6,16.1
		c0,7,1.2,12.3,3.7,15.9c2.4,3.6,6.1,5.4,10.8,5.4c4.9,0,8.6-1.7,11-5.2c2.4-3.5,3.6-8.8,3.6-16C963.4,32,962.1,26.7,959.7,23.2z
		 M944.5,28.1c0.9-2.2,2.3-3.3,4.4-3.3c2,0,3.5,1.1,4.4,3.3c0.9,2.2,1.4,5.9,1.4,11c0,5-0.4,8.6-1.3,10.9c-0.9,2.2-2.4,3.3-4.4,3.3
		c-2.1,0-3.6-1.1-4.5-3.3c-0.9-2.2-1.3-5.8-1.3-10.9C943.1,34,943.5,30.3,944.5,28.1z"/>
	<g>
		<g>
			<path fill="#F1F2F2" d="M865,72.6h4.5l1.2,3.2h2.1l-4.4-11.8h-2.1l-4.4,11.8h2.1L865,72.6z M866.7,67.9c0.2-0.7,0.5-1.5,0.7-2.2
				c0.1,0.2,0.2,0.6,0.3,1c0.2,0.5,0.2,0.8,0.3,1l1.1,3.2h-3.5L866.7,67.9z M881.9,75.9v-5.8c0-2.2-1.1-3.2-3.2-3.2
				c-0.6,0-1.2,0.1-1.7,0.3s-0.9,0.6-1.2,1h-0.1l-0.2-1.2h-1.5v8.9h2v-4.4c0-1.1,0.2-1.9,0.6-2.4c0.3-0.5,1-0.7,1.7-0.7
				c0.6,0,1.1,0.2,1.3,0.5c0.2,0.3,0.4,0.8,0.4,1.6v5.5C880.1,75.9,881.9,75.9,881.9,75.9z M885.6,65.7c0.3,0,0.6-0.1,0.7-0.2
				c0.2-0.2,0.2-0.4,0.2-0.7s-0.1-0.6-0.2-0.7c-0.2-0.2-0.4-0.2-0.7-0.2s-0.6,0.1-0.8,0.2c-0.2,0.2-0.2,0.4-0.2,0.7s0.1,0.6,0.2,0.7
				C885,65.6,885.3,65.7,885.6,65.7z M884.6,75.9h1.9V67h-1.9V75.9z M891.2,71.5c0-1.1,0.2-1.9,0.5-2.4c0.3-0.5,0.9-0.7,1.6-0.7
				c0.6,0,0.9,0.2,1.2,0.5c0.2,0.3,0.4,0.8,0.4,1.5v5.5h1.9v-4.7c0-0.9,0.2-1.7,0.5-2.1c0.3-0.5,0.9-0.7,1.7-0.7
				c0.6,0,1,0.2,1.2,0.5s0.4,0.8,0.4,1.5v5.5h1.9V70c0-1.1-0.2-1.9-0.7-2.5c-0.5-0.5-1.2-0.8-2.3-0.8c-0.6,0-1.2,0.1-1.7,0.3
				s-0.8,0.6-1.1,1h-0.2c-0.4-0.9-1.3-1.4-2.7-1.4c-0.6,0-1.1,0.1-1.6,0.3c-0.5,0.2-0.8,0.6-1.1,1H891l-0.2-1.2h-1.5v8.9h1.9V71.5z
				 M910.3,74.7l0.4,1.2h1.3v-6c0-1.1-0.2-1.8-0.8-2.3c-0.6-0.5-1.4-0.7-2.6-0.7c-0.5,0-1.1,0.1-1.7,0.2c-0.6,0.2-1.1,0.3-1.6,0.6
				L906,69c0.4-0.2,0.8-0.3,1.2-0.5s0.8-0.2,1.3-0.2c0.6,0,1,0.2,1.2,0.4s0.4,0.7,0.4,1.2v0.5l-1.6,0.1c-1.4,0.1-2.4,0.3-3.2,0.7
				c-0.7,0.4-1,1.2-1,2.1c0,0.8,0.2,1.5,0.7,2c0.5,0.5,1.2,0.7,2.1,0.7c0.7,0,1.2-0.1,1.7-0.3C909.3,75.6,909.8,75.2,910.3,74.7
				L910.3,74.7z M910.2,72.5c0,0.7-0.2,1.2-0.7,1.6c-0.4,0.4-1,0.6-1.7,0.6c-0.5,0-0.8-0.1-1.1-0.3s-0.3-0.5-0.3-0.9
				c0-0.6,0.2-1,0.6-1.2s1.1-0.4,2-0.4l1.2-0.1C910.2,71.6,910.2,72.5,910.2,72.5z M916.6,63.3h-1.9v12.5h1.9V63.3z M925.3,73.4
				c0-0.4-0.1-0.8-0.2-1.1c-0.2-0.3-0.4-0.6-0.7-0.8s-0.8-0.5-1.6-0.7c-0.9-0.3-1.4-0.6-1.7-0.8c-0.2-0.2-0.4-0.4-0.4-0.7
				c0-0.6,0.5-0.8,1.5-0.8c0.7,0,1.5,0.2,2.4,0.6l0.6-1.4c-0.9-0.4-1.9-0.7-3-0.7c-1.1,0-1.9,0.2-2.5,0.7c-0.6,0.4-0.9,1-0.9,1.7
				c0,0.7,0.2,1.2,0.6,1.6c0.3,0.4,1.1,0.8,2.1,1.2c0.5,0.2,0.9,0.4,1.2,0.6s0.5,0.3,0.7,0.5c0.2,0.2,0.2,0.3,0.2,0.6
				c0,0.7-0.6,1.1-1.7,1.1c-0.9,0-1.9-0.2-2.9-0.7v1.7c0.7,0.3,1.7,0.6,2.9,0.6c1.2,0,2.1-0.2,2.7-0.7
				C925,74.9,925.3,74.2,925.3,73.4z M933.8,75.9l2-5.8l0.3-1.2l0.2-0.6h0.1c0.2,0.7,0.3,1.3,0.5,1.7l1.9,5.9h0.8l2.4-8.7h-0.8
				l-1.3,5.1c-0.4,1.5-0.6,2.5-0.7,2.8h-0.1c-0.1-0.4-0.3-1.2-0.7-2.5l-1.7-5.3h-0.7l-1.8,5.3c-0.2,0.4-0.4,1.2-0.7,2.5h-0.1
				c-0.1-0.6-0.3-1.5-0.7-2.7l-1.4-5.1h-0.8l2.5,8.7h0.9V75.9z M947.1,67c-1.2,0-2.1,0.4-2.8,1.2c-0.7,0.8-1,2-1,3.3
				c0,1.4,0.3,2.5,1.1,3.3c0.7,0.7,1.7,1.2,3,1.2c0.5,0,1,0,1.4-0.1s0.9-0.2,1.4-0.4v-0.7c-0.6,0.2-1.1,0.4-1.4,0.4
				c-0.4,0.1-0.8,0.1-1.3,0.1c-1,0-1.8-0.3-2.4-0.9c-0.6-0.7-0.8-1.6-0.8-2.7h6.3V71c0-1.2-0.3-2.2-0.9-2.9
				C948.9,67.3,948.1,67,947.1,67z M944.1,71c0.1-1.1,0.4-1.8,0.9-2.4c0.5-0.6,1.2-0.8,2.1-0.8c0.7,0,1.4,0.2,1.8,0.8
				s0.7,1.3,0.7,2.4H944.1z M957.3,67.9l0.2-0.7c-0.4-0.1-0.8-0.1-1.2-0.1c-0.6,0-1.1,0.2-1.5,0.4s-0.8,0.7-1.2,1.3h-0.1l-0.1-1.6
				h-0.7V76h0.8v-4.9c0-1,0.2-1.7,0.7-2.4s1.1-0.9,1.8-0.9C956.6,67.7,957,67.7,957.3,67.9z M965.6,74.8c-0.6,0.2-1.1,0.4-1.4,0.4
				c-0.4,0.1-0.8,0.1-1.3,0.1c-1,0-1.8-0.3-2.4-0.9c-0.6-0.7-0.8-1.6-0.8-2.7h6.3V71c0-1.2-0.3-2.2-0.9-2.9
				c-0.6-0.7-1.4-1.1-2.5-1.1c-1.2,0-2.1,0.4-2.8,1.2c-0.7,0.8-1,2-1,3.3c0,1.4,0.3,2.5,1.1,3.3c0.7,0.7,1.7,1.2,3,1.2
				c0.5,0,1,0,1.4-0.1s0.9-0.2,1.4-0.4C965.6,75.5,965.6,74.8,965.6,74.8z M960.6,68.6c0.5-0.6,1.2-0.8,2.1-0.8
				c0.7,0,1.4,0.2,1.8,0.8c0.4,0.6,0.7,1.3,0.7,2.4h-5.4C959.7,69.9,960.1,69.1,960.6,68.6z M869.4,90.1v5.6h0.8V90
				c0-2.2-1-3.2-3-3.2c-0.7,0-1.3,0.1-1.9,0.3c-0.5,0.2-0.9,0.6-1.2,1.2H864v-1.1v-4h-0.8v12.5h0.8v-4.8c0-1.2,0.2-2.1,0.7-2.6
				c0.5-0.5,1.2-0.8,2.3-0.8c0.7,0,1.3,0.2,1.7,0.6C869.2,88.5,869.4,89.2,869.4,90.1z M879,89.9c0-1.1-0.2-1.8-0.7-2.3
				c-0.5-0.5-1.2-0.7-2.2-0.7c-0.9,0-1.9,0.2-2.8,0.7l0.3,0.7c0.9-0.4,1.7-0.7,2.5-0.7c0.7,0,1.3,0.2,1.7,0.7s0.5,1.1,0.5,1.9v0.6
				l-1.7,0.1c-1.3,0-2.4,0.2-3.1,0.7c-0.7,0.5-1.1,1.2-1.1,2c0,0.7,0.2,1.4,0.7,1.8c0.5,0.4,1.2,0.7,2,0.7c0.7,0,1.2-0.1,1.7-0.3
				c0.5-0.2,0.9-0.7,1.3-1.2h0.1l0.2,1.4h0.6C879,95.9,879,89.9,879,89.9z M878.2,92.1c0,0.9-0.2,1.7-0.8,2.2
				c-0.6,0.5-1.2,0.8-2.2,0.8c-0.6,0-1.1-0.2-1.4-0.4c-0.3-0.3-0.5-0.7-0.5-1.2c0-0.7,0.2-1.2,0.7-1.5c0.5-0.3,1.4-0.5,2.7-0.6
				l1.6-0.1C878.2,91.4,878.2,92.1,878.2,92.1z M881.8,95.7h0.8v-4.8c0-1,0.2-1.7,0.7-2.4c0.5-0.7,1.1-0.9,1.8-0.9
				c0.4,0,0.7,0.1,1.2,0.2l0.2-0.7c-0.4-0.1-0.8-0.1-1.2-0.1c-0.6,0-1.1,0.2-1.5,0.4c-0.4,0.2-0.8,0.7-1.2,1.3h-0.1l-0.1-1.6h-0.7
				L881.8,95.7L881.8,95.7z M894.6,95.7v-5.1c0-1.1,0.2-1.8,0.7-2.3s1.1-0.7,2-0.7c0.7,0,1.2,0.2,1.6,0.6c0.3,0.4,0.5,1,0.5,1.9v5.7
				h0.8V90c0-1.1-0.2-1.9-0.7-2.4c-0.5-0.5-1.2-0.7-2.2-0.7c-0.6,0-1.2,0.2-1.7,0.4s-0.8,0.7-1.2,1.2l0,0c-0.4-1-1.2-1.6-2.7-1.6
				c-0.5,0-1,0.1-1.5,0.3c-0.4,0.2-0.8,0.6-1,1h-0.1L889,87h-0.7v8.7h0.8v-4.8c0-1.2,0.2-2,0.7-2.6c0.4-0.5,1.1-0.8,2-0.8
				c1.3,0,2.1,0.7,2.1,2.2v6H894.6z M906.2,86.7c-1.2,0-2.1,0.4-2.8,1.2c-0.7,0.8-1,2-1,3.3c0,1.4,0.3,2.5,1.1,3.3
				c0.7,0.7,1.7,1.2,3,1.2c0.5,0,1,0,1.4-0.1c0.4-0.1,0.9-0.2,1.4-0.4v-0.7c-0.6,0.2-1.1,0.4-1.4,0.4c-0.4,0.1-0.8,0.1-1.3,0.1
				c-1,0-1.8-0.3-2.4-0.9c-0.6-0.7-0.8-1.6-0.8-2.7h6.3v-0.7c0-1.2-0.3-2.2-0.9-2.9C908.1,87.2,907.3,86.7,906.2,86.7z M903.3,90.7
				c0.1-1.1,0.4-1.8,0.9-2.4s1.2-0.8,2.1-0.8c0.7,0,1.4,0.2,1.8,0.8c0.4,0.6,0.7,1.3,0.7,2.4H903.3z M918.4,95.7h0.5V83.2h-0.8v3.2
				c0,0.7,0,1.3,0.1,2h-0.1c-0.3-0.6-0.7-0.9-1.2-1.2c-0.5-0.2-1-0.3-1.7-0.3c-1.2,0-2.2,0.4-2.7,1.2c-0.7,0.8-0.9,2-0.9,3.5
				c0,1.4,0.3,2.6,1,3.3s1.6,1.2,2.8,1.2c1.2,0,2.2-0.5,2.9-1.5h0.1L918.4,95.7z M918.1,91.5c0,1.3-0.2,2.2-0.7,2.8
				c-0.5,0.6-1.2,0.8-2.2,0.8c-1.9,0-2.9-1.2-2.9-3.7c0-1.2,0.2-2.2,0.7-2.9c0.5-0.7,1.2-1,2.2-1c1,0,1.7,0.3,2.2,0.9
				c0.4,0.6,0.7,1.6,0.7,2.9L918.1,91.5L918.1,91.5z M933.1,83.2h-0.8v3.2c0,0.7,0,1.3,0.1,2h-0.1c-0.3-0.6-0.7-0.9-1.2-1.2
				c-0.5-0.2-1-0.3-1.7-0.3c-1.2,0-2.2,0.4-2.7,1.2c-0.7,0.8-0.9,2-0.9,3.5c0,1.4,0.3,2.6,1,3.3c0.7,0.7,1.6,1.2,2.8,1.2
				c1.2,0,2.2-0.5,2.9-1.5h0.1l0.2,1.3h0.5L933.1,83.2L933.1,83.2z M932.3,91.5c0,1.3-0.2,2.2-0.7,2.8c-0.5,0.6-1.2,0.8-2.2,0.8
				c-1.9,0-2.9-1.2-2.9-3.7c0-1.2,0.2-2.2,0.7-2.9c0.5-0.7,1.2-1,2.2-1c1,0,1.7,0.3,2.2,0.9c0.4,0.6,0.7,1.6,0.7,2.9L932.3,91.5
				L932.3,91.5z M935.9,87v5.7c0,2.2,1,3.2,3,3.2c1.5,0,2.5-0.4,3.1-1.3h0.1l0.2,1.2h0.7v-8.7H942V92c0,1.2-0.2,2.1-0.7,2.6
				s-1.2,0.8-2.3,0.8c-0.7,0-1.3-0.2-1.7-0.6c-0.3-0.4-0.6-1.1-0.6-1.9v-5.6h-0.7V87z M947.8,87.2c-0.4,0.2-0.8,0.7-1.2,1.3h-0.1
				l-0.1-1.6h-0.7v8.7h0.8v-4.8c0-1,0.2-1.7,0.7-2.4c0.5-0.7,1.1-0.9,1.8-0.9c0.4,0,0.7,0.1,1.2,0.2l0.2-0.7
				c-0.4-0.1-0.8-0.1-1.2-0.1C948.6,86.7,948.2,86.9,947.8,87.2z M952.6,83.8c-0.3,0-0.5,0.2-0.5,0.7s0.2,0.7,0.5,0.7
				c0.2,0,0.3-0.1,0.4-0.2s0.2-0.3,0.2-0.6c0-0.2-0.1-0.4-0.2-0.6C952.9,83.8,952.8,83.8,952.6,83.8z M952.2,95.7h0.8V87h-0.8V95.7z
				 M959.9,86.7c-1.5,0-2.5,0.5-3.1,1.3h-0.1l-0.2-1.2h-0.7v8.7h0.8v-4.8c0-1.2,0.2-2.1,0.7-2.6s1.2-0.8,2.3-0.8
				c0.7,0,1.3,0.2,1.7,0.6c0.3,0.4,0.6,1.1,0.6,1.9v5.6h0.8v-5.7C962.9,87.8,961.9,86.7,959.9,86.7z M972.6,87h-2.8
				c-0.3-0.1-0.7-0.2-1.3-0.2c-0.9,0-1.7,0.2-2.2,0.8c-0.6,0.5-0.8,1.2-0.8,2.1c0,0.6,0.2,1.1,0.4,1.6c0.2,0.4,0.7,0.7,1.2,1
				c-0.7,0.4-1.2,1-1.2,1.6c0,0.2,0.1,0.5,0.2,0.7c0.2,0.2,0.3,0.3,0.7,0.5c-0.7,0.2-1.2,0.4-1.5,0.8c-0.4,0.4-0.6,0.9-0.6,1.5
				c0,0.7,0.3,1.3,0.9,1.7c0.6,0.4,1.5,0.7,2.6,0.7c1.4,0,2.5-0.2,3.2-0.7c0.7-0.5,1.2-1.2,1.2-2.2c0-0.7-0.2-1.3-0.7-1.7
				c-0.5-0.4-1.2-0.6-2.2-0.6H968c-0.5,0-0.8-0.1-1.1-0.2c-0.2-0.2-0.3-0.3-0.3-0.6s0.1-0.5,0.2-0.7c0.2-0.2,0.4-0.4,0.7-0.6
				c0.2,0,0.4,0.1,0.8,0.1c0.9,0,1.7-0.2,2.2-0.7c0.6-0.5,0.8-1.2,0.8-2.1c0-0.7-0.2-1.4-0.7-2l1.8-0.1
				C972.6,87.7,972.6,87,972.6,87z M967.9,95.3h1.4c0.8,0,1.4,0.1,1.7,0.3c0.3,0.2,0.6,0.6,0.6,1.2c0,1.5-1.2,2.2-3.5,2.2
				c-1.8,0-2.7-0.6-2.7-1.8C965.5,96,966.3,95.3,967.9,95.3z M970.1,91.2c-0.4,0.3-0.9,0.6-1.7,0.6c-0.7,0-1.2-0.2-1.7-0.6
				c-0.4-0.3-0.6-0.9-0.6-1.6c0-0.7,0.2-1.2,0.6-1.7c0.4-0.4,0.9-0.6,1.7-0.6s1.2,0.2,1.7,0.6c0.4,0.3,0.6,0.9,0.6,1.7
				C970.7,90.3,970.5,90.9,970.1,91.2z M864.5,114.5c-0.2-0.3-0.3-0.8-0.3-1.5v-5.6h2.6v-0.7h-2.6v-2.2h-0.4l-0.4,2l-1.3,0.3v0.5
				h1.3v5.6c0,0.9,0.2,1.6,0.6,1.9c0.3,0.4,0.9,0.6,1.7,0.6c0.5,0,0.9-0.1,1.3-0.2v-0.7c-0.4,0.1-0.8,0.2-1.3,0.2
				C865.1,115,864.7,114.8,864.5,114.5z M872.7,106.6c-0.7,0-1.3,0.1-1.9,0.3c-0.5,0.2-0.9,0.6-1.2,1.2h-0.1V107v-4h-0.8v12.5h0.8
				v-4.8c0-1.2,0.2-2.1,0.7-2.6c0.5-0.5,1.2-0.8,2.3-0.8c0.7,0,1.3,0.2,1.7,0.6c0.3,0.4,0.6,1.1,0.6,1.9v5.6h0.8v-5.7
				C875.7,107.7,874.7,106.6,872.7,106.6z M879,103.5c-0.3,0-0.5,0.2-0.5,0.7c0,0.5,0.2,0.7,0.5,0.7c0.2,0,0.3-0.1,0.4-0.2
				c0.1-0.2,0.2-0.3,0.2-0.6s-0.1-0.4-0.2-0.6C879.3,103.6,879.1,103.5,879,103.5z M878.6,115.5h0.8v-8.8h-0.8V115.5z M886.7,111.4
				c-0.3-0.2-0.9-0.5-1.7-0.7c-0.9-0.3-1.6-0.7-1.9-0.9s-0.5-0.7-0.5-1.1c0-0.4,0.2-0.7,0.7-1c0.4-0.2,1-0.3,1.7-0.3
				s1.6,0.2,2.4,0.5l0.3-0.7c-0.8-0.3-1.7-0.5-2.7-0.5c-1,0-1.7,0.2-2.3,0.6c-0.6,0.4-0.8,0.9-0.8,1.6c0,0.4,0.1,0.7,0.2,1.1
				c0.2,0.2,0.4,0.6,0.8,0.7c0.3,0.2,1,0.5,1.8,0.8c0.8,0.2,1.4,0.6,1.7,0.9c0.3,0.3,0.5,0.7,0.5,1.1c0,0.5-0.2,0.8-0.7,1.2
				c-0.4,0.2-1.1,0.4-2,0.4c-1,0-1.9-0.2-2.8-0.7v0.8c0.7,0.3,1.7,0.6,2.8,0.6c1.1,0,1.9-0.2,2.6-0.7c0.6-0.4,0.9-1,0.9-1.8
				c0-0.4-0.1-0.7-0.2-1C887.3,111.9,887.1,111.6,886.7,111.4z M898.1,106.6c-1.3,0-2.3,0.5-2.9,1.4h-0.1l-0.2-1.2h-0.7v12.7h0.8
				v-3.3c0-0.5,0-0.9,0-1.3v-0.7h0.1c0.6,1,1.6,1.5,3,1.5c1.2,0,2-0.4,2.7-1.2c0.7-0.8,1-1.9,1-3.3c0-1.5-0.3-2.6-0.9-3.4
				C900.2,107,899.3,106.6,898.1,106.6z M900.2,114c-0.5,0.7-1.2,1-2.1,1c-1.1,0-1.8-0.3-2.2-0.9c-0.5-0.6-0.7-1.6-0.7-2.9v-0.2
				c0-1.2,0.2-2.2,0.7-2.7c0.5-0.6,1.2-0.8,2.2-0.8c1.8,0,2.8,1.2,2.8,3.8C901,112.4,900.7,113.3,900.2,114z M906.2,107
				c-0.4,0.2-0.8,0.7-1.2,1.3h-0.1l-0.1-1.6h-0.7v8.7h0.8v-4.8c0-1,0.2-1.7,0.7-2.4c0.5-0.7,1.1-0.9,1.8-0.9c0.4,0,0.7,0.1,1.2,0.2
				l0.2-0.7c-0.4-0.1-0.8-0.1-1.2-0.1C907.1,106.6,906.6,106.8,906.2,107z M914.1,106.6c-1.2,0-2.2,0.4-2.8,1.2
				c-0.7,0.8-1.1,1.9-1.1,3.3c0,0.9,0.2,1.7,0.5,2.4c0.3,0.7,0.7,1.2,1.3,1.6c0.6,0.3,1.2,0.6,2.1,0.6c1.2,0,2.2-0.4,2.9-1.2
				c0.7-0.8,1.1-1.9,1.1-3.3c0-1.4-0.3-2.5-1-3.3C916.2,107,915.2,106.6,914.1,106.6z M916.3,114c-0.5,0.7-1.2,1-2.2,1
				s-1.7-0.3-2.2-1c-0.5-0.7-0.8-1.6-0.8-2.8s0.2-2.2,0.7-2.8c0.5-0.7,1.2-1,2.2-1c1,0,1.7,0.3,2.2,1c0.5,0.7,0.8,1.6,0.8,2.8
				C917.1,112.3,916.8,113.2,916.3,114z M920.8,103.5c-0.3,0-0.5,0.2-0.5,0.7c0,0.5,0.2,0.7,0.5,0.7c0.2,0,0.3-0.1,0.4-0.2
				c0.1-0.2,0.2-0.3,0.2-0.6s-0.1-0.4-0.2-0.6C921,103.6,921,103.5,920.8,103.5z M920.4,117.3c0,0.9-0.4,1.4-1.2,1.4
				c-0.3,0-0.7-0.1-1.1-0.2v0.7c0.3,0.2,0.7,0.2,1.1,0.2c0.7,0,1.1-0.2,1.5-0.6c0.3-0.4,0.5-0.9,0.5-1.7v-10.4h-0.8L920.4,117.3
				L920.4,117.3z M927.4,106.6c-1.2,0-2.1,0.4-2.8,1.2c-0.7,0.8-1,2-1,3.3c0,1.4,0.3,2.5,1.1,3.3c0.7,0.7,1.7,1.2,3,1.2
				c0.5,0,1,0,1.4-0.1c0.4-0.1,0.9-0.2,1.4-0.4v-0.7c-0.6,0.2-1.1,0.4-1.4,0.4c-0.4,0.1-0.8,0.1-1.3,0.1c-1,0-1.8-0.3-2.4-0.9
				c-0.6-0.7-0.8-1.6-0.8-2.7h6.3v-0.7c0-1.2-0.3-2.2-0.9-2.9C929.3,106.9,928.4,106.6,927.4,106.6z M924.4,110.6
				c0.1-1.1,0.4-1.8,0.9-2.4s1.2-0.8,2.1-0.8c0.7,0,1.4,0.2,1.8,0.8c0.4,0.6,0.7,1.3,0.7,2.4H924.4z M936.8,107.3
				c0.6,0,1.2,0.2,2,0.4l0.2-0.7c-0.7-0.2-1.4-0.4-2.2-0.4c-1.2,0-2.3,0.4-3.1,1.2c-0.7,0.8-1.1,1.9-1.1,3.4c0,1.4,0.3,2.5,1.1,3.3
				c0.7,0.8,1.7,1.2,3,1.2c0.9,0,1.7-0.2,2.2-0.4v-0.7c-0.7,0.2-1.4,0.4-2.2,0.4c-1,0-1.7-0.3-2.3-1c-0.6-0.7-0.8-1.6-0.8-2.7
				c0-1.2,0.2-2.2,0.8-2.9C934.9,107.7,935.7,107.3,936.8,107.3z M942.3,114.5c-0.2-0.3-0.3-0.8-0.3-1.5v-5.6h2.6v-0.7H942v-2.2
				h-0.4l-0.4,2l-1.3,0.3v0.5h1.3v5.6c0,0.9,0.2,1.6,0.6,1.9c0.3,0.4,0.9,0.6,1.7,0.6c0.5,0,0.9-0.1,1.3-0.2v-0.7
				c-0.4,0.1-0.8,0.2-1.3,0.2C942.9,115,942.5,114.8,942.3,114.5z"/>
		</g>
	</g>
</g>
<g id="stat-1" display="none">
	<g display="inline">
		<path fill="#FFFFFF" d="M854.3,4.9c0-2.4-3.7-4.3-8.2-4.3c-4.5,0-8.2,2-8.2,4.3h-3.6v49.3h6.7V57h10.2v-2.7h6.7V4.9H854.3z
			 M846.2,49.3c-3.2,0-5.8-2.6-5.8-5.8c0-3.2,2.6-5.8,5.8-5.8c3.2,0,5.8,2.6,5.8,5.8C852,46.7,849.4,49.3,846.2,49.3L846.2,49.3z
			 M846.2,34.4c-3.2,0-5.8-2.6-5.8-5.8s2.6-5.8,5.8-5.8c3.2,0,5.8,2.6,5.8,5.8S849.4,34.4,846.2,34.4L846.2,34.4z M846.2,20
			c-3.2,0-5.8-2.6-5.8-5.8s2.6-5.8,5.8-5.8c3.2,0,5.8,2.6,5.8,5.8S849.4,20,846.2,20L846.2,20z"/>
	</g>
	<g display="inline">
		<g>
			<path fill="#FFFFFF" d="M833.9,79.9l5.2,6.5l5.8-4.7c0.7-0.5,2-1.7,3.8-3.5l-0.2,5.3l-0.1,4.8v29.4h10.8V66.9h-8.8L833.9,79.9z
				 M898,90.9c3.2-1.6,5.5-3.4,7-5.4c1.4-2,2.1-4.3,2.1-6.9c0-3.8-1.5-6.7-4.5-8.9s-6.9-3.3-11.8-3.3c-4.9,0-8.8,1.1-11.8,3.4
				c-3,2.3-4.5,5.2-4.5,8.8c0,2.5,0.7,4.8,1.9,6.8s3.4,4,6.3,5.9c-3.4,1.7-5.9,3.7-7.4,6c-1.5,2.3-2.3,4.8-2.3,7.7
				c0,4.3,1.6,7.7,4.8,10.1c3.2,2.4,7.6,3.6,13.2,3.6c5.4,0,9.6-1.3,12.9-3.8c3.3-2.6,4.9-5.9,4.9-10.1c0-2.6-0.8-5.1-2.5-7.3
				C904.6,95.1,901.8,92.9,898,90.9z M886.3,75.5c1.1-1,2.6-1.4,4.5-1.4c1.8,0,3.3,0.5,4.5,1.4c1.2,1,1.7,2.2,1.7,3.8
				c0,1.5-0.5,2.7-1.4,3.9c-0.9,1.1-2.5,2.2-4.8,3.3c-2.3-1.1-4-2.3-4.9-3.4c-0.9-1.1-1.4-2.3-1.4-3.8
				C884.7,77.7,885.2,76.4,886.3,75.5z M896.8,108.8c-1.3,1.1-3.3,1.7-6,1.7c-2.4,0-4.3-0.5-5.7-1.7c-1.4-1.1-2.1-2.7-2.1-4.6
				c0-3.5,2.5-6.4,7.4-8.6c3,1.5,5.1,3,6.4,4.3c1.3,1.4,2,2.8,2,4.3C898.7,106.1,898.1,107.7,896.8,108.8z M961.2,86.5
				c-8,0-12,5.3-12,15.9c0,5.2,1.1,9.1,3.2,11.8s5.1,4.1,8.9,4.1c4,0,7-1.3,9.1-4s3.1-6.7,3.1-12c0-5.1-1.1-9-3.2-11.8
				C968.1,87.9,965.1,86.5,961.2,86.5z M961.2,111.2c-1.2,0-2-0.7-2.5-2.1c-0.5-1.4-0.8-3.6-0.8-6.6c0-2.9,0.2-5.1,0.8-6.5
				s1.4-2.1,2.5-2.1c2.3,0,3.3,2.9,3.3,8.7C964.6,108.3,963.5,111.2,961.2,111.2z M953.3,66.9L925,117.8h8.4l28.3-50.8H953.3z
				 M934.6,94.1c2.1-2.7,3.1-6.7,3.1-12c0-5.1-1.1-9-3.2-11.8c-2.1-2.7-5.1-4.1-9-4.1c-8,0-12,5.3-12,15.9c0,5.2,1.1,9.2,3.2,11.9
				c2.1,2.7,5.1,4.1,8.9,4.1C929.4,98.1,932.5,96.7,934.6,94.1z M923,88.7c-0.5-1.4-0.8-3.6-0.8-6.6c0-2.9,0.2-5.1,0.8-6.5
				c0.5-1.4,1.4-2.1,2.5-2.1c2.3,0,3.3,2.9,3.3,8.7c0,5.8-1.1,8.8-3.3,8.8C924.4,90.9,923.5,90.2,923,88.7z M878.4,22.4
				c0.8-0.7,1.2-1.5,1.2-2.6c0-0.6-0.1-1.1-0.4-1.5c-0.2-0.4-0.6-0.8-1.1-1.1c-0.5-0.3-1.3-0.7-2.3-1c-1-0.4-1.6-0.7-2-0.9
				c-0.4-0.2-0.7-0.5-0.8-0.8c-0.2-0.3-0.2-0.7-0.2-1.2c0-0.8,0.3-1.4,0.8-1.8c0.5-0.4,1.3-0.7,2.3-0.7c1,0,2,0.2,3,0.7l0.3-0.8
				c-1.1-0.5-2.2-0.7-3.4-0.7c-1.2,0-2.1,0.3-2.9,0.9c-0.8,0.6-1.1,1.4-1.1,2.3c0,0.9,0.2,1.5,0.8,2.1c0.5,0.5,1.4,1,2.7,1.5
				c0.9,0.3,1.6,0.6,2,0.8c0.5,0.2,0.8,0.5,1,0.9c0.2,0.3,0.3,0.7,0.3,1.2c0,0.8-0.3,1.4-1,1.9c-0.6,0.5-1.4,0.7-2.5,0.7
				c-1.4,0-2.6-0.2-3.6-0.6v0.9c0.8,0.4,2,0.5,3.6,0.5C876.6,23.4,877.7,23.1,878.4,22.4z M882.5,11.9c0.2,0,0.3-0.1,0.4-0.2
				s0.2-0.4,0.2-0.6c0-0.3-0.1-0.5-0.2-0.6s-0.2-0.2-0.4-0.2c-0.4,0-0.5,0.3-0.5,0.8C882,11.6,882.2,11.9,882.5,11.9z M882.1,23.2
				h0.9v-9.5h-0.9V23.2z M886.2,20.6c0,1,0.2,1.7,0.6,2.1c0.4,0.5,1,0.7,1.8,0.7c0.5,0,1-0.1,1.5-0.2v-0.7c-0.4,0.1-0.9,0.1-1.4,0.1
				s-1-0.2-1.2-0.5c-0.2-0.4-0.4-0.9-0.4-1.6v-6h2.8v-0.8h-2.8v-2.3h-0.5l-0.4,2.1l-1.4,0.4v0.5h1.4V20.6z M896.1,23.4
				c0.5,0,1.1-0.1,1.5-0.1c0.5-0.1,1-0.2,1.5-0.5V22c-0.7,0.2-1.1,0.4-1.5,0.5c-0.4,0.1-0.9,0.1-1.4,0.1c-1.1,0-2-0.4-2.6-1
				c-0.6-0.7-0.9-1.7-0.9-3h6.9v-0.8c0-1.4-0.3-2.4-1-3.2c-0.7-0.8-1.5-1.2-2.7-1.2c-1.3,0-2.3,0.5-3,1.4c-0.8,0.9-1.1,2.1-1.1,3.6
				c0,1.5,0.4,2.7,1.2,3.6C893.6,23,894.7,23.4,896.1,23.4z M893.6,15.2c0.5-0.6,1.3-0.9,2.2-0.9c0.8,0,1.5,0.3,2,1
				c0.5,0.6,0.7,1.5,0.7,2.6h-5.9C892.7,16.7,893.1,15.8,893.6,15.2z M908.1,22.1c-0.2-0.4-0.4-0.9-0.4-1.6v-6h2.8v-0.8h-2.8v-2.3
				h-0.5l-0.4,2.1l-1.4,0.4v0.5h1.4v6.1c0,1,0.2,1.7,0.6,2.1c0.4,0.5,1,0.7,1.8,0.7c0.5,0,1-0.1,1.5-0.2v-0.7
				c-0.4,0.1-0.9,0.1-1.4,0.1C908.8,22.6,908.4,22.4,908.1,22.1z M913.7,18c0-1.1,0.2-1.9,0.8-2.6c0.5-0.7,1.2-1,2-1
				c0.4,0,0.8,0.1,1.3,0.2l0.2-0.8c-0.5-0.1-0.9-0.1-1.3-0.1c-0.7,0-1.2,0.1-1.6,0.4c-0.4,0.3-0.9,0.8-1.3,1.5h-0.1l-0.1-1.7H913
				v9.5h0.9V18H913.7z M922.1,23.4c0.7,0,1.3-0.1,1.8-0.4c0.5-0.2,1-0.7,1.5-1.3h0.1l0.2,1.5h0.7v-6.3c0-1.1-0.2-2-0.8-2.6
				c-0.5-0.5-1.3-0.8-2.4-0.8c-1,0-2.1,0.2-3.1,0.7l0.3,0.8c1-0.5,1.8-0.7,2.7-0.7c0.8,0,1.4,0.2,1.8,0.7c0.4,0.5,0.5,1.1,0.5,2v0.7
				l-1.8,0.1c-1.5,0-2.6,0.3-3.4,0.8c-0.8,0.5-1.2,1.3-1.2,2.1c0,0.8,0.2,1.5,0.8,2C920.5,23.2,921.2,23.4,922.1,23.4z M920.9,19
				c0.6-0.4,1.5-0.5,2.9-0.7l1.7-0.1v1c0,1-0.3,1.8-0.9,2.4c-0.6,0.6-1.4,0.9-2.4,0.9c-0.7,0-1.2-0.2-1.5-0.5
				c-0.4-0.4-0.5-0.8-0.5-1.4C920,20,920.3,19.4,920.9,19z M940.2,13.7v9.5h0.9v-9.5H940.2z M929.9,23.2h0.9v-8.8h2.3v-0.8h-2.3
				v-0.9c0-0.9,0.1-1.5,0.4-2c0.3-0.4,0.8-0.6,1.4-0.6c0.5,0,1,0.1,1.4,0.2l0.2-0.8c-0.5-0.2-1.1-0.2-1.6-0.2c-1,0-1.7,0.3-2.1,0.8
				c-0.4,0.5-0.7,1.4-0.7,2.6v0.7l-1.8,0.3v0.5h1.8L929.9,23.2L929.9,23.2z M940.6,11.9c0.2,0,0.3-0.1,0.4-0.2
				c0.1-0.2,0.2-0.4,0.2-0.6c0-0.3-0.1-0.5-0.2-0.6c-0.1-0.1-0.2-0.2-0.4-0.2c-0.4,0-0.5,0.3-0.5,0.8
				C940.1,11.6,940.3,11.9,940.6,11.9z M933.5,14.5h1.8v8.8h0.9v-8.8h2.3v-0.8h-2.3v-0.9c0-0.9,0.1-1.5,0.4-2
				c0.3-0.4,0.8-0.6,1.4-0.6c0.5,0,1,0.1,1.4,0.2l0.2-0.8c-0.5-0.2-1.1-0.2-1.6-0.2c-1,0-1.7,0.3-2.1,0.8c-0.4,0.5-0.7,1.4-0.7,2.6
				v0.7l-1.8,0.3L933.5,14.5L933.5,14.5z M948.1,23.4c1,0,1.8-0.2,2.4-0.5v-0.8c-0.8,0.3-1.5,0.5-2.4,0.5c-1.1,0-1.9-0.4-2.6-1.1
				c-0.6-0.7-0.9-1.7-0.9-3c0-1.4,0.3-2.4,0.9-3.1c0.6-0.7,1.5-1.1,2.7-1.1c0.6,0,1.3,0.1,2.1,0.4l0.2-0.8c-0.8-0.3-1.5-0.4-2.4-0.4
				c-1.4,0-2.5,0.4-3.3,1.3c-0.8,0.9-1.2,2.1-1.2,3.7c0,1.5,0.4,2.7,1.2,3.6C945.7,23,946.8,23.4,948.1,23.4z M873.4,34.3h-0.9v12.8
				h0.9V34.3z M877.8,38.9L877.8,38.9l-0.2-1.3h-0.7v9.5h0.9v-5.2c0-1.3,0.2-2.2,0.8-2.8c0.5-0.6,1.4-0.9,2.5-0.9
				c0.8,0,1.5,0.2,1.9,0.7c0.4,0.4,0.6,1.1,0.6,2.1v6.2h0.9V41c0-2.3-1.1-3.5-3.3-3.5C879.5,37.4,878.4,38,877.8,38.9z M886.9,42.4
				c0,1.5,0.4,2.7,1.2,3.6c0.8,0.8,1.8,1.3,3.2,1.3c1,0,1.8-0.2,2.4-0.5V46c-0.8,0.3-1.5,0.5-2.4,0.5c-1.1,0-1.9-0.4-2.6-1.1
				c-0.6-0.7-0.9-1.7-0.9-3c0-1.4,0.3-2.4,0.9-3.1c0.6-0.7,1.5-1.1,2.7-1.1c0.6,0,1.3,0.1,2.1,0.4l0.2-0.8c-0.8-0.3-1.5-0.4-2.4-0.4
				c-1.4,0-2.5,0.4-3.3,1.3C887.3,39.6,886.9,40.9,886.9,42.4z M896.9,39.3L896.9,39.3l-0.1-1.7h-0.7v9.5h0.9v-5.2
				c0-1.1,0.2-1.9,0.8-2.6c0.5-0.7,1.2-1,2-1c0.4,0,0.8,0.1,1.3,0.2l0.2-0.8c-0.5-0.1-0.9-0.1-1.3-0.1c-0.7,0-1.2,0.1-1.6,0.4
				C897.7,38.2,897.3,38.6,896.9,39.3z M906.6,37.4c-1.3,0-2.3,0.5-3,1.4c-0.8,0.9-1.1,2.1-1.1,3.6c0,1.5,0.4,2.7,1.2,3.6
				c0.8,0.8,1.8,1.3,3.3,1.3c0.5,0,1.1-0.1,1.5-0.1c0.5-0.1,1-0.2,1.5-0.5V46c-0.7,0.2-1.1,0.4-1.5,0.5c-0.4,0.1-0.9,0.1-1.4,0.1
				c-1.1,0-2-0.4-2.6-1c-0.6-0.7-0.9-1.7-0.9-3h6.9v-0.7c0-1.4-0.3-2.4-1-3.2C908.7,37.9,907.8,37.4,906.6,37.4z M903.5,41.7
				c0.1-1.1,0.4-2,1-2.6c0.5-0.6,1.3-0.9,2.2-0.9c0.8,0,1.5,0.3,2,1c0.5,0.6,0.7,1.5,0.7,2.6L903.5,41.7L903.5,41.7z M917,47
				c0.5-0.2,1-0.7,1.5-1.3h0.1l0.2,1.5h0.7v-6.3c0-1.1-0.2-2-0.8-2.6s-1.3-0.8-2.4-0.8c-1,0-2.1,0.2-3.1,0.7l0.3,0.8
				c1-0.5,1.8-0.7,2.7-0.7c0.8,0,1.4,0.2,1.8,0.7c0.4,0.5,0.5,1.1,0.5,2v0.7l-1.8,0.1c-1.5,0-2.6,0.3-3.4,0.8
				c-0.8,0.5-1.2,1.3-1.2,2.1c0,0.8,0.2,1.5,0.8,2s1.3,0.7,2.2,0.7C915.9,47.3,916.5,47.2,917,47z M913.1,44.7
				c0-0.8,0.3-1.3,0.8-1.7c0.6-0.4,1.5-0.5,2.9-0.7l1.7-0.1v1c0,1-0.3,1.8-0.9,2.4c-0.6,0.6-1.4,0.9-2.4,0.9c-0.7,0-1.2-0.2-1.5-0.5
				C913.3,45.7,913.1,45.3,913.1,44.7z M926.8,46.1c-0.5,0.3-1.2,0.5-2.1,0.5c-1.1,0-2.1-0.2-3-0.7v1c0.8,0.4,1.8,0.6,3,0.6
				c1.2,0,2.1-0.2,2.8-0.7c0.7-0.5,1-1.1,1-2c0-0.4-0.1-0.8-0.3-1.1c-0.2-0.3-0.5-0.6-0.9-0.8c-0.4-0.2-1-0.5-1.9-0.8
				c-1-0.4-1.7-0.7-2.1-1c-0.4-0.3-0.5-0.7-0.5-1.2s0.2-0.8,0.7-1.1s1.1-0.4,1.8-0.4c0.8,0,1.7,0.2,2.6,0.6l0.3-0.8
				c-1-0.4-1.9-0.6-2.9-0.6c-1.1,0-1.9,0.2-2.5,0.6c-0.6,0.4-0.9,1-0.9,1.7c0,0.5,0.1,0.8,0.3,1.1c0.2,0.3,0.5,0.6,0.9,0.8
				s1.1,0.5,2,0.9c0.9,0.3,1.5,0.7,1.9,1c0.4,0.4,0.6,0.7,0.6,1.2C927.5,45.4,927.3,45.8,926.8,46.1z M938.1,41.8
				c0-1.4-0.3-2.4-1-3.2c-0.7-0.8-1.5-1.2-2.7-1.2c-1.3,0-2.3,0.5-3,1.4c-0.8,0.9-1.1,2.1-1.1,3.6c0,1.5,0.4,2.7,1.2,3.6
				c0.8,0.8,1.8,1.3,3.3,1.3c0.5,0,1.1-0.1,1.5-0.1c0.5-0.1,1-0.2,1.5-0.5V46c-0.7,0.2-1.1,0.4-1.5,0.5c-0.4,0.1-0.9,0.1-1.4,0.1
				c-1.1,0-2-0.4-2.6-1c-0.6-0.7-0.9-1.7-0.9-3h6.9v-0.7H938.1z M931.3,41.7c0.1-1.1,0.4-2,1-2.6c0.5-0.6,1.3-0.9,2.2-0.9
				c0.8,0,1.5,0.3,2,1c0.5,0.6,0.7,1.5,0.7,2.6L931.3,41.7L931.3,41.7z M941.3,46.1c0.7,0.8,1.7,1.3,3,1.3c1.4,0,2.4-0.5,3.2-1.6
				h0.1l0.2,1.4h0.6V33.5h-0.8V37c0,0.7,0,1.4,0.1,2.1h-0.1c-0.4-0.6-0.8-1-1.4-1.3c-0.5-0.2-1.1-0.4-1.8-0.4c-1.3,0-2.3,0.4-3,1.3
				c-0.7,0.9-1,2.1-1,3.8C940.2,44.1,940.6,45.3,941.3,46.1z M941.9,39.3c0.5-0.7,1.3-1.1,2.4-1.1c1.1,0,1.9,0.3,2.4,1
				c0.5,0.7,0.7,1.7,0.7,3.2v0.2c0,1.4-0.2,2.4-0.8,3.1c-0.5,0.7-1.3,1-2.4,1c-2.1,0-3.2-1.4-3.2-4
				C941.2,41.1,941.4,40.1,941.9,39.3z M957,45.7L957,45.7c0.4,0.5,0.8,0.9,1.4,1.2s1.1,0.4,1.8,0.4c1.3,0,2.3-0.4,3-1.3
				c0.7-0.8,1.1-2.1,1.1-3.7s-0.4-2.9-1-3.7c-0.7-0.8-1.7-1.3-3-1.3c-0.7,0-1.4,0.1-1.8,0.4c-0.5,0.3-1,0.7-1.3,1.3H957v-0.8
				c0-0.4,0.1-0.9,0.1-1.4v-3.5h-0.9V47h0.5L957,45.7z M957.1,42.4c0-1.5,0.2-2.6,0.7-3.2c0.5-0.7,1.3-1,2.4-1
				c2.1,0,3.2,1.4,3.2,4.1c0,1.4-0.2,2.4-0.8,3.1c-0.5,0.7-1.3,1.1-2.4,1.1s-1.8-0.3-2.4-1c-0.5-0.7-0.8-1.7-0.8-3.1V42.4z
				 M968.5,48.4c-0.2,0.7-0.5,1.1-0.7,1.4s-0.4,0.5-0.6,0.7c-0.2,0.1-0.5,0.2-0.8,0.2c-0.4,0-0.8-0.1-1.1-0.1v0.8
				c0.4,0.1,0.8,0.2,1.1,0.2c0.4,0,0.8-0.1,1.1-0.2c0.3-0.2,0.6-0.4,0.8-0.7c0.2-0.3,0.5-1,0.9-1.8l4.3-11.1h-0.9l-2,5.3
				c-0.5,1.5-1,2.6-1.2,3.4h-0.1c-0.2-0.6-0.5-1.7-1.2-3.3l-2-5.4h-1l3.7,9.5C968.9,47.4,968.7,47.8,968.5,48.4z"/>
		</g>
	</g>
</g>
<g id="stat-2" display="none">
	<g display="inline">
		<path fill="#FFFFFF" d="M896,31.3h-51.2c-1.6,0-3,1.1-3.3,2.7h-0.2c-8,0-14.5,6.5-14.5,14.5c0,0.8,0.1,8.8,6,14.8
			c4.2,4.3,10.2,6.5,17.7,6.5c4.6,4,10.5,6.4,17.1,6.4h5.5c14.5,0,26.3-11.8,26.3-26.3V34.7C899.4,32.9,897.9,31.3,896,31.3
			 M837.8,58.5c-4.1-4.2-4.1-10-4.1-10v-0.1c0-4.2,3.4-7.6,7.6-7.6h0.1v9c0,4.5,1.1,8.6,3.1,12.3C841.7,61.5,839.4,60.2,837.8,58.5
			 M873.1,69.4h-5.5c-10.5,0-19.2-8.5-19.4-18.9h44.3C892.3,60.9,883.7,69.4,873.1,69.4 M892.5,44.2h-44.3v-6h44.3V44.2z"/>
		<path fill="#FFFFFF" d="M867.2,26.6c0.1,0.1,0.2,0.1,0.2,0.1l0,0c0.2,0,0.4-0.2,0.4-0.4c0-0.1,0-0.1,0-0.2
			c-1-4.5-0.5-8.1,1.5-10.8c1.9-2.6,2.8-5.9,2.3-8.8c-0.4-2.5-1.8-4.6-4-6.1c-0.2-0.1-0.4-0.1-0.5,0c-0.2,0.1-0.2,0.3-0.2,0.5
			c1.1,4.6,0.1,7.7-2.3,12c-1.3,2.3-1.8,5-1.5,7.4C863.5,22.9,865,25.1,867.2,26.6"/>
		<path fill="#FFFFFF" d="M878.4,26.7c0.1,0.1,0.1,0.1,0.2,0.1l0,0c0.2,0,0.4-0.2,0.4-0.4c0-0.1,0-0.1,0-0.1
			c-0.8-3.6-0.4-6.6,1.3-8.8c1.6-2.1,2.3-4.8,1.9-7.2c-0.4-2.1-1.5-3.8-3.3-5c-0.1-0.1-0.3-0.1-0.4,0s-0.2,0.2-0.1,0.4
			c0.9,3.8,0.1,6.3-1.9,9.8c-1.1,1.9-1.5,4-1.3,6C875.4,23.6,876.5,25.4,878.4,26.7"/>
	</g>
	<g display="inline">
		<g>
			<path fill="#FFFFFF" d="M929.3,48.3c-1.8,0-3.3,0.1-4.5,0.4l-1.1,0.2l0.8-8.5h15.6v-7.7h-23.6l-1.7,22.1l3.7,2
				c0.8-0.2,1.8-0.5,3.1-0.7c1.3-0.2,2.4-0.3,3.5-0.3c5.8,0,8.8,2.2,8.8,6.5c0,4.6-2.8,6.9-8.5,6.9c-1.8,0-3.9-0.2-6-0.8
				c-2.1-0.5-3.9-1.2-5.5-2v7.9c3,1.5,6.9,2.3,11.8,2.3c5.6,0,9.9-1.3,12.9-3.9c3-2.6,4.5-6.4,4.5-11.2c0-4.1-1.3-7.3-3.8-9.7
				C936.9,49.5,933.6,48.3,929.3,48.3z M947.5,32.7v7.7h21.5l-16.4,35.7h9.6l16.5-37.6v-5.8H947.5z M839.1,81.1h-9.4v1.7h3.7v10.7h2
				V82.9h3.7V81.1z M844.6,84c-1.4,0-2.4,0.4-3.2,1.3c-0.8,0.9-1.1,2.1-1.1,3.6c0,1.5,0.4,2.7,1.3,3.5c0.8,0.8,2,1.3,3.5,1.3
				c0.7,0,1.2-0.1,1.7-0.1c0.5-0.1,1-0.2,1.5-0.5v-1.6c-0.5,0.2-1.1,0.4-1.5,0.5c-0.5,0.1-1,0.2-1.5,0.2c-0.8,0-1.5-0.2-2-0.7
				c-0.5-0.5-0.7-1.2-0.8-2.1h6.3v-1.1c0-1.3-0.4-2.4-1.1-3.1C846.8,84.4,845.9,84,844.6,84z M842.4,87.9c0.1-0.8,0.3-1.4,0.7-1.8
				c0.4-0.4,0.9-0.6,1.5-0.6c0.7,0,1.1,0.2,1.5,0.6s0.5,1,0.5,1.8H842.4z M854.7,84c-0.5,0-1.1,0.1-1.7,0.2
				c-0.6,0.1-1.2,0.4-1.7,0.6l0.7,1.4c0.4-0.2,0.8-0.4,1.3-0.5c0.4-0.1,0.9-0.2,1.4-0.2c0.6,0,1,0.2,1.3,0.5
				c0.3,0.3,0.4,0.8,0.4,1.4v0.5l-1.6,0.1c-1.5,0.1-2.6,0.3-3.3,0.8c-0.7,0.5-1.1,1.3-1.1,2.2c0,0.9,0.2,1.6,0.8,2.1
				c0.5,0.5,1.3,0.8,2.2,0.8c0.7,0,1.3-0.1,1.8-0.3c0.5-0.2,0.9-0.6,1.4-1.2h0.1l0.4,1.3h1.4v-6.4c0-1.1-0.3-2-0.9-2.4
				C856.8,84.3,855.9,84,854.7,84z M856.3,89.9c0,0.7-0.2,1.3-0.7,1.7c-0.4,0.4-1,0.6-1.8,0.6c-0.5,0-0.9-0.1-1.1-0.4
				c-0.2-0.2-0.4-0.5-0.4-1c0-0.6,0.2-1,0.7-1.3c0.4-0.3,1.1-0.4,2.1-0.5l1.2-0.1V89.9z M867.5,90.9c0-0.5-0.1-0.8-0.2-1.2
				c-0.2-0.3-0.4-0.6-0.8-0.9c-0.4-0.2-0.9-0.5-1.7-0.8c-1-0.4-1.5-0.7-1.8-0.8c-0.3-0.2-0.4-0.5-0.4-0.8c0-0.6,0.5-0.9,1.6-0.9
				c0.7,0,1.5,0.2,2.6,0.7l0.7-1.5c-1-0.5-2-0.7-3.2-0.7c-1.1,0-2,0.2-2.7,0.7c-0.7,0.4-1,1.1-1,1.9c0,0.7,0.2,1.2,0.6,1.7
				c0.4,0.4,1.1,0.8,2.2,1.3c0.5,0.2,1,0.4,1.3,0.6s0.5,0.4,0.7,0.5c0.1,0.2,0.2,0.4,0.2,0.6c0,0.8-0.6,1.1-1.8,1.1
				c-1,0-2-0.2-3.1-0.8v1.7c0.8,0.4,1.8,0.6,3,0.6s2.2-0.2,2.9-0.7C867.1,92.6,867.5,91.9,867.5,90.9z M880.9,92.2l0.2,1.4h0.5V80.4
				h-0.8v3.3c0,0.7,0,1.4,0.1,2.1h-0.1c-0.4-0.6-0.8-1-1.3-1.3c-0.5-0.2-1.1-0.4-1.7-0.4c-1.3,0-2.3,0.4-2.9,1.3
				c-0.7,0.8-1,2.1-1,3.7c0,1.5,0.4,2.7,1,3.5c0.7,0.8,1.7,1.2,2.9,1.2C879.1,93.8,880.1,93.2,880.9,92.2L880.9,92.2L880.9,92.2z
				 M880,92.1c-0.5,0.6-1.3,0.9-2.3,0.9c-2,0-3.1-1.3-3.1-3.9c0-1.4,0.2-2.4,0.8-3.1c0.5-0.7,1.3-1.1,2.3-1.1c1.1,0,1.8,0.3,2.3,1
				c0.5,0.7,0.7,1.7,0.7,3.1v0.1C880.8,90.5,880.5,91.5,880,92.1z M885.6,88.5c0-1,0.2-1.8,0.8-2.6c0.5-0.7,1.1-1,2-1
				c0.4,0,0.8,0.1,1.2,0.1l0.2-0.8c-0.5-0.1-0.9-0.1-1.3-0.1c-0.6,0-1.1,0.1-1.5,0.4c-0.4,0.3-0.8,0.8-1.3,1.4h-0.1l-0.1-1.7h-0.7
				v9.3h0.8V88.5z M897.9,92.3L897.9,92.3l0.2,1.3h0.7v-9.3H898v5.1c0,1.3-0.2,2.1-0.8,2.7c-0.5,0.5-1.3,0.8-2.4,0.8
				c-0.8,0-1.4-0.2-1.8-0.7c-0.4-0.4-0.6-1.1-0.6-2v-6h-0.8v6.1c0,2.3,1.1,3.4,3.2,3.4C896.2,93.8,897.2,93.3,897.9,92.3z
				 M907.8,85.5c0.4,0.4,0.6,1.1,0.6,2v6h0.8v-6.1c0-2.3-1.1-3.4-3.2-3.4c-1.5,0-2.6,0.5-3.2,1.4h-0.1l-0.2-1.3h-0.7v9.3h0.8v-5.1
				c0-1.3,0.2-2.1,0.8-2.7c0.5-0.5,1.3-0.8,2.4-0.8C906.8,84.9,907.4,85.1,907.8,85.5z M918.8,84.4h-1l-4.8,5.2H913l0.1-2.6v-6.6
				h-0.8v13.3h0.8v-3.3l1.5-1.4l3.5,4.7h1l-4-5.3L918.8,84.4z M931.8,83.7c0,0.7,0,1.4,0.1,2.1h-0.1c-0.4-0.6-0.8-1-1.3-1.3
				c-0.5-0.2-1.1-0.4-1.7-0.4c-1.3,0-2.3,0.4-2.9,1.3c-0.7,0.8-1,2.1-1,3.7c0,1.5,0.4,2.7,1,3.5c0.7,0.8,1.7,1.2,2.9,1.2
				c1.3,0,2.3-0.5,3-1.6h0.1l0.2,1.4h0.5V80.4h-0.8C931.8,80.4,931.8,83.7,931.8,83.7z M931.8,89.1c0,1.4-0.2,2.4-0.7,3
				c-0.5,0.6-1.3,0.9-2.3,0.9c-2,0-3.1-1.3-3.1-3.9c0-1.4,0.2-2.4,0.8-3.1s1.3-1.1,2.3-1.1c1.1,0,1.8,0.3,2.3,1
				c0.5,0.7,0.7,1.7,0.7,3.1L931.8,89.1L931.8,89.1z M942.1,89.5c0,1.3-0.2,2.1-0.8,2.7c-0.5,0.5-1.3,0.8-2.4,0.8
				c-0.8,0-1.4-0.2-1.8-0.7c-0.4-0.4-0.6-1.1-0.6-2v-6h-0.8v6.1c0,2.3,1.1,3.4,3.2,3.4c1.5,0,2.6-0.5,3.2-1.4h0.1l0.2,1.3h0.7v-9.3
				h-0.8V89.5z M948.1,84.6c-0.4,0.3-0.8,0.8-1.3,1.4l0,0l-0.1-1.7h-0.7v9.3h0.8v-5.1c0-1,0.2-1.8,0.8-2.6c0.5-0.7,1.1-1,2-1
				c0.4,0,0.8,0.1,1.2,0.1l0.2-0.8c-0.5-0.1-0.9-0.1-1.3-0.1C949.1,84.2,948.6,84.3,948.1,84.6z M952.9,93.6h0.8v-9.3h-0.8V93.6z
				 M953.3,81c-0.4,0-0.5,0.3-0.5,0.8s0.2,0.8,0.5,0.8c0.2,0,0.3-0.1,0.4-0.2c0.1-0.1,0.2-0.4,0.2-0.6c0-0.2-0.1-0.5-0.2-0.6
				C953.6,81,953.5,81,953.3,81z M961,84.2c-1.5,0-2.6,0.5-3.2,1.4h-0.1l-0.2-1.3h-0.7v9.3h0.8v-5.1c0-1.3,0.2-2.1,0.8-2.7
				c0.5-0.5,1.3-0.8,2.4-0.8c0.8,0,1.4,0.2,1.8,0.7c0.4,0.4,0.6,1.1,0.6,2v6h0.8v-6.1C964.2,85.3,963.1,84.2,961,84.2z M970,84.2
				c-1,0-1.8,0.3-2.4,0.8s-0.9,1.3-0.9,2.2c0,0.6,0.2,1.1,0.5,1.6c0.3,0.5,0.7,0.8,1.3,1.1c-0.8,0.5-1.2,1-1.2,1.7
				c0,0.3,0.1,0.5,0.2,0.8c0.2,0.2,0.4,0.4,0.7,0.5c-0.7,0.2-1.2,0.4-1.6,0.8c-0.4,0.4-0.6,1-0.6,1.6c0,0.8,0.3,1.4,1,1.9
				s1.5,0.7,2.7,0.7c1.5,0,2.6-0.2,3.4-0.8c0.8-0.5,1.2-1.3,1.2-2.3c0-0.8-0.3-1.4-0.8-1.8s-1.3-0.6-2.3-0.6h-1.6
				c-0.5,0-0.9-0.1-1.1-0.2c-0.2-0.1-0.4-0.4-0.4-0.7c0-0.2,0.1-0.5,0.2-0.8s0.4-0.4,0.8-0.6c0.2,0.1,0.5,0.1,0.9,0.1
				c1,0,1.8-0.3,2.4-0.8s0.9-1.3,0.9-2.1c0-0.8-0.2-1.5-0.8-2.1l1.9-0.1v-0.6h-3C971.1,84.2,970.6,84.2,970,84.2z M969.4,93.2h1.5
				c0.8,0,1.5,0.1,1.8,0.4c0.4,0.2,0.6,0.7,0.6,1.2c0,1.5-1.3,2.3-3.7,2.3c-1.9,0-2.9-0.7-2.9-1.9C966.9,93.8,967.8,93.2,969.4,93.2
				z M972.4,87.2c0,0.8-0.2,1.3-0.6,1.7c-0.4,0.4-1,0.6-1.8,0.6c-0.7,0-1.3-0.2-1.7-0.6c-0.4-0.4-0.7-1-0.7-1.7
				c0-0.8,0.2-1.4,0.7-1.8c0.4-0.4,1-0.7,1.7-0.7c0.8,0,1.4,0.2,1.8,0.6C972.2,85.8,972.4,86.4,972.4,87.2z M832.3,113.5
				c-0.2-0.4-0.4-0.9-0.4-1.6V106h2.7v-0.7h-2.7V103h-0.4l-0.4,2.1l-1.4,0.4v0.5h1.4v6c0,1,0.2,1.6,0.6,2.1c0.4,0.4,1,0.7,1.8,0.7
				c0.5,0,1-0.1,1.4-0.2v-0.7c-0.4,0.1-0.9,0.1-1.4,0.1C832.9,114,832.6,113.8,832.3,113.5z M841,105.1c-0.8,0-1.4,0.1-2,0.4
				c-0.5,0.2-1,0.7-1.3,1.2h-0.1l0.1-1.2v-4.2h-0.8v13.3h0.8v-5.1c0-1.3,0.2-2.1,0.8-2.7c0.5-0.5,1.3-0.8,2.4-0.8
				c0.8,0,1.4,0.2,1.8,0.7c0.4,0.4,0.6,1.1,0.6,2v6h0.8v-6.1C844.3,106.3,843.2,105.1,841,105.1z M847.2,114.5h0.8v-9.3h-0.8V114.5z
				 M847.7,101.9c-0.4,0-0.5,0.3-0.5,0.8s0.2,0.8,0.5,0.8c0.2,0,0.3-0.1,0.4-0.2c0.1-0.1,0.2-0.4,0.2-0.6c0-0.2-0.1-0.5-0.2-0.6
				C848,102,847.8,101.9,847.7,101.9z M855.8,110.2c-0.4-0.2-1-0.5-1.8-0.8c-1-0.4-1.7-0.7-2-1c-0.4-0.3-0.5-0.7-0.5-1.1
				c0-0.4,0.2-0.8,0.7-1c0.4-0.2,1.1-0.4,1.8-0.4c0.8,0,1.6,0.2,2.6,0.5l0.3-0.8c-0.9-0.4-1.8-0.5-2.9-0.5c-1.1,0-1.8,0.2-2.4,0.6
				c-0.6,0.4-0.9,1-0.9,1.7c0,0.4,0.1,0.8,0.3,1.1c0.2,0.3,0.5,0.6,0.8,0.8c0.4,0.2,1,0.5,2,0.9c0.9,0.3,1.5,0.6,1.8,1
				c0.4,0.3,0.6,0.7,0.6,1.2c0,0.5-0.2,0.9-0.7,1.2c-0.5,0.3-1.2,0.5-2.1,0.5c-1,0-2-0.2-3-0.7v0.9c0.7,0.4,1.7,0.6,3,0.6
				c1.2,0,2.1-0.2,2.7-0.7c0.7-0.4,1-1.1,1-1.9c0-0.4-0.1-0.8-0.3-1.1C856.5,110.8,856.2,110.5,855.8,110.2z M868,105.1
				c-1.4,0-2.4,0.5-3,1.5h-0.1l-0.2-1.3H864v13.5h0.8v-3.5c0-0.5,0-1-0.1-1.4v-0.7h0.1c0.7,1.1,1.7,1.6,3.2,1.6
				c1.2,0,2.1-0.4,2.9-1.3c0.7-0.8,1-2,1-3.6c0-1.5-0.4-2.7-1-3.6C870.2,105.5,869.2,105.1,868,105.1z M870.1,112.9
				c-0.5,0.7-1.3,1.1-2.2,1.1c-1.1,0-1.9-0.3-2.4-1c-0.5-0.6-0.7-1.7-0.7-3.1v-0.3c0-1.4,0.2-2.3,0.8-2.9s1.3-0.9,2.4-0.9
				c2,0,3,1.4,3,4.1C870.9,111.3,870.6,112.2,870.1,112.9z M876.5,105.5c-0.4,0.3-0.8,0.8-1.3,1.4h-0.1l-0.1-1.7h-0.7v9.3h0.8v-5.1
				c0-1,0.2-1.8,0.8-2.6c0.5-0.7,1.1-1,2-1c0.4,0,0.8,0.1,1.2,0.1l0.2-0.8c-0.5-0.1-0.9-0.1-1.3-0.1
				C877.4,105.1,876.9,105.2,876.5,105.5z M884.8,105.1c-1.3,0-2.3,0.4-3,1.3c-0.7,0.8-1.1,2-1.1,3.5c0,1,0.2,1.8,0.5,2.6
				c0.4,0.7,0.8,1.3,1.4,1.7c0.6,0.4,1.4,0.6,2.1,0.6c1.3,0,2.3-0.4,3-1.3c0.7-0.8,1.1-2,1.1-3.6c0-1.5-0.4-2.7-1.1-3.5
				C887.1,105.5,886,105.1,884.8,105.1z M887.2,112.9c-0.5,0.7-1.4,1.1-2.4,1.1c-1,0-1.8-0.4-2.4-1.1s-0.8-1.7-0.8-3
				c0-1.3,0.3-2.3,0.8-3c0.5-0.7,1.4-1.1,2.4-1.1c1,0,1.8,0.4,2.4,1.1c0.6,0.7,0.8,1.7,0.8,3C888,111.2,887.7,112.2,887.2,112.9z
				 M891.9,101.9c-0.4,0-0.5,0.3-0.5,0.8s0.2,0.8,0.5,0.8c0.2,0,0.3-0.1,0.4-0.2c0.1-0.1,0.2-0.4,0.2-0.6c0-0.2-0.1-0.5-0.2-0.6
				C892.2,102,892.1,101.9,891.9,101.9z M891.5,116.5c0,1-0.4,1.5-1.3,1.5c-0.4,0-0.7-0.1-1.1-0.2v0.7c0.3,0.1,0.7,0.2,1.1,0.2
				c0.7,0,1.2-0.2,1.5-0.6s0.5-1,0.5-1.8v-11.1h-0.8L891.5,116.5L891.5,116.5z M898.9,105.1c-1.3,0-2.2,0.4-3,1.3
				c-0.7,0.9-1.1,2.1-1.1,3.6c0,1.5,0.4,2.7,1.1,3.5c0.8,0.8,1.8,1.3,3.2,1.3c0.5,0,1-0.1,1.5-0.1c0.4-0.1,1-0.2,1.4-0.5v-0.8
				c-0.6,0.2-1.1,0.4-1.5,0.5c-0.4,0.1-0.9,0.1-1.4,0.1c-1.1,0-1.9-0.4-2.5-1c-0.6-0.7-0.9-1.7-0.9-2.9h6.7v-0.7
				c0-1.3-0.3-2.3-1-3.1C900.9,105.5,900,105.1,898.9,105.1z M895.8,109.3c0.1-1.1,0.4-2,1-2.6s1.3-0.9,2.1-0.9c0.8,0,1.5,0.3,2,0.9
				c0.5,0.6,0.7,1.4,0.7,2.5L895.8,109.3L895.8,109.3z M908.8,105.9c0.6,0,1.3,0.1,2.1,0.4l0.2-0.8c-0.7-0.3-1.5-0.4-2.3-0.4
				c-1.4,0-2.4,0.4-3.2,1.3c-0.8,0.8-1.2,2-1.2,3.6c0,1.5,0.4,2.7,1.1,3.5c0.8,0.8,1.8,1.3,3.1,1.3c1,0,1.7-0.1,2.3-0.4v-0.8
				c-0.7,0.3-1.5,0.5-2.4,0.5c-1.1,0-1.9-0.4-2.4-1.1c-0.6-0.7-0.9-1.7-0.9-2.9c0-1.3,0.3-2.3,0.9-3
				C906.9,106.3,907.7,105.9,908.8,105.9z M914.6,113.5c-0.2-0.4-0.4-0.9-0.4-1.6V106h2.7v-0.7h-2.7V103h-0.4l-0.4,2.1l-1.4,0.4v0.5
				h1.4v6c0,1,0.2,1.6,0.6,2.1c0.4,0.4,1,0.7,1.8,0.7c0.5,0,1-0.1,1.4-0.2v-0.7c-0.4,0.1-0.9,0.1-1.4,0.1
				C915.3,114,914.9,113.8,914.6,113.5z"/>
		</g>
	</g>
</g>
<g id="stat-3" display="none">
	<g display="inline">
		<g>
			<path fill="#FFFFFF" d="M934.3,59.6c4.8,0,8.3-1.7,10.6-5c2.3-3.3,3.5-8.5,3.5-15.5c0-6.7-1.2-11.8-3.6-15.3
				c-2.4-3.5-5.8-5.2-10.5-5.2c-4.8,0-8.3,1.7-10.5,5s-3.4,8.5-3.4,15.5c0,6.7,1.2,11.8,3.5,15.3C926.2,57.9,929.7,59.6,934.3,59.6z
				 M930,28.6c0.8-2.1,2.3-3.2,4.3-3.2c2,0,3.4,1.1,4.2,3.2c0.9,2.1,1.3,5.7,1.3,10.5c0,4.8-0.4,8.3-1.3,10.5
				c-0.9,2.1-2.3,3.2-4.3,3.2c-2,0-3.5-1.1-4.3-3.2c-0.8-2.1-1.3-5.6-1.3-10.5C928.8,34.2,929.2,30.7,930,28.6z M852.7,71.3h4.4
				l1.1,3.2h2l-4.3-11.5h-2l-4.3,11.5h2L852.7,71.3z M854.3,66.7c0.3-0.8,0.5-1.5,0.6-2.1c0.1,0.2,0.1,0.5,0.3,1
				c0.1,0.5,0.2,0.8,0.3,1l1.1,3.1h-3.3L854.3,66.7z M869.2,74.4v-5.7c0-2.1-1-3.2-3.1-3.2c-0.6,0-1.1,0.1-1.6,0.4s-0.8,0.5-1.1,1
				h-0.1l-0.2-1.1h-1.4v8.6h1.8v-4.3c0-1.1,0.2-1.8,0.5-2.3s1-0.7,1.7-0.7c0.6,0,1,0.2,1.3,0.5c0.3,0.4,0.4,0.8,0.4,1.5v5.3
				L869.2,74.4L869.2,74.4z M871.8,74.4h1.8v-8.6h-1.8V74.4z M872.7,64.5c0.3,0,0.6-0.1,0.8-0.3c0.2-0.2,0.3-0.4,0.3-0.7
				c0-0.4-0.1-0.6-0.3-0.8s-0.4-0.2-0.8-0.2c-0.4,0-0.6,0.1-0.8,0.2s-0.3,0.4-0.3,0.8c0,0.3,0.1,0.5,0.3,0.7
				C872.1,64.4,872.4,64.5,872.7,64.5z M878.1,70.1c0-1.1,0.2-1.8,0.5-2.3c0.4-0.5,0.8-0.7,1.5-0.7c0.5,0,1,0.2,1.2,0.5
				c0.2,0.3,0.4,0.8,0.4,1.5v5.4h1.8v-4.6c0-0.9,0.2-1.6,0.5-2c0.4-0.4,0.8-0.7,1.5-0.7c0.5,0,1,0.2,1.2,0.5
				c0.2,0.3,0.4,0.8,0.4,1.5v5.4h1.8v-5.7c0-1.1-0.2-1.8-0.7-2.4c-0.5-0.5-1.3-0.8-2.3-0.8c-0.6,0-1.1,0.1-1.6,0.4s-0.8,0.6-1.1,1
				h-0.1c-0.4-0.9-1.3-1.4-2.7-1.4c-0.5,0-1.1,0.1-1.5,0.4c-0.5,0.2-0.8,0.5-1.1,1h-0.1l-0.2-1.1h-1.4v8.6h1.8v-4.3H878.1z
				 M896.6,73.2l0.4,1.2h1.3v-5.8c0-1-0.3-1.8-0.8-2.3s-1.4-0.7-2.5-0.7c-0.5,0-1,0.1-1.6,0.2c-0.5,0.1-1.1,0.3-1.5,0.5l0.6,1.3
				c0.4-0.2,0.8-0.4,1.2-0.5c0.4-0.1,0.8-0.2,1.3-0.2c0.5,0,1,0.1,1.2,0.4c0.2,0.3,0.4,0.7,0.4,1.3v0.5l-1.5,0.1
				c-1.4,0.1-2.4,0.3-3,0.7c-0.7,0.5-1,1.1-1,2c0,0.8,0.2,1.5,0.7,2c0.5,0.5,1.1,0.7,2,0.7c0.7,0,1.2-0.1,1.6-0.3
				c0.4-0.2,0.8-0.5,1.3-1.1C896.5,73.2,896.6,73.2,896.6,73.2z M896.5,71c0,0.7-0.2,1.2-0.6,1.5s-1,0.5-1.6,0.5
				c-0.5,0-0.8-0.1-1-0.3c-0.2-0.2-0.4-0.5-0.4-0.9c0-0.5,0.2-1,0.6-1.2c0.4-0.2,1-0.4,1.9-0.4l1.1-0.1L896.5,71L896.5,71z
				 M902.8,62.3h-1.8v12.1h1.8V62.3z M911.2,72c0-0.4-0.1-0.8-0.2-1.1s-0.4-0.5-0.7-0.8s-0.8-0.5-1.5-0.8c-0.8-0.4-1.4-0.6-1.7-0.8
				c-0.2-0.2-0.4-0.4-0.4-0.7c0-0.5,0.5-0.8,1.5-0.8c0.7,0,1.4,0.2,2.4,0.6l0.6-1.4c-0.9-0.4-1.9-0.6-2.9-0.6c-1,0-1.8,0.2-2.4,0.6
				c-0.6,0.4-0.9,1-0.9,1.7c0,0.6,0.2,1.1,0.5,1.5s1,0.8,2,1.1c0.5,0.2,0.9,0.4,1.2,0.5c0.3,0.2,0.5,0.3,0.6,0.5
				c0.1,0.1,0.2,0.4,0.2,0.5c0,0.7-0.6,1-1.7,1c-0.9,0-1.8-0.2-2.9-0.7v1.6c0.7,0.4,1.6,0.5,2.8,0.5c1.1,0,2-0.2,2.7-0.7
				C910.9,73.5,911.2,72.8,911.2,72z M919.5,74.4l1.9-5.7l0.4-1.1l0.2-0.6h0.1c0.2,0.8,0.4,1.3,0.5,1.7l1.8,5.7h0.8l2.3-8.5h-0.8
				l-1.3,4.9c-0.4,1.5-0.6,2.4-0.7,2.7h-0.1c-0.1-0.4-0.3-1.2-0.7-2.4l-1.7-5.2h-0.7l-1.8,5.2c-0.1,0.4-0.4,1.2-0.7,2.4H919
				c-0.1-0.6-0.3-1.5-0.7-2.7l-1.4-4.9h-0.8l2.4,8.5L919.5,74.4L919.5,74.4z M932.4,65.8c-1.1,0-2,0.4-2.7,1.3c-0.7,0.8-1,1.9-1,3.3
				s0.4,2.4,1,3.2c0.7,0.8,1.7,1.1,2.9,1.1c0.5,0,1-0.1,1.4-0.1c0.4-0.1,0.8-0.2,1.3-0.4v-0.7c-0.5,0.2-1,0.4-1.4,0.4
				c-0.4,0.1-0.8,0.1-1.3,0.1c-1,0-1.8-0.3-2.3-0.9s-0.8-1.5-0.8-2.7h6.2v-0.7c0-1.2-0.3-2.1-0.9-2.9
				C934.1,66.1,933.3,65.8,932.4,65.8z M929.5,69.6c0.1-1,0.4-1.8,0.9-2.3c0.5-0.5,1.1-0.8,2-0.8c0.8,0,1.4,0.3,1.8,0.8
				c0.4,0.5,0.7,1.3,0.7,2.3H929.5z M942.3,66.6l0.2-0.7c-0.4-0.1-0.8-0.1-1.2-0.1c-0.5,0-1.1,0.1-1.4,0.4c-0.4,0.2-0.8,0.7-1.1,1.3
				h-0.1l-0.1-1.5H938v8.5h0.8v-4.7c0-1,0.2-1.7,0.7-2.3c0.5-0.6,1.1-0.9,1.8-0.9C941.6,66.5,941.9,66.5,942.3,66.6z M950.3,73.3
				c-0.5,0.2-1,0.4-1.4,0.4c-0.4,0.1-0.8,0.1-1.3,0.1c-1,0-1.8-0.3-2.3-0.9c-0.5-0.6-0.8-1.5-0.8-2.7h6.1v-0.7
				c0-1.2-0.3-2.1-0.9-2.9c-0.6-0.7-1.4-1.1-2.4-1.1c-1.1,0-2,0.4-2.7,1.3s-1,1.9-1,3.3c0,1.4,0.4,2.4,1,3.2
				c0.7,0.8,1.7,1.1,2.9,1.1c0.5,0,1-0.1,1.4-0.1c0.4-0.1,0.8-0.2,1.3-0.4v-0.7H950.3z M945.5,67.3c0.5-0.5,1.1-0.8,2-0.8
				c0.8,0,1.4,0.3,1.8,0.8c0.4,0.5,0.7,1.3,0.7,2.3h-5.3C944.6,68.6,944.9,67.8,945.5,67.3z M857,88.1v5.5h0.8v-5.5
				c0-2.1-1-3.1-2.9-3.1c-0.7,0-1.3,0.1-1.8,0.4c-0.5,0.2-0.9,0.6-1.2,1.1h-0.1l0.1-1.1v-3.9H851v12.1h0.8V89c0-1.1,0.2-2,0.7-2.5
				c0.5-0.5,1.2-0.8,2.3-0.8c0.8,0,1.3,0.2,1.7,0.6C856.8,86.6,857,87.3,857,88.1z M866.3,88c0-1-0.2-1.8-0.7-2.3s-1.2-0.7-2.1-0.7
				s-1.8,0.2-2.8,0.7l0.3,0.7c0.8-0.4,1.7-0.7,2.4-0.7c0.7,0,1.3,0.2,1.6,0.6c0.4,0.4,0.5,1,0.5,1.8v0.5l-1.6,0.1
				c-1.3,0-2.3,0.3-3,0.7c-0.7,0.5-1,1.1-1,1.9c0,0.8,0.2,1.4,0.7,1.8c0.5,0.4,1.1,0.7,2,0.7c0.6,0,1.1-0.1,1.6-0.4
				c0.5-0.2,0.9-0.6,1.3-1.1h0.1l0.2,1.4h0.6C866.3,93.6,866.3,88,866.3,88z M865.5,90.1c0,0.9-0.2,1.7-0.8,2.1
				c-0.5,0.5-1.3,0.8-2.1,0.8c-0.6,0-1.1-0.1-1.4-0.4c-0.3-0.3-0.5-0.7-0.5-1.3c0-0.7,0.2-1.1,0.8-1.5c0.5-0.3,1.4-0.5,2.6-0.5
				l1.5-0.1L865.5,90.1L865.5,90.1z M869,93.6h0.8v-4.7c0-1,0.2-1.7,0.7-2.3s1.1-0.9,1.8-0.9c0.4,0,0.8,0.1,1.1,0.1l0.2-0.7
				c-0.4-0.1-0.8-0.1-1.2-0.1c-0.5,0-1.1,0.1-1.4,0.4c-0.4,0.2-0.8,0.7-1.1,1.3h-0.1l-0.1-1.5h-0.7L869,93.6L869,93.6z M881.4,93.6
				v-5c0-1,0.2-1.8,0.7-2.3s1.1-0.7,2-0.7c0.7,0,1.2,0.2,1.5,0.6c0.3,0.4,0.5,1,0.5,1.8v5.6h0.8v-5.5c0-1.1-0.2-1.8-0.7-2.4
				c-0.5-0.5-1.2-0.7-2.1-0.7c-0.6,0-1.1,0.1-1.6,0.4c-0.5,0.2-0.8,0.7-1.1,1.1h-0.1c-0.4-1-1.3-1.5-2.6-1.5c-0.5,0-1,0.1-1.4,0.4
				c-0.4,0.2-0.8,0.5-1,1h-0.1l-0.2-1.2h-0.7v8.5h0.8V89c0-1.1,0.2-2,0.6-2.5s1.1-0.8,2-0.8c1.3,0,2,0.7,2,2.1v5.8L881.4,93.6
				L881.4,93.6z M892.7,84.9c-1.1,0-2,0.4-2.7,1.3s-1,1.9-1,3.3c0,1.4,0.4,2.4,1,3.2c0.7,0.8,1.7,1.1,2.9,1.1c0.5,0,1-0.1,1.4-0.1
				c0.4-0.1,0.8-0.2,1.3-0.4v-0.7c-0.5,0.2-1,0.4-1.4,0.4c-0.4,0.1-0.8,0.1-1.3,0.1c-1,0-1.8-0.3-2.3-0.9s-0.8-1.5-0.8-2.7h6.1v-0.7
				c0-1.2-0.3-2.1-0.9-2.9C894.5,85.3,893.7,84.9,892.7,84.9z M889.9,88.8c0.1-1,0.4-1.8,0.9-2.3c0.5-0.5,1.1-0.8,2-0.8
				c0.8,0,1.4,0.3,1.8,0.8s0.7,1.3,0.7,2.3H889.9z M904.5,93.6h0.5V81.5h-0.8v3c0,0.7,0,1.3,0.1,1.9h-0.1c-0.4-0.5-0.8-1-1.2-1.1
				c-0.5-0.2-1-0.4-1.6-0.4c-1.2,0-2.1,0.4-2.7,1.2c-0.6,0.8-1,1.9-1,3.4c0,1.4,0.3,2.4,1,3.2c0.6,0.7,1.5,1.1,2.7,1.1
				c1.2,0,2.1-0.5,2.8-1.4h0.1L904.5,93.6z M904.2,89.5c0,1.3-0.2,2.2-0.7,2.7c-0.5,0.5-1.1,0.8-2.1,0.8c-1.9,0-2.8-1.2-2.8-3.6
				c0-1.3,0.2-2.2,0.7-2.9c0.5-0.7,1.2-1,2.1-1c1,0,1.7,0.3,2.1,0.9c0.4,0.6,0.7,1.5,0.7,2.9V89.5z M918.7,81.4H918v3
				c0,0.7,0,1.3,0.1,1.9H918c-0.4-0.5-0.8-1-1.2-1.1c-0.5-0.2-1-0.4-1.6-0.4c-1.2,0-2.1,0.4-2.7,1.2c-0.6,0.8-1,1.9-1,3.4
				c0,1.4,0.3,2.4,1,3.2c0.6,0.7,1.5,1.1,2.7,1.1c1.2,0,2.1-0.5,2.8-1.4h0.1l0.2,1.3h0.5V81.4z M918,89.5c0,1.3-0.2,2.2-0.7,2.7
				c-0.5,0.5-1.1,0.8-2.1,0.8c-1.9,0-2.8-1.2-2.8-3.6c0-1.3,0.2-2.2,0.7-2.9c0.5-0.7,1.2-1,2.1-1c1,0,1.7,0.3,2.1,0.9
				c0.4,0.6,0.7,1.5,0.7,2.9V89.5z M921.5,85.1v5.5c0,2.1,1,3.1,2.9,3.1c1.4,0,2.4-0.4,3-1.3h0.1l0.1,1.2h0.7v-8.5h-0.8v4.7
				c0,1.1-0.2,2-0.7,2.5c-0.5,0.5-1.3,0.8-2.3,0.8c-0.8,0-1.3-0.2-1.7-0.6c-0.4-0.4-0.5-1-0.5-1.8v-5.5H921.5z M933,85.4
				c-0.4,0.2-0.8,0.7-1.1,1.3h-0.1l-0.1-1.5h-0.7v8.5h0.8v-4.7c0-1,0.2-1.7,0.7-2.3s1.1-0.9,1.8-0.9c0.4,0,0.8,0.1,1.1,0.1l0.2-0.7
				c-0.4-0.1-0.8-0.1-1.2-0.1C933.9,84.9,933.4,85.1,933,85.4z M937.3,93.6h0.8v-8.5h-0.8V93.6z M937.7,82c-0.4,0-0.5,0.2-0.5,0.8
				c0,0.5,0.2,0.8,0.5,0.8c0.2,0,0.3-0.1,0.4-0.2c0.1-0.1,0.1-0.3,0.1-0.5s-0.1-0.4-0.1-0.5C938,82.1,937.8,82,937.7,82z
				 M944.7,84.9c-1.4,0-2.4,0.4-3,1.3h-0.1l-0.2-1.2h-0.6v8.5h0.8v-4.7c0-1.1,0.2-2,0.7-2.5s1.2-0.8,2.3-0.8c0.8,0,1.3,0.2,1.7,0.6
				c0.4,0.4,0.5,1,0.5,1.8v5.5h0.8V88C947.7,86,946.7,84.9,944.7,84.9z M957.1,85.1h-2.7c-0.3-0.1-0.7-0.2-1.3-0.2
				c-0.9,0-1.7,0.2-2.2,0.8c-0.5,0.5-0.8,1.2-0.8,2c0,0.5,0.1,1.1,0.4,1.5s0.7,0.8,1.2,1c-0.7,0.4-1.1,1-1.1,1.5
				c0,0.2,0.1,0.5,0.2,0.7c0.2,0.2,0.4,0.4,0.6,0.5c-0.6,0.1-1.1,0.4-1.5,0.8s-0.5,0.9-0.5,1.4c0,0.7,0.3,1.3,0.9,1.7
				c0.6,0.4,1.4,0.6,2.5,0.6c1.4,0,2.4-0.2,3.1-0.7c0.7-0.5,1.1-1.2,1.1-2.1c0-0.7-0.2-1.3-0.7-1.7c-0.5-0.4-1.2-0.5-2.1-0.5h-1.5
				c-0.5,0-0.8-0.1-1-0.2s-0.3-0.3-0.3-0.6c0-0.2,0.1-0.5,0.2-0.7c0.2-0.2,0.4-0.4,0.7-0.6c0.2,0.1,0.4,0.1,0.8,0.1
				c0.9,0,1.7-0.2,2.2-0.8c0.5-0.5,0.8-1.2,0.8-2c0-0.7-0.2-1.3-0.7-1.9l1.8-0.1L957.1,85.1L957.1,85.1z M952.5,93.2h1.4
				c0.8,0,1.4,0.1,1.7,0.4c0.4,0.2,0.5,0.6,0.5,1.1c0,1.4-1.1,2.1-3.3,2.1c-1.7,0-2.6-0.6-2.6-1.7C950.2,93.8,950.9,93.2,952.5,93.2
				z M954.7,89.3c-0.4,0.4-1,0.5-1.6,0.5s-1.2-0.2-1.6-0.5c-0.4-0.4-0.6-0.9-0.6-1.5c0-0.7,0.2-1.3,0.6-1.6c0.4-0.4,1-0.6,1.6-0.6
				c0.7,0,1.3,0.2,1.6,0.5c0.4,0.4,0.6,0.9,0.6,1.6C955.2,88.5,955,88.9,954.7,89.3z M852.2,111.9c-0.2-0.3-0.4-0.8-0.4-1.4v-5.4
				h2.5v-0.7h-2.5v-2.1h-0.4l-0.4,1.8l-1.3,0.4v0.5h1.3v5.5c0,0.8,0.2,1.5,0.5,1.9s0.9,0.6,1.7,0.6c0.5,0,1-0.1,1.3-0.2v-0.7
				c-0.4,0.1-0.8,0.1-1.3,0.1C852.8,112.3,852.4,112.2,852.2,111.9z M860.2,104.2c-0.7,0-1.3,0.1-1.8,0.4c-0.5,0.2-0.9,0.6-1.2,1.1
				h-0.1l0.1-1.1v-3.9h-0.8v12.1h0.8v-4.7c0-1.1,0.2-2,0.7-2.5c0.5-0.5,1.2-0.8,2.3-0.8c0.8,0,1.3,0.2,1.7,0.6
				c0.4,0.4,0.5,1,0.5,1.8v5.5h0.8v-5.5C863.1,105.2,862.2,104.2,860.2,104.2z M866.3,101.2c-0.4,0-0.5,0.2-0.5,0.8
				c0,0.5,0.2,0.8,0.5,0.8c0.2,0,0.3-0.1,0.4-0.2c0.1-0.1,0.1-0.3,0.1-0.5c0-0.2-0.1-0.4-0.1-0.5
				C866.6,101.3,866.5,101.2,866.3,101.2z M865.9,112.8h0.8v-8.5h-0.8V112.8z M873.8,108.9c-0.4-0.2-0.9-0.5-1.7-0.8
				c-0.9-0.4-1.5-0.7-1.8-0.9c-0.3-0.2-0.5-0.6-0.5-1.1c0-0.4,0.2-0.7,0.6-1c0.4-0.2,1-0.4,1.7-0.4s1.5,0.2,2.3,0.5l0.3-0.7
				c-0.8-0.4-1.7-0.5-2.6-0.5c-1,0-1.7,0.2-2.3,0.5c-0.5,0.4-0.8,0.9-0.8,1.5c0,0.4,0.1,0.7,0.2,1c0.2,0.3,0.4,0.5,0.8,0.8
				c0.4,0.2,1,0.5,1.8,0.8c0.8,0.3,1.4,0.6,1.7,0.8c0.4,0.3,0.5,0.7,0.5,1.1c0,0.5-0.2,0.8-0.7,1.1c-0.4,0.3-1.1,0.4-1.9,0.4
				c-1,0-1.8-0.2-2.7-0.7v0.8c0.7,0.4,1.5,0.5,2.7,0.5c1.1,0,1.9-0.2,2.5-0.6c0.6-0.4,0.9-1,0.9-1.7c0-0.4-0.1-0.7-0.2-1
				C874.4,109.4,874.1,109.1,873.8,108.9z M884.9,104.2c-1.3,0-2.2,0.5-2.8,1.4H882l-0.2-1.2h-0.7v12.3h0.8v-3.2
				c0-0.5,0-0.9-0.1-1.3v-0.7h0.1c0.6,1,1.5,1.5,2.9,1.5c1.1,0,2-0.4,2.6-1.1c0.7-0.8,1-1.8,1-3.3s-0.3-2.6-0.9-3.3
				C886.9,104.5,886,104.2,884.9,104.2z M886.8,111.3c-0.5,0.7-1.1,1-2,1c-1,0-1.7-0.3-2.2-0.8c-0.5-0.6-0.7-1.5-0.7-2.9v-0.2
				c0-1.3,0.2-2.1,0.7-2.7c0.5-0.5,1.2-0.8,2.2-0.8c1.8,0,2.7,1.3,2.7,3.8C887.6,109.8,887.4,110.7,886.8,111.3z M892.7,104.5
				c-0.4,0.2-0.8,0.7-1.1,1.3h-0.1l-0.1-1.5h-0.7v8.5h0.8v-4.7c0-1,0.2-1.7,0.7-2.3c0.5-0.6,1.1-0.9,1.8-0.9c0.4,0,0.8,0.1,1.1,0.1
				l0.2-0.7c-0.4-0.1-0.8-0.1-1.2-0.1C893.5,104.2,893.1,104.3,892.7,104.5z M900.3,104.2c-1.2,0-2.1,0.4-2.8,1.1
				c-0.7,0.8-1,1.8-1,3.2c0,0.9,0.2,1.7,0.5,2.3c0.3,0.7,0.7,1.2,1.3,1.5c0.6,0.4,1.3,0.5,2,0.5c1.2,0,2.1-0.4,2.8-1.2
				c0.7-0.8,1-1.8,1-3.3c0-1.4-0.4-2.4-1-3.2C902.4,104.6,901.5,104.2,900.3,104.2z M902.5,111.3c-0.5,0.7-1.3,1-2.2,1
				s-1.7-0.3-2.2-1s-0.8-1.5-0.8-2.7c0-1.2,0.2-2.1,0.8-2.7c0.5-0.7,1.3-1,2.2-1s1.7,0.3,2.2,1c0.5,0.7,0.8,1.5,0.8,2.7
				C903.3,109.7,903,110.7,902.5,111.3z M906.8,101.2c-0.4,0-0.5,0.2-0.5,0.8c0,0.5,0.2,0.8,0.5,0.8c0.2,0,0.3-0.1,0.4-0.2
				c0.1-0.1,0.1-0.3,0.1-0.5c0-0.2-0.1-0.4-0.1-0.5C907.1,101.3,906.9,101.2,906.8,101.2z M906.4,114.6c0,0.9-0.4,1.4-1.2,1.4
				c-0.3,0-0.7-0.1-1-0.2v0.7c0.3,0.1,0.7,0.2,1.1,0.2c0.6,0,1.1-0.2,1.4-0.6c0.4-0.4,0.5-0.9,0.5-1.6v-10.1h-0.8V114.6z
				 M913.3,104.2c-1.1,0-2,0.4-2.7,1.3c-0.7,0.8-1,1.9-1,3.3s0.4,2.4,1,3.2c0.7,0.8,1.7,1.1,2.9,1.1c0.5,0,1-0.1,1.4-0.1
				c0.4-0.1,0.8-0.2,1.3-0.4v-0.7c-0.5,0.2-1,0.4-1.4,0.4c-0.4,0.1-0.8,0.1-1.3,0.1c-1,0-1.8-0.3-2.3-0.9s-0.8-1.5-0.8-2.7h6.3v-0.7
				c0-1.2-0.3-2.1-0.9-2.9C915,104.5,914.3,104.2,913.3,104.2z M910.4,108c0.1-1,0.4-1.8,0.9-2.3c0.5-0.5,1.1-0.8,2-0.8
				c0.8,0,1.4,0.3,1.8,0.8s0.7,1.3,0.7,2.3H910.4z M922.4,104.9c0.5,0,1.2,0.1,1.9,0.4l0.2-0.7c-0.7-0.2-1.4-0.4-2.1-0.4
				c-1.3,0-2.2,0.4-2.9,1.2c-0.7,0.8-1.1,1.9-1.1,3.3s0.4,2.4,1,3.2c0.7,0.8,1.7,1.1,2.9,1.1c0.9,0,1.6-0.1,2.1-0.4v-0.7
				c-0.7,0.3-1.4,0.4-2.1,0.4c-1,0-1.7-0.3-2.3-1s-0.8-1.5-0.8-2.7c0-1.2,0.3-2.1,0.8-2.8S921.3,104.9,922.4,104.9z M927.7,111.9
				c-0.2-0.3-0.4-0.8-0.4-1.4v-5.4h2.5v-0.7h-2.5v-2.1h-0.4l-0.4,1.9l-1.3,0.4v0.5h1.3v5.5c0,0.8,0.2,1.5,0.5,1.9s0.9,0.6,1.7,0.6
				c0.5,0,1-0.1,1.3-0.2v-0.7c-0.4,0.1-0.8,0.1-1.3,0.1C928.3,112.3,927.9,112.2,927.7,111.9z"/>
		</g>
	</g>
	<g display="inline">
		<g>
			<g>
				<defs>
					<rect id="SVGID_3_" x="845.7" y="0" width="59.6" height="58.5"/>
				</defs>
				<clipPath id="SVGID_4_">
					<use xlink:href="#SVGID_3_"  overflow="visible"/>
				</clipPath>
				<path clip-path="url(#SVGID_4_)" fill="#FFFFFF" d="M846,45.1c0,0-3,12.1,8.3,12.1s12.5-4.2,12.5-4.2s2.9,3.1,4.8,3.5
					s18.9,0.1,18.9,0.1s3.1-4.3-6.7-5c0,0,3-4.8,1.9-8.2l2.4-0.4c0,0,4.1,10.9,6.8,13.3l5.6,0.1c0,0,1.8-0.8-2.7-4.2
					c-4.5-3.4-3.5-14.4-2.7-17.9c0.8-3.5,1-12.1-0.3-16.2s0-0.7,0-0.7s7.7,1.9,9.2-2.9c0,0,1.9-0.8,1.5-2.6c0,0-6.1-2.7-7.2-3.3
					c0,0-0.8-2.4-3.2-3.3c0,0,0.8-3.4-0.2-3.9c0,0-3.7,2.3-3.9,3c0,0-0.2-3.9-1-4.6c0,0-4.6,3-4.3,7.2c0,0-6.5,9.8-5.7,16.3
					c0,0-22,8.2-16.5,25.1C863.4,48.6,855,52.4,846,45.1L846,45.1z"/>
			</g>
		</g>
	</g>
</g>
</svg>
